﻿capital = 391
2000.1.1 = {
	set_country_flag = dynamic_flag
	set_country_flag = dynamic_rebel_flag
	if = {
		limit = { has_dlc = "No Step Back" }
		set_oob = "LBA_2000_nsb"
		else = {
			set_oob = "LBA_2000_nonnsb"
		}
	}
	set_cosmetic_tag = LBA_AUTH
	if = {
		limit = {
			has_dlc = "Man the Guns"
		}
		set_naval_oob = "LBA_2000_naval_mtg"
		else = {
			set_naval_oob = "LBA_2000_naval_legacy"
		}
	}

	if = {
		limit = { has_dlc = "By Blood Alone" }
		set_air_oob = "LBA_2000_bba"
		else = {
			set_air_oob = "LBA_2000_nonbba"
		}
	}

	set_variable = { gdp_per_capita = 27.130 }

	add_ideas = {
		#National Statistics
		sunni
		stagnation
		crippling_corruption
		fossil_fuel_industry
		the_military
		intelligence_community

		#Spending
		bureau_03
		defence_05
		police_02
		edu_02
		health_02
		social_01

		#Policies
		export_economy
		partial_draft_army
		volunteer_women
		intervention_regional_interventionism
		officer_basic_training

		#National Spirits
		LoAS_member
		AU_member
		rentier_state
		moderately_conservative_society
		al_jazeera_banned
	}

	#CT
	set_country_flag = threat_level_moderate
	set_variable = { threat_level = 20 }
	set_variable = { radicalization = 20 }
	add_to_array = { global.ct_states = THIS }
	#Islamism
	set_variable = { social_conservatism_government = 60 }
	set_variable = { social_conservatism_society = 60 }
	set_country_flag = relaxed_dress_code
	#UAR
	add_to_array = { global.arabic_countries = THIS }	#From is_arabic_nation trigger

	#Influence system
	init_influence = yes
	set_variable = { domestic_influence_amount = 60 }
	add_to_array = { influence_array = SOV.id }
	add_to_array = { influence_array_val = 20 }
	add_to_array = { influence_array = EGY.id }
	add_to_array = { influence_array_val = 10 }
	add_to_array = { influence_array = ITA.id }
	add_to_array = { influence_array_val = 10 }
	add_to_array = { influence_array = TUN.id }
	add_to_array = { influence_array_val = 5 }
	add_to_array = { influence_array = MOR.id }
	add_to_array = { influence_array_val = 5 }
	startup_influence = yes

	set_variable = { var = debt value = 23 }
	set_variable = { var = treasury value = 20 }
	set_variable = { var = corporate_tax_rate value = 13 }
	set_variable = { var = population_tax_rate value = 9 }
	set_variable = { var = int_investments value = 0 }


	set_technology = {
		legacy_doctrines = 1
		infantry_mass_assault = 1
		#For templates
		infantry_weapons = 1
		command_control_equipment = 1
		Anti_tank_0 = 1
		Heavy_Anti_tank_0 = 1
		util_vehicle_0 = 1

		night_vision_1 = 1

		body_armor_1980 = 1
		camouflage = 1
		camouflage2 = 1

		basic_computing = 1
		integrated_circuit = 1
		computing1 = 1
		decryption1 = 1
		encryption1 = 1

		radar = 1
		fuel_silos = 1

		industrial_electrospun_polymeric_nanofibers = 1
		stereolitography = 1
		fuel_refining = 1
		construction1 = 1
	}
	if = {
		limit = { has_dlc = "No Step Back" }
		set_technology = {
			mbt_tech = 1
			afv_tech = 1
			nsb_artillery_0 = 1
			SP_arty_0 = 1
			nsb_SP_Anti_Air_0 = 1
			nsb_Anti_Air_0 = 1
			light_tank_tech = 1
		}

		else = {
			set_technology = {
				MBT_1 = 1
				early_APC = 1
				APC_1 = 1
				IFV_1 = 1
				artillery_0 = 1
				SP_arty_0 = 1
				SP_Anti_Air_0 = 1
				Anti_Air_0 = 1
				Rec_tank_0 = 1
			}
		}
	}
	if = {
		limit = {
			not = { has_dlc = "Man the Guns" }
		}
		set_technology = {
			landing_craft = 1
			submarine_1 = 1
			diesel_attack_submarine_1 = 1
			cruiser_1 = 1
			cruiser_2 = 1
			destroyer_1 = 1
			frigate_1 = 1
			frigate_2 = 1
			corvette_1 = 1
			corvette_2 = 1
		}
	}
	if = {
		limit = {
			has_dlc = "Man the Guns"
		}
		set_technology = {
			tech_early_naval_weapon_systems = 1
			corvette_hull_1 = 1
			tech_mtg_landing_craft = 1
			tech_submarine_engineering = 1
			attack_submarine_hull_1 = 1
		}
	}
	set_popularities = {
		democratic = 1
		communism = 60
		fascism = 9
		neutrality = 15
		nationalist = 15
	}
	set_politics = {
		ruling_party = communism
		last_election = "1936.1.1"
		election_frequency = 48
		elections_allowed = no
	}

	start_politics_input = yes

	### Party Popularities
	set_variable = { party_pop_array^0 = 0 } #Western_Autocracy
	set_variable = { party_pop_array^1 = 0 } #conservatism
	set_variable = { party_pop_array^2 = 0 } #liberalism
	set_variable = { party_pop_array^3 = 0.01 } #socialism
	set_variable = { party_pop_array^4 = 0 } #Communist-State
	set_variable = { party_pop_array^5 = 0 } #anarchist_communism
	set_variable = { party_pop_array^6 = 0 } #Conservative
	set_variable = { party_pop_array^7 = 0.65 } #Autocracy
	set_variable = { party_pop_array^8 = 0 } #Mod_Vilayat_e_Faqih
	set_variable = { party_pop_array^9 = 0 } #Vilayat_e_Faqih
	set_variable = { party_pop_array^10 = 0 } #Kingdom
	set_variable = { party_pop_array^11 = 0.09 } #Caliphate
	set_variable = { party_pop_array^12 = 0 } #Neutral_Muslim_Brotherhood
	set_variable = { party_pop_array^13 = 0 } #Neutral_Autocracy
	set_variable = { party_pop_array^14 = 0.15 } #Neutral_conservatism
	set_variable = { party_pop_array^15 = 0 } #oligarchism
	set_variable = { party_pop_array^16 = 0 } #Neutral_Libertarian
	set_variable = { party_pop_array^17 = 0 } #Neutral_green
	set_variable = { party_pop_array^18 = 0 } #neutral_Social
	set_variable = { party_pop_array^19 = 0 } #Neutral_Communism
	set_variable = { party_pop_array^20 = 0 } #Nat_Populism
	set_variable = { party_pop_array^21 = 0 } #Nat_Fascism
	set_variable = { party_pop_array^22 = 0.10 } #Nat_Autocracy
	set_variable = { party_pop_array^23 = 0.05 } #Monarchist

	### Ruling Party
	add_to_array = { ruling_party = 7 }

	startup_politics = yes

	### Banned Parties & Balance
	set_partyall_banned = yes
	add_political_power = 300

	create_country_leader = {
		name = "Muammar al-Gaddafi"
		picture = "muammar_al_gaddafi.dds"
		ideology = Autocracy
		traits = {
			emerging_Autocracy
		}
	}

	recruit_character = LBA_abu_bakr_yunis_jabr
	recruit_character = LBA_hasan_al_kabir_al_gaddafi
	recruit_character = LBA_khamis_gaddafi
	recruit_character = LBA_ahmed_oun
	recruit_character = LBA_abdul_fatah_younis
	recruit_character = LBA_ali_attalah_obeidi

	#############################################
	#MTG Variants
	##############
	#if = {
	#	limit = { has_dlc = "Man the Guns" }
	#}
	#############################################

	set_variable = { literacy_rate = 0.765 }

	every_controlled_state = {
		set_variable = { productivity_state_var = 887 }
	}
	set_variable = { overall_productivity = 887 }
}

2017.1.1 = {
	capital = 391
	oob = "LBA_2017"

	set_cosmetic_tag = LBA

	add_ideas = {
		crippling_corruption
		sunni
		LoAS_member
		depression
		defence_08
		edu_02
		health_02
		social_01
		bureau_03
		police_01
		rentier_state
		export_economy
		volunteer_army
		volunteer_women
	}

	set_variable = { var = debt value = 18 }
	set_variable = { var = treasury value = 66 }
	set_variable = { var = int_investments value = 66 }
	set_variable = { var = corporate_tax_rate value = 13 }
	set_variable = { var = population_tax_rate value = 9 }

	#CT
	clr_country_flag = threat_level_moderate
	set_country_flag = threat_level_severe
	set_variable = { threat_level = 75 }
	set_variable = { radicalization = 40 }

	# Starting tech
	set_technology = {
		legacy_doctrines = 1
		infantry_mass_assault = 1
		infantry_weapons = 1
		command_control_equipment = 1
		Anti_tank_0 = 1
		Heavy_Anti_tank_0 = 1
		artillery_0 = 1
		SP_arty_0 = 1
		Anti_Air_0 = 1
		util_vehicle_0 = 1
		landing_craft = 1
		microprocessors = 1
		computing2 = 1
		decryption2 = 1
		encryption2 = 1
		internet1 = 1 	#1G
	}

	set_popularities = {
		democratic = 46.4
		communism = 0.0
		fascism = 3.0
		neutrality = 50.6
		nationalist = 0.0
	}
	set_politics = {
		ruling_party = democratic
		last_election = "1936.1.1"
		election_frequency = 48
		elections_allowed = no
	}

	if = {
		limit = {
			has_dlc = "Man the Guns"
		}
		set_technology = {
			tech_early_naval_weapon_systems = 1
			tech_mtg_landing_craft = 1
		}
	}
	start_politics_input = yes

	### Party Popularities
	set_variable = { party_pop_array^0 = 0.142 } #Western_Autocracy
	set_variable = { party_pop_array^1 = 0 } #conservatism
	set_variable = { party_pop_array^2 = 0.322 } #liberalism
	set_variable = { party_pop_array^3 = 0 } #socialism
	set_variable = { party_pop_array^4 = 0 } #Communist-State
	set_variable = { party_pop_array^5 = 0 } #anarchist_communism
	set_variable = { party_pop_array^6 = 0 } #Conservative
	set_variable = { party_pop_array^7 = 0 } #Autocracy
	set_variable = { party_pop_array^8 = 0 } #Mod_Vilayat_e_Faqih
	set_variable = { party_pop_array^9 = 0 } #Vilayat_e_Faqih
	set_variable = { party_pop_array^10 = 0.01 } #Kingdom
	set_variable = { party_pop_array^11 = 0.02 } #Caliphate
	set_variable = { party_pop_array^12 = 0.222 } #Neutral_Muslim_Brotherhood
	set_variable = { party_pop_array^13 = 0 } #Neutral_Autocracy
	set_variable = { party_pop_array^14 = 0.147 } #Neutral_conservatism
	set_variable = { party_pop_array^15 = 0.137 } #oligarchism
	set_variable = { party_pop_array^16 = 0 } #Neutral_Libertarian
	set_variable = { party_pop_array^17 = 0 } #Neutral_green
	set_variable = { party_pop_array^18 = 0 } #neutral_Social
	set_variable = { party_pop_array^19 = 0 } #Neutral_Communism
	set_variable = { party_pop_array^20 = 0 } #Nat_Populism
	set_variable = { party_pop_array^21 = 0 } #Nat_Fascism
	set_variable = { party_pop_array^22 = 0 } #Nat_Autocracy
	set_variable = { party_pop_array^23 = 0 } #Monarchist

	### Ruling Party
	add_to_array = { ruling_party = 0 }

	startup_politics = yes

	retire_character = LBA_abu_bakr_yunis_jabr
	retire_character = LBA_hasan_al_kabir_al_gaddafi
	retire_character = LBA_khamis_gaddafi
	retire_character = LBA_ahmed_oun
	retire_character = LBA_abdul_fatah_younis
	retire_character = LBA_ali_attalah_obeidi

	recruit_character = LBA_air_chief
}