﻿capital = 208
2000.1.1 = {
	oob = "PAL_2000"

	set_cosmetic_tag = PAL
	set_variable = { gdp_per_capita = 4.503 }

	add_ideas = {
		unrestrained_corruption
		sunni
		Lacks_International_Recognition
		LoAS_member
		israeli_settlements
		large_refugee_population
		stagnation
		defence_04
		edu_03
		health_03
		social_01
		bureau_05
		police_05
		volunteer_army
		volunteer_women
		consumption_economy
		officer_basic_training
		farmers
		small_medium_business_owners
		the_ulema
	}

	#Economy
	set_variable = { var = corporate_tax_rate value = 15 }
	set_variable = { var = population_tax_rate value = 17 }

	set_technology = {
		legacy_doctrines = 1
		infantry_mass_assault = 1
		early_guerilla_warfare = 1

		infantry_weapons = 1
		command_control_equipment = 1
		Anti_tank_0 = 1
		util_vehicle_0 = 1
		night_vision_1 = 1

		basic_computing = 1
		integrated_circuit = 1
		computing1 = 1
		decryption1 = 1
		encryption1 = 1

		radar = 1
		fuel_silos = 1

		internet1 = 1

		industrial_electrospun_polymeric_nanofibers = 1
		stereolitography = 1
		fuel_refining = 1
		construction1 = 1
	}
	if = {
		limit = { has_dlc = "No Step Back" }
		set_technology = {
			nsb_Anti_Air_0 = 1
		}
		else = {
			set_technology = {
				Anti_Air_0 = 1
			}
		}
	}

	#Statehood system
	add_to_array = {
		global.Unrecognised_States = THIS
	}

	ISR = { set_country_flag = original_owner_PAL }
	USA = { set_country_flag = supports_original_owner_PAL }

	every_other_country = {
		limit = {
			NOT = {
				tag = STK
				tag = COL
				tag = STL
				tag = SWE
				tag = HAI
				tag = GUA
				tag = SIA
				tag = ICE
				tag = GRA
				tag = DMI
				tag = BLZ
				tag = STV
				tag = HON
				tag = ELS
				tag = LIB
				tag = SYR
				tag = SSU
				tag = LES
				tag = URG
				tag = SUR
				tag = PRU
				tag = GUY
				tag = CHL
				tag = ECU
				tag = BOL
				tag = ARG
				tag = BRA
				tag = DOM
				tag = VEN
				tag = CDI
				tag = LEB
				tag = COS
				tag = MNT
				tag = PAR
				tag = TIM
				tag = ARM
				tag = AST
				tag = AUS
				tag = BAH
				tag = BEL
				tag = CAM
				tag = CAN
				tag = CRO
				tag = DEN
				tag = ERI
				tag = EST
				tag = FIJ
				tag = FIN
				tag = FRA
				tag = GER
				tag = GRE
				tag = IRE
				tag = ISR
				tag = ITA
				tag = JAM
				tag = JAP
				tag = KOR
				tag = LAT
				tag = LIT
				tag = LUX
				tag = MEX
				tag = MIC
				tag = MLV
				tag = BRM
				tag = HOL
				tag = FYR
				tag = NZL
				tag = NOR
				tag = PAN
				tag = POR
				tag = SIN
				tag = SLV
				tag = SOL
				tag = SPR
				tag = SWI
				tag = ENG
				tag = USA
				tag = ABK
				tag = ACE
				tag = AFR
				tag = AGF
				tag = AQY
				tag = BAL
				tag = CHE
				tag = DAR
				tag = HEZ
				tag = HOU
				tag = ISI
				tag = JUB
				tag = KAR
				tag = KAC
				tag = SHN
				tag = WAA
				tag = KOS
				tag = KUR
				tag = LOG
				tag = LUR
				tag = MLC
				tag = NCY
				tag = NOV
				tag = NUS
				tag = PMR
				tag = PUN
				tag = RCD
				tag = ROJ
				tag = SHB
				tag = SML
				tag = SNA
				tag = SOO
				tag = SRF
				tag = SWS
			}
		}
		set_country_flag = Recognised_@FROM
	}

	add_to_variable = {
		var = PAL.Granted_Recognition
		value = 102
	}
	#UAR
	add_to_array = { global.arabic_countries = THIS }	#From is_arabic_nation trigger

	#Influence system
	init_influence = yes
	set_variable = { domestic_influence_amount = 40 }
	add_to_array = { influence_array = PER.id }
	add_to_array = { influence_array_val = 20 }
	add_to_array = { influence_array = EGY.id }
	add_to_array = { influence_array_val = 25 }
	add_to_array = { influence_array = SYR.id }
	add_to_array = { influence_array_val = 40 }
	add_to_array = { influence_array = FRA.id }
	add_to_array = { influence_array_val = 20 }
	add_to_array = { influence_array = TUR.id }
	add_to_array = { influence_array_val = 65 }
	add_to_array = { influence_array = USA.id }
	add_to_array = { influence_array_val = 60 }
	add_to_array = { influence_array = SAU.id }
	add_to_array = { influence_array_val = 40 }
	startup_influence = yes

	set_popularities = {
		democratic = 18.0
		communism = 6.0
		fascism = 11.0
		neutrality = 65.0
		nationalist = 0.0
	}
	set_politics = {
		ruling_party = neutrality
		last_election = "1996.1.20"
		election_frequency = 60
		elections_allowed = no
	}

	start_politics_input = yes

	### Party Popularities
	set_variable = { party_pop_array^0 = 0 } #Western_Autocracy
	set_variable = { party_pop_array^1 = 0.08 } #conservatism
	set_variable = { party_pop_array^2 = 0 } #liberalism
	set_variable = { party_pop_array^3 = 0.1 } #socialism
	set_variable = { party_pop_array^4 = 0.06 } #Communist-State
	set_variable = { party_pop_array^5 = 0 } #anarchist_communism
	set_variable = { party_pop_array^6 = 0 } #Conservative
	set_variable = { party_pop_array^7 = 0 } #Autocracy
	set_variable = { party_pop_array^8 = 0 } #Mod_Vilayat_e_Faqih
	set_variable = { party_pop_array^9 = 0 } #Vilayat_e_Faqih
	set_variable = { party_pop_array^10 = 0.08 } #Kingdom
	set_variable = { party_pop_array^11 = 0.03 } #Caliphate
	set_variable = { party_pop_array^12 = 0.25 } #Neutral_Muslim_Brotherhood
	set_variable = { party_pop_array^13 = 0 } #Neutral_Autocracy
	set_variable = { party_pop_array^14 = 0 } #Neutral_conservatism
	set_variable = { party_pop_array^15 = 0 } #oligarchism
	set_variable = { party_pop_array^16 = 0 } #Neutral_Libertarian
	set_variable = { party_pop_array^17 = 0 } #Neutral_green
	set_variable = { party_pop_array^18 = 0.4 } #neutral_Social
	set_variable = { party_pop_array^19 = 0 } #Neutral_Communism
	set_variable = { party_pop_array^20 = 0 } #Nat_Populism
	set_variable = { party_pop_array^21 = 0 } #Nat_Fascism
	set_variable = { party_pop_array^22 = 0 } #Nat_Autocracy
	set_variable = { party_pop_array^23 = 0 } #Monarchist

	### Ruling Party
	add_to_array = { ruling_party = 18 }

	startup_politics = yes

	create_country_leader = {
		name = "Yasser Arafat"
		picture = "yassir_arafat.dds"
		ideology = neutral_Social
		traits = {
			neutrality_neutral_Social
		}
	}

	recruit_character = PAL_saeb_alajuz
	recruit_character = PAL_amjad_abuomar

	every_controlled_state = {
		set_variable = { productivity_state_var = 407 }
	}
	set_variable = { overall_productivity = 407 }
}

2017.1.1 = {
	oob = "PAL_2017"

	add_opinion_modifier = { target = ISR modifier = HAM_ISR_Occupation }

	every_other_country = {
		limit = {
			OR = {
				tag = STK
				tag = COL
				tag = STL
				tag = SWE
				tag = HAI
				tag = GUA
				tag = SIA
				tag = ICE
				tag = GRA
				tag = DMI
				tag = BLZ
				tag = STV
				tag = HON
				tag = ELS
				tag = LIB
				tag = SYR
				tag = SSU
				tag = LES
				tag = URG
				tag = SUR
				tag = PRU
				tag = GUY
				tag = CHL
				tag = ECU
				tag = BOL
				tag = ARG
				tag = BRA
				tag = DOM
				tag = VEN
				tag = CDI
				tag = LEB
				tag = COS
				tag = MNT
				tag = PAR
				tag = TIM
			}
		}
	}

	add_to_variable = {
		var = PAL.Granted_Recognition
		value = 35
	}

	add_ideas = {
		unrestrained_corruption
		sunni
		LoAS_member
		stagnation
		defence_04
		edu_03
		health_03
		social_01
		bureau_05
		police_05
		volunteer_army
		volunteer_women
	}

	#Economy
	set_variable = { var = corporate_tax_rate value = 15 }
	set_variable = { var = population_tax_rate value = 17 }

	# Starting tech
	set_technology = {
		legacy_doctrines = 1
		infantry_mass_assault = 1
		infantry_weapons = 1
		command_control_equipment = 1
		Anti_tank_0 = 1
		Anti_Air_0 = 1
		util_vehicle_0 = 1
		night_vision_1 = 1

		basic_computing = 1
		integrated_circuit = 1
		computing1 = 1
		decryption1 = 1
		encryption1 = 1
		microprocessors = 1
		computing2 = 1
		decryption2 = 1
		encryption2 = 1
	}

	set_popularities = {
		democratic = 3.0
		communism = 3.1
		fascism = 0.0
		neutrality = 93.9
		nationalist = 0.0
	}
	set_politics = {
		ruling_party = neutrality
		last_election = "1996.1.20"
		election_frequency = 60
		elections_allowed = no
	}

	start_politics_input = yes

	### Party Popularities
	set_variable = { party_pop_array^0 = 0 } #Western_Autocracy
	set_variable = { party_pop_array^1 = 0 } #conservatism
	set_variable = { party_pop_array^2 = 0.015 } #liberalism
	set_variable = { party_pop_array^3 = 0.015 } #socialism
	set_variable = { party_pop_array^4 = 0.023 } #Communist-State
	set_variable = { party_pop_array^5 = 0.008 } #anarchist_communism
	set_variable = { party_pop_array^6 = 0 } #Conservative
	set_variable = { party_pop_array^7 = 0 } #Autocracy
	set_variable = { party_pop_array^8 = 0 } #Mod_Vilayat_e_Faqih
	set_variable = { party_pop_array^9 = 0 } #Vilayat_e_Faqih
	set_variable = { party_pop_array^10 = 0 } #Kingdom
	set_variable = { party_pop_array^11 = 0 } #Caliphate
	set_variable = { party_pop_array^12 = 0.561 } #Neutral_Muslim_Brotherhood
	set_variable = { party_pop_array^13 = 0 } #Neutral_Autocracy
	set_variable = { party_pop_array^14 = 0 } #Neutral_conservatism
	set_variable = { party_pop_array^15 = 0 } #oligarchism
	set_variable = { party_pop_array^16 = 0 } #Neutral_Libertarian
	set_variable = { party_pop_array^17 = 0 } #Neutral_green
	set_variable = { party_pop_array^18 = 0.370 } #neutral_Social
	set_variable = { party_pop_array^19 = 0.008 } #Neutral_Communism
	set_variable = { party_pop_array^20 = 0 } #Nat_Populism
	set_variable = { party_pop_array^21 = 0 } #Nat_Fascism
	set_variable = { party_pop_array^22 = 0 } #Nat_Autocracy
	set_variable = { party_pop_array^23 = 0 } #Monarchist

	### Ruling Party
	add_to_array = { ruling_party = 18 }

	startup_politics = yes

	create_country_leader = {
		name = "Mahmoud Abbas"
		picture = "mahmoud_abbas.dds"
		ideology = neutral_Social
		traits = {
			neutrality_neutral_Social
		}
	}
}