Syria_decisions = {

	hire_PMC = {

		icon = GFX_decision_generic_army_support_new

		visible = {
			original_tag = SYR
			has_government = communism
			check_variable = { SYR_hired_PMCs < 3 }
			hidden_trigger = {
				NOT = { has_global_flag = Syria_Civil_War_Over }
			}
			OR = {
				has_war_with = NUS
				has_war_with = FSA
			}
		}

		available = {
			original_tag = SYR
			has_government = communism
			custom_trigger_tooltip = {
				tooltip = TT_HIRE_PMCS_LIMIT
				OR = {
					NOT = { has_variable = SYR_hired_PMCs }
					check_variable = { SYR_hired_PMCs < 3 }
				}
			}
		}

		cost = 200

		days_remove = 30
		days_re_enable = 120

		complete_effect = {
			log = "[GetDateText]: [Root.GetName]: Decision hire_PMC"
			add_popularity = { ideology = communism popularity = -0.05 }
			set_temp_variable = { treasury_change = 0.5 }
			modify_treasury_effect = yes
		}

		remove_effect = {
			log = "[GetDateText]: [Root.GetName]: Decision remove hire_PMC"
			hidden_effect = { add_manpower = 4000 }
			if = {
				limit = { check_variable = { SYR_hired_PMCs > 2 } }
				186 = {
					create_unit = {
						division = " name = \"Pride of Syria\" division_template = \"Private Military Company\" start_experience_factor = 0.5"
						owner = ROOT
						prioritize_location = 4111
					}
				}
				add_to_variable = { SYR_hired_PMCs = 1 }
			}
			if = {
				limit = { check_variable = { SYR_hired_PMCs > 1 } }
				186 = {
					create_unit = {
						division = " name = \"Damascus Shield\" division_template = \"Private Military Company\" start_experience_factor = 0.5"
						owner = ROOT
						prioritize_location = 4111
					}
				}
				add_to_variable = { SYR_hired_PMCs = 1 }
			}
			if = {
				limit = { NOT = { has_variable = SYR_hired_PMCs } }
				186 = {
					create_unit = {
						division = " name = \"Hawk Brigade\" division_template = \"Private Military Company\" start_experience_factor = 0.5"
						owner = ROOT
						prioritize_location = 4111
					}
				}
				set_variable = { SYR_hired_PMCs = 1 }
			}
		}

		ai_will_do = {
			factor = 1
			modifier = {
				factor = 0
				num_divisions > 50
			}
		}
	}

	renounce_claims_on_golan = {

		icon = GFX_decision_generic_break_treaty

		visible = {
			OR = {
				original_tag = FSA
				original_tag = DRU
			}
			587 = {
				OR = {
					is_core_of = ROOT
					is_claimed_by = ROOT
				}
			}
			NOT = { has_country_flag = Golan_Negotiations }
			ISR = {	owns_state = 587 }
			OR = {
				has_war_with = SYR
				has_war_with = FSA
			}
		}

		cost = 100

		complete_effect = {
			log = "[GetDateText]: [Root.GetName]: Decision renounce_claims_on_golan"
			set_country_flag = Golan_Negotiations
			ISR = {	country_event = { id = SyriaDecisions.0 days = 3 } }

			set_party_index_to_ruling_party = yes
			set_temp_variable = { party_popularity_increase = -0.10 }
			set_temp_variable = { temp_outlook_increase = -0.05 }
			add_relative_party_popularity = yes
		}

		ai_will_do = {
			factor = 0
			modifier = {
				add = 1
				original_tag = DRU
				surrender_progress > 0.1
			}
			modifier = {
				add = 1
				original_tag = FSA
				any_other_country = {
					original_tag = ISR
					same_ideology = yes
				}
			}
		}
	}

	renounce_claims_on_hatay = {

		icon = GFX_decision_generic_break_treaty

		visible = {
			original_tag = ALA
			158 = {
				OR = {
					is_core_of = ROOT
					is_claimed_by = ROOT
				}
			}
			NOT = { has_country_flag = Hatay_Negotiations }
			TUR = {	owns_state = 158 }
			has_war_with = FSA
		}
		cost = 50

		complete_effect = {
			log = "[GetDateText]: [Root.GetName]: Decision renounce_claims_on_hatay"
			set_country_flag = Hatay_Negotiations
			TUR = {	country_event = { id = SyriaDecisions.3 days = 3 } }
			set_party_index_to_ruling_party = yes
			set_temp_variable = { party_popularity_increase = -0.10 }
			set_temp_variable = { temp_outlook_increase = -0.05 }
			add_relative_party_popularity = yes
		}

		ai_will_do = {
			factor = 0
			modifier = {
				add = 1
				tag = ALA
				surrender_progress > 0.1
			}
		}

	}

	guarantee_rojava_independence = {

		icon = GFX_decision_generic_nationalism

		visible = {
			OR = {
				original_tag = SYR
				original_tag = FSA
			}
			OR = {
				has_war_with = SYR
				has_war_with = FSA
				has_war_with = NUS
			}
			ROJ = { exists = yes }
			NOT = { has_country_flag = Rojava_Negotiations }
		}

		cost = 200

		complete_effect = {
			log = "[GetDateText]: [Root.GetName]: Decision guarantee_rojava_independence"
			set_country_flag = Rojava_Negotiations
			ROJ = {	country_event = { id = SyriaDecisions.6 days = 3 } }

			set_party_index_to_ruling_party = yes
			set_temp_variable = { party_popularity_increase = -0.20 }
			set_temp_variable = { temp_outlook_increase = -0.10 }
			add_relative_party_popularity = yes
		}

		ai_will_do = {
			factor = 0
			modifier = {
				add = 50
				surrender_progress > 0.8
				is_historical_focus_on = no
			}
		}
	}

	concede_rojava = {
		visible = {
			original_tag = SYR
			has_war_with = FSA
			controls_state = 193
		}

		icon = GFX_decision_generic_nationalism

		fire_only_once = yes

		cost = 10

		complete_effect = {
			ROJ = {
				add_state_core = 193
				add_state_core = 575
				add_state_core = 571
				hidden_effect = { load_oob = ROJ_2017 }
			}
			SYR = {
				release = ROJ
				hidden_effect = {
					add_state_core = 193
					add_state_core = 575
					add_state_core = 571
				}
			}
			hidden_effect = { ROJ = { load_oob = ROJ_2017 } }
		}

		ai_will_do = {
			factor = 10
		}
	}


}

Syria_hafez_succession = {

	SYR_bushra_present_to_inner_circle = {
		visible = {
		}

		available = {
			custom_trigger_tooltip = {
				tooltip = TT_HAFEZ_NOT_DEAD
				NOT = { has_country_flag = Syria_Hafez_dead }
			}
		}

		days_re_enable = 30

		cost = 100

		complete_effect = {
			log = "[GetDateText]: [Root.GetName]: Decision SYR_bushra_present_to_inner_circle"
			custom_effect_tooltip = TT_SYRIA_PRESENT_TO_INNER_CIRCLE
			add_to_variable = { bushra_popularity = 10 }
			hidden_effect = {
				add_to_variable = { added_bushra_popularity = 10 }
			}
		}

		ai_will_do = {
			factor = 1
			modifier = {
				factor = 0
				is_historical_focus_on = yes
			}
		}
	}

	SYR_bashar_present_to_inner_circle = {
		visible = {
		}

		available = {
			custom_trigger_tooltip = {
				tooltip = TT_HAFEZ_NOT_DEAD
				NOT = { has_country_flag = Syria_Hafez_dead }
			}
		}

		days_re_enable = 30

		cost = 100

		complete_effect = {
			log = "[GetDateText]: [Root.GetName]: Decision SYR_bashar_present_to_inner_circle"
			custom_effect_tooltip = TT_SYRIA_PRESENT_TO_INNER_CIRCLE
			add_to_variable = { bashar_popularity = 10 }
			hidden_effect = {
				add_to_variable = { added_bashar_popularity = 10 }
			}
		}

		ai_will_do = {
			factor = 1
		}
	}

	SYR_maher_present_to_inner_circle = {
		visible = {
		}

		available = {
			custom_trigger_tooltip = {
				tooltip = TT_HAFEZ_NOT_DEAD
				NOT = { has_country_flag = Syria_Hafez_dead }
			}
		}

		days_re_enable = 30

		cost = 100

		complete_effect = {
			log = "[GetDateText]: [Root.GetName]: Decision SYR_maher_present_to_inner_circle"
			custom_effect_tooltip = TT_SYRIA_PRESENT_TO_INNER_CIRCLE
			add_to_variable = { maher_popularity = 10 }
			hidden_effect = {
				add_to_variable = { added_maher_popularity = 10 }
			}
		}

		ai_will_do = {
			factor = 1
			modifier = {
				factor = 0
				is_historical_focus_on = yes
			}
		}
	}

	SYR_bushra_gather_public_support = {
		visible = {
		}

		available = {
			custom_trigger_tooltip = {
				tooltip = TT_HAFEZ_NOT_DEAD
				NOT = { has_country_flag = Syria_Hafez_dead }
			}
		}

		days_re_enable = 30

		cost = 100

		complete_effect = {
			log = "[GetDateText]: [Root.GetName]: Decision SYR_bushra_gather_public_support"
			custom_effect_tooltip = TT_SYRIA_GATHER_PUBLIC_SUPPORT
			add_to_variable = { bushra_popularity = 5 }
			hidden_effect = {
				add_to_variable = { added_bushra_popularity = 5 }
			}
			add_popularity = { ideology = neutrality popularity = 0.05 }
		}

		ai_will_do = {
			factor = 1
			modifier = {
				factor = 0
				is_historical_focus_on = yes
			}
		}
	}

	SYR_bashar_gather_public_support = {
		visible = {
		}

		available = {
			custom_trigger_tooltip = {
				tooltip = TT_HAFEZ_NOT_DEAD
				NOT = { has_country_flag = Syria_Hafez_dead }
			}
		}

		days_re_enable = 30

		cost = 100

		complete_effect = {
			log = "[GetDateText]: [Root.GetName]: Decision SYR_bashar_gather_public_support"
			custom_effect_tooltip = TT_SYRIA_GATHER_PUBLIC_SUPPORT
			add_to_variable = { bashar_popularity = 5 }
			hidden_effect = {
				add_to_variable = { added_bashar_popularity = 5 }
			}
			add_popularity = { ideology = communism popularity = 0.05 }
		}

		ai_will_do = {
			factor = 1
		}
	}

	SYR_maher_gather_public_support = {
		visible = {
		}

		available = {
			custom_trigger_tooltip = {
				tooltip = TT_HAFEZ_NOT_DEAD
				NOT = { has_country_flag = Syria_Hafez_dead }
			}
		}

		days_re_enable = 30

		cost = 100

		complete_effect = {
			log = "[GetDateText]: [Root.GetName]: Decision SYR_maher_gather_public_support"
			custom_effect_tooltip = TT_SYRIA_GATHER_PUBLIC_SUPPORT
			add_to_variable = { maher_popularity = 5 }
			hidden_effect = {
				add_to_variable = { added_maher_popularity = 5 }
			}
			add_popularity = { ideology = nationalist popularity = 0.05 }
		}

		ai_will_do = {
			factor = 1
			modifier = {
				factor = 0
				is_historical_focus_on = yes
			}
		}
	}

	SYR_bushra_familiarise_in_government = {
		visible = {
		}

		available = {
			custom_trigger_tooltip = {
				tooltip = TT_HAFEZ_NOT_DEAD
				NOT = { has_country_flag = Syria_Hafez_dead }
			}
		}

		days_re_enable = 30

		cost = 100

		complete_effect = {
			log = "[GetDateText]: [Root.GetName]: Decision SYR_bushra_familiarise_in_government"
			custom_effect_tooltip = TT_SYRIA_GATHER_PUBLIC_SUPPORT
			add_to_variable = { bushra_popularity = 5 }
			hidden_effect = {
				add_to_variable = { added_bushra_popularity = 5 }
			}
			add_stability = 0.05
		}

		ai_will_do = {
			factor = 1
			modifier = {
				factor = 0
				is_historical_focus_on = yes
			}
		}
	}

	SYR_bashar_familiarise_in_government = {
		visible = {
		}

		available = {
			custom_trigger_tooltip = {
				tooltip = TT_HAFEZ_NOT_DEAD
				NOT = { has_country_flag = Syria_Hafez_dead }
			}
		}

		days_re_enable = 30

		cost = 100

		complete_effect = {
			log = "[GetDateText]: [Root.GetName]: Decision SYR_bashar_familiarise_in_government"
			custom_effect_tooltip = TT_SYRIA_GATHER_PUBLIC_SUPPORT
			add_to_variable = { bashar_popularity = 5 }
			hidden_effect = {
				add_to_variable = { added_bashar_popularity = 5 }
			}
			add_stability = 0.05
		}

		ai_will_do = {
			factor = 1
		}
	}

	SYR_maher_familiarise_in_government = {
		visible = {
		}

		available = {
			custom_trigger_tooltip = {
				tooltip = TT_HAFEZ_NOT_DEAD
				NOT = { has_country_flag = Syria_Hafez_dead }
			}
		}

		days_re_enable = 30

		cost = 100

		complete_effect = {
			log = "[GetDateText]: [Root.GetName]: Decision SYR_maher_familiarise_in_government"
			custom_effect_tooltip = TT_SYRIA_GATHER_PUBLIC_SUPPORT
			add_to_variable = { maher_popularity = 5 }
			hidden_effect = {
				add_to_variable = { added_maher_popularity = 5 }
			}
			add_stability = 0.05
		}

		ai_will_do = {
			factor = 1
			modifier = {
				factor = 0
				is_historical_focus_on = yes
			}
		}
	}
}

Syria_greater_syria_decisions = {

	demand_submission_from_palestine = {

		visible = {
			has_completed_focus = SYR_arm_palestinians_to_fight
			has_completed_focus = SYR_zionist_threat
			OR = {
				AND = {
					country_exists = PAL
					PAL = { NOT = { is_subject_of = ROOT } }
				}
				AND = {
					country_exists = HAM
					HAM = { NOT = { is_subject_of = ROOT } }
				}
			}
		}

		available = {
			has_war = no
			OR = {
				NOT = { country_exists = ISR }
				ISR = { is_subject_of = ROOT }
			}
		}

		cost = 50

		complete_effect = {
			log = "[GetDateText]: [Root.GetName]: Decision sow_discord_between_HEZ_and_PER"
			if = {
				limit = {
					country_exists = PAL
					PAL = { NOT = { is_subject_of = ROOT } }
				}
				PAL = { country_event = { id = md4.14 hours = 6 } }
			}
			if = {
				limit = {
					country_exists = HAM
					HAM = { NOT = { is_subject_of = ROOT } }
				}
				HAM = { country_event = { id = md4.14 hours = 6 } }
			}
		}

		ai_will_do = {
			factor = 10
		}

	}

	integrate_palestine = {

		visible = {
			has_completed_focus = SYR_zionist_threat
			OR = {
				HAM = { is_subject_of = ROOT }
				PAL = { is_subject_of = ROOT }
				ISR = { is_subject_of = ROOT }
			}
		}

		available = {
			has_war = no
		}

		cost = 150
		days_remove = 180

		remove_effect = {
			log = "[GetDateText]: [Root.GetName]: Decision integrate_palestine"
			if = {
				limit = {
					PAL = { is_subject_of = ROOT }
				}
				PAL = {
					every_owned_state = {
						add_core_of = ROOT
					}
				}
				annex_country = {
					target = PAL
					transfer_troops = yes
				}
			}
			if = {
				limit = {
					HAM = { is_subject_of = ROOT }
				}
				HAM = {
					every_owned_state = {
						add_core_of = ROOT
					}
				}
				annex_country = {
					target = HAM
					transfer_troops = yes
				}
			}
			if = {
				limit = {
					ISR = { is_subject_of = ROOT }
				}
				ISR = {
					every_owned_state = {
						add_core_of = ROOT
					}
				}
				annex_country = {
					target = ISR
					transfer_troops = yes
				}
			}
			#Reorganise Israel
			hidden_effect = {
				587 = {
					remove_core_of = ISR
				}
				205 = {
					add_core_of = ISR
					add_core_of = PAL
					remove_core_of = HAM
					remove_claim_by = HAM
				}
				208 = {
					add_core_of = ISR
					add_core_of = PAL
					remove_core_of = HAM
					remove_claim_by = HAM
				}
				204 = {
					add_core_of = ISR
					add_core_of = PAL
					remove_core_of = HAM
					remove_claim_by = HAM
				}
				207 = {
					add_core_of = ISR
					add_core_of = PAL
					remove_core_of = HAM
					remove_claim_by = HAM
				}
				209 = {
					add_core_of = ISR
					add_core_of = PAL
					remove_core_of = HAM
					remove_claim_by = HAM
				}
				206 = {
					add_core_of = ISR
					add_core_of = PAL
					remove_core_of = HAM
					remove_claim_by = HAM
				}
			}
		}

		ai_will_do = {
			factor = 10
		}

	}

	new_jewish_diaspora = {

		available = {
			always = no
		}

		activation = {
			owns_state = 205
			owns_state = 208
			owns_state = 204
			owns_state = 207
			owns_state = 209
			owns_state = 206
			has_completed_focus = SYR_zionist_threat
		}

		days_mission_timeout = 180

		fire_only_once = yes

		timeout_effect = {
			log = "[GetDateText]: [Root.GetName]: Decision new_jewish_diaspora"
			if = {
				limit = { has_start_date < 2016.1.1 }
				if = {
					limit = { NOT = { has_idea = syria_jewish_rights_guaranteed } }
					205 = { add_manpower = -640000 }
					204 = { add_manpower = -925000 }
					207 = { add_manpower = -311375 }
					206 = { add_manpower = -357355 }
				}
				if = {
					limit = { has_idea = syria_jewish_rights_guaranteed }
					205 = { add_manpower = -320000 }
					205 = { add_core_of = ROOT }
					204 = { add_manpower = -462500 }
					204 = { add_core_of = ROOT }
					207 = { add_manpower = -155687 }
					207 = { add_core_of = ROOT }
					206 = { add_manpower = -178677 }
					206 = { add_core_of = ROOT }
				}
			}
			if = {
				limit = { has_start_date > 2016.1.1 }
				if = {
					limit = { NOT = { has_idea = syria_jewish_rights_guaranteed } }
					205 = { add_manpower = -1170000 }
					204 = { add_manpower = -1690000 }
					207 = { add_manpower = -1000000 }
					206 = { add_manpower = -650000 }
				}
				if = {
					limit = { has_idea = syria_jewish_rights_guaranteed }
					205 = { add_manpower = -585000 }
					205 = { add_core_of = ROOT }
					204 = { add_manpower = -845000 }
					204 = { add_core_of = ROOT }
					207 = { add_manpower = -500000 }
					207 = { add_core_of = ROOT }
					206 = { add_manpower = -325000 }
					206 = { add_core_of = ROOT }
				}
			}
		}

		ai_will_do = {
			factor = 10
		}

	}

	guarantee_jewish_rights = {

		visible = {
			owns_state = 205
			owns_state = 208
			owns_state = 204
			owns_state = 207
			owns_state = 209
			owns_state = 206
			NOT = { has_idea = syria_jewish_rights_guaranteed }
			has_active_mission = new_jewish_diaspora
		}

		cost = 150

		complete_effect = {
			log = "[GetDateText]: [Root.GetName]: Decision guarantee_jewish_rights"
			add_ideas = syria_jewish_rights_guaranteed
		}

		ai_will_do = {
			factor = 10
		}

	}

	syria_ally_with_houthis = {

		visible = {
			has_completed_focus = SYR_crush_the_sauds
			has_war_with = SAU
			country_exists = HOU
		}

		available = {
			HOU = { is_subject = no }
			HOU = { is_in_faction = no }
			has_idea = shia
			HOU = { has_idea = shia }
		}

		cost = 150

		fire_only_once = yes

		complete_effect = {
			log = "[GetDateText]: [Root.GetName]: Decision syria_ally_with_houthis"
			HOU = { country_event = { id = SyriaFocus.70 hours = 6 } }
		}

		ai_will_do = {
			factor = 10
		}
	}

	syria_shia_uprising_in_qatif = {

		visible = {
			has_completed_focus = SYR_crush_the_sauds
			has_war_with = SAU
			NOT = { country_exists = QTF }
		}

		available = {
			SAU = { owns_state = 174 }
			has_idea = shia
		}

		cost = 150

		fire_only_once = yes

		complete_effect = {
			log = "[GetDateText]: [Root.GetName]: Decision syria_shia_uprising_in_qatif"
			SAU = { release = QTF }
			QTF = { declare_war_on = { target = SAU type = annex_everything } }
			hidden_effect = {
				QTF = { load_oob = QTF_uprising }
				SAU = {
					set_province_controller = 3462
					set_province_controller = 10850
					set_province_controller = 7995
					set_province_controller = 9032
					set_province_controller = 5024
					set_province_controller = 3374
					set_province_controller = 4932
				}
			}
			SAU = { country_event = { id = SyriaFocus.71 hours = 6 } }
			QTF = { country_event = { id = SyriaFocus.71 hours = 6 } }
		}

		ai_will_do = {
			factor = 10
		}
	}

	syria_operation_eastern_whirlwind = {

		visible = {
			has_completed_focus = SYR_weaken_iran
			PER = { NOT = { is_subject_of = ROOT } }
		}

		available = {
			NOT = { is_in_faction_with = PER }
			NOT = { has_war_with = PER }
		}

		days_remove = 30

		war_with_on_remove = PER

		fire_only_once = yes

		remove_effect = {
			log = "[GetDateText]: [Root.GetName]: Decision syria_operation_eastern_whirlwind"
			set_country_flag = SYR_attacked_iran
			declare_war_on = {
				target = PER
				type = annex_everything
			}
			if = {
				limit = { has_country_flag = SYR_arabistan_armed }
				add_state_core = 399
				hidden_effect = { load_oob = SYR_arab_units }
			}
			if = {
				limit = { has_country_flag = SYR_luristan_armed }
				PER = { release = LOR }
				LOR = {	declare_war_on = { target = PER type = annex_everything } }
				hidden_effect = {
					LOR = { load_oob = SYR_LOR_units }
					PER = {
						set_province_controller = 5050
						set_province_controller = 9074
						set_province_controller = 1922
						set_province_controller = 5005
						set_province_controller = 3908
					}
					if = {
						limit = { ROOT = { is_in_faction = yes } }
						ROOT = { add_to_faction = LOR }
					}
				}
			}
			if = {
				limit = {
					has_country_flag = SYR_azerbaijan_armed
					is_in_faction_with = AZE
				}
				AZE = {
					add_to_war = {
						targeted_alliance = ROOT
						enemy = PER
					}
					hidden_effect = { load_oob = SYR_AZE_units }
				}
			}
			if = {
				limit = { has_country_flag = SYR_tabaristan_armed }
				PER = { release = TAB }
				TAB = {	declare_war_on = { target = PER type = annex_everything } }
				hidden_effect = {
					TAB = { load_oob = SYR_TAB_units }
					PER = {
						set_province_controller = 4637
						set_province_controller = 4580
						set_province_controller = 10385
						set_province_controller = 4499
					}
					if = {
						limit = { ROOT = { is_in_faction = yes } }
						ROOT = { add_to_faction = TAB }
					}
				}
			}
			if = {
				limit = { has_country_flag = SYR_balochistan_armed }
				PER = { release = BLC }
				BLC = {	declare_war_on = { target = PER type = annex_everything } }
				hidden_effect = {
					BLC = { load_oob = SYR_BLC_units }
					PER = {
						set_province_controller = 4891
						set_province_controller = 13082
						set_province_controller = 1889
						set_province_controller = 3744
						set_province_controller = 2039
						set_province_controller = 3777
						set_province_controller = 2070
						set_province_controller = 1986
						set_province_controller = 12895
					}
					if = {
						limit = { ROOT = { is_in_faction = yes } }
						ROOT = { add_to_faction = BLC }
					}
				}
			}
		}

		ai_will_do = {
			factor = 10
		}

	}

	syria_iran_recruit_arab_militias = {

		visible = {
			PER = { owns_state = 399 }
			has_completed_focus = SYR_weaken_iran
			NOT = { has_country_flag = SYR_attacked_iran }
		}

		available = {
		}

		cost = 20

		fire_only_once = yes

		complete_effect = {
			log = "[GetDateText]: [Root.GetName]: Decision syria_iran_recruit_arab_militias"
			custom_effect_tooltip = TT_SYR_ARABISTAN_ARMED
			set_temp_variable = { treasury_change = -1.5 }
			modify_treasury_effect = yes
			set_country_flag = SYR_arabistan_armed
		}

		ai_will_do = {
			factor = 10
		}
	}

	syria_iran_recruit_lur_militias = {

		visible = {
			PER = { owns_state = 406 }
			has_completed_focus = SYR_weaken_iran
			NOT = { has_country_flag = SYR_attacked_iran }
		}

		available = {
		}

		cost = 100

		fire_only_once = yes

		complete_effect = {
			log = "[GetDateText]: [Root.GetName]: Decision syria_iran_recruit_lur_militias"
			custom_effect_tooltip = TT_SYR_LURISTAN_ARMED
			set_temp_variable = { treasury_change = -7.5 }
			modify_treasury_effect = yes
			set_country_flag = SYR_luristan_armed
		}

		ai_will_do = {
			factor = 10
		}
	}

	syria_iran_recruit_azeri_militias = {

		visible = {
			PER = { owns_state = 407 }
			has_completed_focus = SYR_weaken_iran
			NOT = { has_country_flag = SYR_attacked_iran }
		}

		available = {
			is_in_faction_with = AZE
		}

		cost = 200

		fire_only_once = yes

		complete_effect = {
			log = "[GetDateText]: [Root.GetName]: Decision syria_iran_recruit_azeri_militias"
			custom_effect_tooltip = TT_SYR_AZERBAIJAN_ARMED
			set_temp_variable = { treasury_change = -22.5 }
			modify_treasury_effect = yes
			set_country_flag = SYR_azerbaijan_armed
		}

		ai_will_do = {
			factor = 10
		}
	}

	syria_iran_recruit_tabaristani_militias = {

		visible = {
			PER = { owns_state = 403 }
			has_completed_focus = SYR_weaken_iran
			NOT = { has_country_flag = SYR_attacked_iran }
		}

		available = {
		}

		cost = 80

		fire_only_once = yes

		complete_effect = {
			log = "[GetDateText]: [Root.GetName]: Decision syria_iran_recruit_turkmen_militias"
			custom_effect_tooltip = TT_SYR_TABARISTAN_ARMED
			set_temp_variable = { treasury_change = -9 }
			modify_treasury_effect = yes
			set_country_flag = SYR_tabaristan_armed
		}

		ai_will_do = {
			factor = 10
		}
	}

	syria_iran_recruit_balochi_militias = {

		visible = {
			PER = { owns_state = 401 }
			has_completed_focus = SYR_weaken_iran
			NOT = { has_country_flag = SYR_attacked_iran }
		}

		available = {
		}

		cost = 50

		fire_only_once = yes

		complete_effect = {
			log = "[GetDateText]: [Root.GetName]: Decision syria_iran_recruit_balochi_militias"
			custom_effect_tooltip = TT_SYR_BALOCHISTAN_ARMED
			set_temp_variable = { treasury_change = -3 }
			modify_treasury_effect = yes
			set_country_flag = SYR_balochistan_armed
		}

		ai_will_do = {
			factor = 10
		}
	}

}

Syria_foreign_policy = {

	#Hezbollah related
	infiltrate_hezbollah = {

		visible = {
			has_completed_focus = SYR_against_hezbollah
			country_exists = HEZ
			NOT = { has_country_flag = HEZ_Infiltrated_by_SYR }
		}

		available = {
			NOT = { is_in_faction_with = HEZ }
			NOT = { HEZ = { is_subject_of = ROOT } }
		}

		cost = 200

		complete_effect = {
			log = "[GetDateText]: [Root.GetName]: Decision infiltrate_hezbollah"
			custom_effect_tooltip = TT_SYR_INFILTRATE_HEZ
			hidden_effect = {
				HEZ = { set_country_flag = HEZ_Infiltrated_by_SYR }
				set_country_flag = HEZ_Infiltrated_by_SYR
			}
			add_ideas = infiltrate_hezbollah_idea
			set_temp_variable = { temp_opinion = 5 }
			change_intelligence_community_opinion = yes
		}

		ai_will_do = {
			factor = 100
		}

	}

	sow_discord_between_HEZ_and_PER = {

		visible = {
			has_completed_focus = SYR_against_hezbollah
			country_exists = HEZ
			NOT = { has_country_flag = Discord_Between_HEZ_PER }
			HEZ = { is_in_faction_with = PER }
		}

		available = {
			NOT = { is_in_faction_with = HEZ }
			NOT = { HEZ = { is_subject_of = ROOT } }
		}

		cost = 200

		complete_effect = {
			log = "[GetDateText]: [Root.GetName]: Decision sow_discord_between_HEZ_and_PER"
			custom_effect_tooltip = TT_SYR_DISCORD_HEZ
			hidden_effect = {
				HEZ = { set_country_flag = Discord_Between_HEZ_PER }
				set_country_flag = Discord_Between_HEZ_PER
			}
			set_temp_variable = { temp_opinion = 5 }
			change_intelligence_community_opinion = yes
		}

		ai_will_do = {
			factor = 100
		}

	}

}

Syria_external_countries = {

	#Hezbollah gains ground
	intervene_against_hezbollah = {

		visible = {
			tag = ISR
			HEZ = { owns_state = 184 }
			NOT = { is_in_faction_with = HEZ }
			NOT = { has_country_flag = ISR_Destroy_HEZ }
		}

		available = {
			always = yes
		}

		complete_effect = {
			log = "[GetDateText]: [Root.GetName]: Decision intervene_against_hezbollah"
			hidden_effect = {
				add_state_claim = 201
			}
			create_wargoal = {
				type = annex_everything
				target = HEZ
			}
			set_country_flag = ISR_Destroy_HEZ
		}

		ai_will_do = {
			factor = 1
			modifier = {
				factor = 0
				has_war = yes
			}
			modifier = {
				factor = 0
				HEZ = {
					is_subject_of = PER
				}
			}
		}

	}

}
