###########################
### adding new building ###
###########################
# X = number of the new building / icon frame of the new building
# file: MD_missiles_on_actions.txt
# while_loop_effect global.building_array -> trigger temp1 < X+1
# file: 00_missiles_scripted_effects.txt
# add to set_warhead_targets -> target_building_X_array
# add to set_missile_damage -> random_list & clear vars
# file: MD_countrymissilesview.gui
# add to MD_missile_stat_view -> instantTextboxType -> damage_building_X_stats

##############################
### Building Pricing Model ###
##############################
# -- State Buildings:
# Civilian Industry (industrial_complex) - $7.50
# Military Industry (arms_factory) - $7.50
# Dockyard (dockyard) - $7.50
# Offices (offices) - $12
# Infrastructure (infrastructure) - $3.50
# Air Base (air_base) - $2.50
# Sam Site (anti_air_building) - $3.25
# Renewable Energy Infrastructure (synthetic_refinery) - $8.50
# Fuel Silo (fuel_silo) - $3.00
# Radar Station (radar_station) - $1.75
# Network Infrastructure (internet_station) - $3.00
# ABM Base (missile_defense_station) - $3.00
# TEL Battery Base (TEL_base) - $3.00
# ICBM Silo (missile_silo) - $3.00
# Nuclear Reactor (nuclear_reactor) - $9.00
# Fossil Fuel Powerplant (fossil_powerplant) - $3.25
# Building Slots Minimum: $1.00 per slot
# -- Provincial Bulidings
# Naval Base (naval_base) - $0.50 per level
# Land Fort (bunker) - $0.50 per level
# Coastal Bunker (coastal_bunker) - $0.50 per level
# Supply Hub (supply_node) - $2.50
# Railways (rail_way) - $0.01 per province

buildings = {
	# show_on_map:
	#	if provincial = yes, then show_on_map = X is amount per each province
	#	if provincial = no, then show_on_map = X is amount per state

	# 0 Civilian Industry
	industrial_complex = {
		show_on_map = 6
		#base_cost = 9000
		base_cost = 38000
		#base_cost_conversion = 5800
		base_cost_conversion = 28000
		general_production = 1
		icon_frame = 1
		max_level = 50
		damage_factor = 1
		shares_slots = yes
		value = 1
		#value = 8
		infrastructure_construction_effect = yes
		#fuel_gain_from_states = -6 #per hour
	}
	# 1 Military Industry
	arms_factory = {
		show_on_map = 6
		#base_cost = 21450
		base_cost = 42000
		#base_cost_conversion = 7000
		base_cost_conversion = 32500
		military_production = 1
		icon_frame = 2
		max_level = 35
		damage_factor = 1
		shares_slots = yes
		value = 1
		#value = 8
		infrastructure_construction_effect = yes
		#fuel_gain_from_states = -6 #per hour
	}
	# 2 Infrastructure
	infrastructure = {
		#base_cost = 2500
		base_cost = 7500
		icon_frame = 3
		infrastructure = yes
		max_level = 5
		damage_factor = 1
		value = 1
		show_modifier = yes
		max_fuel_building = 1.5 #k
	}
	# 3 Network Infrastructure
	internet_station = {
		show_on_map = 1
		base_cost = 4500
		icon_frame = 4
		max_level = 6 # This is the max unlock level used to be 5
		damage_factor = 1
		value = 1
		#value = 3
		infrastructure_construction_effect = yes
		state_productivity_growth_modifier = 0.05
	}
	# 4 Naval Yard
	dockyard = {
		show_on_map = 1
		show_on_map_meshes = 3
		#base_cost = 7500
		base_cost = 45000
		only_costal = yes
		naval_production = 1
		icon_frame = 5
		max_level = 35
		damage_factor = 1
		shares_slots = yes
		value = 1
		#value = 7
		infrastructure_construction_effect = yes
		#fuel_gain_from_states = -6 #per hour
	}
	# 5 Air Base
	air_base = {
		show_on_map = 1
		base_cost = 6000
		icon_frame = 6
		air_base = yes
		max_level = 10
		damage_factor = 1
		value = 1
		infrastructure_construction_effect = yes
		#allied_build = yes
	}

	# 6 Radar Station
	radar_station = {
		show_on_map = 1
		base_cost = 6000
		icon_frame = 7
		radar = yes
		max_level = 6 # This is the max unlock level used to be 5
		damage_factor = 1
		#damage_factor = 0.5
		value = 1
		#value = 5
		infrastructure_construction_effect = yes
	}
	# 7 SAM-Site
	anti_air_building = {
		show_on_map = 1
		base_cost = 6000
		icon_frame = 8
		anti_air = yes
		disabled_in_dmz = yes
		air_defence = 1
		max_level = 10 # This is the max unlock level
		damage_factor = 1
		#damage_factor = 0.1
		value = 1
		#value = 2
		infrastructure_construction_effect = yes
		#allied_build = yes
	}
	# 8 ABM Base
	missile_defense_station = {
		show_on_map = 1
		base_cost = 4000
		icon_frame = 9 #temp icon
		#radar = yes
		disabled_in_dmz = yes
		#air_defence = 2
		max_level = 10 # This is the max unlock level used to be 5
		damage_factor = 1
		#damage_factor = 0.5
		value = 1
		#value = 5
		infrastructure_construction_effect = yes
		#allied_build = yes
	}
	# 9 TEL Battery Base
	TEL_base = {
		show_on_map = 1
		base_cost = 4000
		icon_frame = 10
		max_level = 10 # This is the max unlock level used to be 5
		damage_factor = 1
		disabled_in_dmz = yes
		#damage_factor = 0.5
		value = 1
		#value = 5
		infrastructure_construction_effect = yes
		#allied_build = yes
	}
	# 10 ICBM Silo
	missile_silo = {
		show_on_map = 1
		base_cost = 4000
		icon_frame = 11
		max_level = 10 # This is the max unlock level used to be 5
		damage_factor = 1
		disabled_in_dmz = yes
		#damage_factor = 0.5
		value = 1
		#value = 5
		infrastructure_construction_effect = yes
	}
	# 11 Nuclear Reactor
	nuclear_reactor = {
		show_on_map = 1
		base_cost = 50000
		icon_frame = 12
		#nuclear_reactor = yes
		#nuclear_production_factor = 1
		nuclear_energy_gain = 2 #in gigawatts
		nuclear_fuel_consumption = 20 #weekly consumption
		max_level = 20 # This is the max unlock level
		damage_factor = 1
		shares_slots = no
		value = 1
		#value = 10
		infrastructure_construction_effect = yes
	}
	# 12 Renewable Energy Infrastructure (renewable building)
	synthetic_refinery = {
		show_on_map = 1
		base_cost = 50000
		icon_frame = 22
		#local_resources_oil = 2 # May use local_resources_ + any resource name
		#local_resources_rubber = 1 # May use local_resources_ + any resource name
		#fuel_gain_from_states = 20
		renewable_energy_gain = 0.5 #in gigawatts
		refinery = yes
		max_level = 20 # This is the max unlock level
		damage_factor = 1
		shares_slots = no
		value = 1
		#value = 2
		infrastructure_construction_effect = yes
	}
	# 13 Strategic Fuel Reserve
	fuel_silo = {
		show_on_map = 1
		base_cost = 4000
		icon_frame = 14
		max_level = 5
		damage_factor = 1
		#shares_slots = yes
		value = 1
		#value = 8
		infrastructure_construction_effect = yes
		fuel_silo = yes

		show_modifier = yes
		max_fuel_building = 200.0 #k
	}
	# 14 Office Sector
	offices = {
		#base_cost = 9000
		base_cost = 40000
		icon_frame = 15
		max_level = 50
		damage_factor = 1
		shares_slots = yes
		value = 1
		infrastructure_construction_effect = yes
	}
	# 15 Naval Base
	naval_base = {
		show_on_map = 1
		show_on_map_meshes = 3
		always_shown = yes
		base_cost = 6000
		provincial = yes
		only_costal = yes
		is_port = yes
		icon_frame = 16
		max_level = 10
		value = 1
		infrastructure_construction_effect = yes
	}
	# 16 Land Fort
	bunker = {
		show_on_map = 1
		has_destroyed_mesh = yes
		base_cost = 3000
		per_level_extra_cost = 500
		provincial = yes
		disabled_in_dmz = yes
		icon_frame = 17
		land_fort = 1
		max_level = 5
		value = 1
		allied_build = yes
		infrastructure_construction_effect = yes
	}
	# 17 Coastal Fort
	coastal_bunker = {
		show_on_map = 1
		has_destroyed_mesh = yes
		base_cost = 3000
		per_level_extra_cost = 500
		provincial = yes
		disabled_in_dmz = yes
		only_costal = yes
		icon_frame = 18
		naval_fort = 1
		max_level = 5
		value = 1
		allied_build = yes
		infrastructure_construction_effect = yes
	}
	# 18 Supply Hub
	supply_node = {
		show_on_map = 1
		base_cost = 20000
		provincial = yes
		disabled_in_dmz = yes
		icon_frame = 19
		max_level = 1
		centered = yes
		supply_node = yes
		damage_factor = 0.1
		allied_build = yes
		always_shown = yes
		infrastructure_construction_effect = yes
	}
	# 19 Railways
	rail_way = {
		base_cost = 1000
		per_level_extra_cost = 5000
		provincial = yes
		disabled_in_dmz = yes
		icon_frame = 20
		max_level = 1
		allied_build = yes
		infrastructure_construction_effect = yes
	}
	# 20 Fossil Fuel Powerplant
	fossil_powerplant = {
		show_on_map = 1
		base_cost = 10000
		icon_frame = 21
		fossil_energy_gain = 1 #in gigawatts
		# Represents the Consumption of Fossil Fuels per Powerplant
		# NOTE: This is an hourly rate so the building actually consumes (20*24) = 480 fuel a day
		fossil_fuel_consumption = 20
		max_level = 20
		damage_factor = 1
		shares_slots = no
		value = 1
		infrastructure_construction_effect = yes
	}

	# 21 - Agriculture District
	agriculture_district = {
		base_cost = 12500
		icon_frame = 23
		max_level = 10
		damage_factor = 1
		shares_slots = yes
		value = 1
		infrastructure_construction_effect = yes
		# Represents the Ethanol/Agri Fuel Gain
		# NOTE: This is an hourly rate so the building actually produces (10*24) = 240 Fuel a Day
		fuel_gain_from_states = 10
		# Represents the Grain Silos/Other Agro-Industrial Base
		local_supplies = 0.015
	}
}
