on_actions = {
	on_monthly = {
		effect = {
			if = {
				limit = {
					tag = NEP
					check_variable = { global.year > 2006 }
					check_variable = { global.month > 11 }
					country_exists = NEP
					country_exists = NPM
					NEP = { has_war_with = NPM }
					NOT = { has_global_flag = nep_truth_civil_war_Ending }
				}
				set_global_flag = nep_truth_civil_war_Ending
				489 = { remove_dynamic_modifier = { modifier = NEP_guerrilla_conflict } }
				485 = { remove_dynamic_modifier = { modifier = NEP_guerrilla_conflict } }
				NEP = {
					country_event = { id = nepal.1 days = 511 }
					annex_country = { target = NPM transfer_troops = no	}
					remove_ideas = NEP_National_Unity_Campaign
					remove_ideas = NEP_The_National_vendetta
				}
				NPM = {
					remove_state_core = 485
					remove_state_core = 489
					remove_ideas = NEP_Himalayan_Rebellion_Struggle
				}
				news_event = { id = news.87 random_days = 3 }
			}
			if = {
				limit = {
					check_variable = { global.year < 2006 }
					check_variable = { global.month < 11 }
					country_exists = NPM
					tag = NPM
					NOT = {
						country_exists = NEP
						has_global_flag = nep_reds_victory
					}
					NPM = { has_war = no }
				}
				set_global_flag = nep_reds_victory
				news_event = { id = news.88 random_days = 3 }
				NPM = { remove_ideas = NEP_Himalayan_Rebellion_Struggle }
				set_cosmetic_tag = NEP
				489 = { remove_dynamic_modifier = { modifier = NEP_guerrilla_conflict } }
				485 = { remove_dynamic_modifier = { modifier = NEP_guerrilla_conflict } }
				NEP = {
					remove_ideas = NEP_National_Unity_Campaign
					remove_ideas = NEP_The_National_vendetta
					remove_state_core = 485
					remove_state_core = 489
				}
			}
			if = {
				limit = {
					check_variable = { global.year < 2006 }
					check_variable = { global.month < 11 }
					country_exists = NEP
					tag = NEP
					NOT = {
						country_exists = NPM
						has_global_flag = nep_kings_victory
					}
					NEP = { has_war = no }
				}
				set_global_flag = nep_kings_victory
				news_event = { id = news.89 random_days = 3 }
				489 = { remove_dynamic_modifier = { modifier = NEP_guerrilla_conflict } }
				485 = { remove_dynamic_modifier = { modifier = NEP_guerrilla_conflict } }
				NEP = {
					remove_ideas = NEP_National_Unity_Campaign
					remove_ideas = NEP_The_National_vendetta
				}
				NPM = {
					remove_ideas = NEP_Himalayan_Rebellion_Struggle
					remove_state_core = 485
					remove_state_core = 489
				}
			}
			if = {
				limit = {
					check_variable = { global.year > 2001 }
					check_variable = { global.month > 4 }
					country_exists = NEP
					country_exists = NPM
					NEP = { has_war_with = NPM }
					tag = NEP
					NOT = {	has_global_flag = nep_kings_Death }
				}
				set_global_flag = nep_kings_Death
				NEP = {
					swap_ideas = {
						remove_idea = NEP_National_Unity_Campaign
   						add_idea = NEP_The_National_vendetta
					}
					set_politics = {
						ruling_party = democratic
						elections_allowed = yes
					}
					set_temp_variable = { party_index = 3 }
					set_temp_variable = { party_popularity_increase = 0.06 }
					set_temp_variable = { temp_outlook_increase = 0.07 }
					add_relative_party_popularity = yes
					set_temp_variable = { rul_party_temp = 3 }
					change_ruling_party_effect = yes
				}
				news_event = { id = news.90 random_days = 3 }
			}
		}
	}
}
