# Written by Andreas "Cold Evul" Brostrom

#Iran support Shias
PER_support_shias = {
	allowed = {
		original_tag = PER
	}
	reversed = yes
	enable = {
		NOT = { tag = PER }
		has_idea = shia
	}
	targets = {
		FSA
		NUS
		ROJ
		IRQ
		SAU
		OMA
		YEM
		JOR
		BHR
		QAT
		KUW
		LEB
	}
	abort = { has_country_flag = Insulted_Iran }

	ai_strategy = { type = befriend id = "PER" value = 200 }
	ai_strategy = { type = protect id = "PER" value = 200 }
	ai_strategy = { type = support id = "PER" value = 200 }
	ai_strategy = { type = send_volunteers_desire id = "PER" value = 200 }
	ai_strategy = { type = influence id = "PER" value = 200 }

}

PER_rival_saudis = {
	allowed = { original_tag = PER }
	enable = {
		country_exists = SAU
	}
	abort = {
		is_in_faction_with = SAU
	}

	ai_strategy = { type = antagonize id = "SAU" value = 200 }
	ai_strategy = { type = contain id = "SAU" value = 200 }
	ai_strategy = { type = consider_weak id = "SAU" value = 200 }
	ai_strategy = { type = alliance id = "SAU" value = -200 }
	ai_strategy = { type = support id = "SAU" value = -200 }
}

PER_do_no_volunteer_in_iraq = {
	allowed = { original_tag = PER }
	enable = {
		original_tag = PER
		IRQ = { has_war_with = ISI }
	}
	abort_when_not_enabled = yes

	ai_strategy = { type = send_volunteers_desire id = "IRQ" value = -200 }
}

PER_area_strategy = {
	allowed = { original_tag = PER }
	enable = {
		always = yes
	}
	abort_when_not_enabled = yes

	ai_strategy = { type = area_priority id = europe value = -50 }
	ai_strategy = { type = area_priority id = north_america value = -50 }
	ai_strategy = { type = area_priority id = caribbean value = -50 }
	ai_strategy = { type = area_priority id = south_america value = -25 }
	ai_strategy = { type = area_priority id = asia value = 100 }
	ai_strategy = { type = area_priority id = pacific value = -50 }
	ai_strategy = { type = area_priority id = oceania value = -50 }
	ai_strategy = { type = area_priority id = middle_east value = 200 }
	ai_strategy = { type = area_priority id = africa value = -25 }
}

PER_support_SUD = {
	allowed = { original_tag = PER }
	enable = {
		SUD = {
			OR = {
				has_government = communism
				has_government = neutrality
			}
		}
	}

	abort = {
		has_war_with = PER
	}

	ai_strategy = { type = befriend id = "SUD" value = 50 }
	ai_strategy = { type = influence id = "SUD" value = 50 }
	ai_strategy = { type = support id = "SUD" value = 100 }
}

PER_great_satan = {
	allowed = { original_tag = PER }
	enable = {
		OR = {
			NOT = { is_in_faction_with = USA }
			PER = {
				emerging_moderate_shiite_are_in_power = yes
				emerging_hardline_shiite_are_in_power = yes
			}
		}
	}
	abort_when_not_enabled = yes

	ai_strategy = { type = antagonize id = "USA" value = 50 }
	ai_strategy = { type = alliance id = "USA" value = -200 }
	ai_strategy = { type = support id = "USA" value = -200 }
}

PER_hate_ISR = {
	allowed = { original_tag = PER }
	enable = {
		OR = {
			NOT = { is_in_faction_with = ISR }
			PER = {
				emerging_moderate_shiite_are_in_power = yes
				emerging_hardline_shiite_are_in_power = yes
			}
		}
	}
	abort_when_not_enabled = yes

	ai_strategy = { type = befriend id = "ISR" value = -100 }
	ai_strategy = { type = conquer id = "ISR" value = 25 }
	ai_strategy = { type = invade id = "ISR" value = 25 }
	ai_strategy = { type = antagonize id = "ISR" value = 100 }
	ai_strategy = { type = alliance id = "ISR" value = -200 }
	ai_strategy = { type = support id = "ISR" value = -200 }
	ai_strategy = { type = contain id = "ISR" value = 100 }
}

PER_warm_with_TUR = {
	allowed = { original_tag = PER }
	enable = {
		NOT = { has_war_with = TUR }
	}
	abort_when_not_enabled = yes

	ai_strategy = { type = befriend id = "TUR" value = 50 }
	ai_strategy = { type = protect id = "TUR" value = -50 }
	ai_strategy = { type = influence id = "TUR" value = 50 }
	ai_strategy = { type = antagonize id = "TUR" value = 25 }
	ai_strategy = { type = alliance id = "TUR" value = -50 }
	ai_strategy = { type = support id = "TUR" value = -50 }
	ai_strategy = { type = contain id = "TUR" value = 25 }
}

PER_warm_with_USA = {
	allowed = { original_tag = PER }
	enable = {
		NOT = { has_war_with = USA }
		PER = {
			emerging_moderate_shiite_are_not_in_power = yes
			emerging_hardline_shiite_are_not_in_power = yes
		}
	}
	abort_when_not_enabled = yes

	ai_strategy = { type = befriend id = "USA" value = 50 }
	ai_strategy = { type = protect id = "USA" value = -50 }
	ai_strategy = { type = influence id = "USA" value = 50 }
	ai_strategy = { type = antagonize id = "USA" value = 25 }
	ai_strategy = { type = alliance id = "USA" value = -50 }
	ai_strategy = { type = support id = "USA" value = -50 }
	ai_strategy = { type = contain id = "USA" value = 25 }
}

PER_warm_with_RAJ = {
	allowed = { original_tag = PER }
	enable = {
		NOT = { has_war_with = RAJ }
	}
	abort_when_not_enabled = yes

	ai_strategy = { type = befriend id = "RAJ" value = 50 }
	ai_strategy = { type = protect id = "RAJ" value = 50 }
	ai_strategy = { type = influence id = "RAJ" value = 50 }
	ai_strategy = { type = antagonize id = "RAJ" value = -50 }
	ai_strategy = { type = alliance id = "RAJ" value = 50 }
	ai_strategy = { type = support id = "RAJ" value = 100 }
	ai_strategy = { type = contain id = "RAJ" value = -50 }
}

##Iran unique AI for combat units
PER_default_naval_breakdown = {
	allowed = { original_tag = PER }
	enable = { original_tag = PER }
	abort_when_not_enabled = yes

	ai_strategy = { type = role_ratio id = naval_corvettes value = 50 }
	ai_strategy = { type = role_ratio id = naval_frigate value = 10 }
	ai_strategy = { type = role_ratio id = naval_destroyer value = 4 }
	ai_strategy = { type = role_ratio id = naval_stealth_destroyer value = 0 }
	ai_strategy = { type = role_ratio id = naval_attack_submarine value = 31 }
	ai_strategy = { type = role_ratio id = naval_missile_submarine value = 0 }
	ai_strategy = { type = role_ratio id = naval_helicopter_operator value = 5 }
	ai_strategy = { type = role_ratio id = naval_carrier value = 0 }
	ai_strategy = { type = role_ratio id = naval_cruiser value = 0 }

}

##
PER_accepted_to_join_cento = {
	allowed = { NOT = { original_tag = PER } }
	enable = {
		PER = {
			has_idea = faction_cento_alliance
		}
		has_idea = faction_cento_alliance
	}
	abort_when_not_enabled = yes

	ai_strategy = { type = alliance id = "PER" value = 200 }
}
#
PER_befriend_hezbolla = {
	allowed = { original_tag = PER }
	enable = {
		OR = {
			NOT = { has_war_with = HEZ }
			PER = {
				emerging_moderate_shiite_are_in_power = yes
				emerging_hardline_shiite_are_in_power = yes
			}
		}
	}
	abort_when_not_enabled = yes

	ai_strategy = { type = befriend id = "HEZ" value = 200 }
	ai_strategy = { type = protect id = "HEZ" value = 200 }
	ai_strategy = { type = influence id = "HEZ" value = 200 }
	ai_strategy = { type = antagonize id = "HEZ" value = -50 }
	ai_strategy = { type = alliance id = "HEZ" value = 50 }
	ai_strategy = { type = support id = "HEZ" value = 200 }
	ai_strategy = { type = contain id = "HEZ" value = -50 }
}
#
PER_befriend_syria = {
	allowed = { original_tag = PER }
	enable = {
		OR = {
			NOT = { has_war_with = SYR }
			PER = {
				emerging_moderate_shiite_are_in_power = yes
				emerging_hardline_shiite_are_in_power = yes
			}
		}
	}
	abort_when_not_enabled = yes

	ai_strategy = { type = befriend id = "SYR" value = 200 }
	ai_strategy = { type = protect id = "SYR" value = 200 }
	ai_strategy = { type = influence id = "SYR" value = 200 }
	ai_strategy = { type = antagonize id = "SYR" value = -50 }
	ai_strategy = { type = alliance id = "SYR" value = 50 }
	ai_strategy = { type = support id = "SYR" value = 200 }
	ai_strategy = { type = contain id = "SYR" value = -50 }
}

PER_support_afghanistan_enduring_freedom = {
	allowed = { original_tag = PER }
	enable = {
		country_exists = AFG
		has_country_flag = Operation_enduring_freedom
		AFG = { has_war_with = TAL }
	}
	abort_when_not_enabled = yes

	ai_strategy = { type = send_volunteers_desire id = AFG value = 200 }
	ai_strategy = { type = befriend id = AFG value = 200 }
	ai_strategy = { type = support id = AFG value = 200 }
}