SWI_supply_botswana = {
	allowed = { original_tag = SWI }

	enable = {
		original_tag = SWI
		BOT = { has_completed_focus = BOT_buy_pilatus_pc9 }
	}
	abort = {
		has_war_with = BOT
	}

	ai_strategy = { type = befriend id = "BOT" value = 15 }
	ai_strategy = { type = support id = "BOT" value = 15 }
}

SWI_love_the_alpine_nations = {
	allowed = { original_tag = SWI }
	enable = {
		original_tag = SWI
	}
	abort_when_not_enabled = yes

	ai_strategy = { type = befriend id = "LIC" value = 30 }
	ai_strategy = { type = support id = "LIC" value = 30 }
	ai_strategy = { type = befriend id = "AUS" value = 30 }
	ai_strategy = { type = support id = "AUS" value = 30 }
}