# Written by Angriest Bird
anti_russia_defensives_stature = {
	allowed = { original_tag = UKR }
	enable = { #Better Optimized Version of this
		UKR = {
			NOT = {
				has_government = communism
				is_in_faction_with = SOV
			}
		}
		country_exists = SOV
	}
	abort_when_not_enabled = yes
	ai_strategy = { type = contain id = "SOV" value = 200 }
	ai_strategy = { type = befriend id = "GER" value = 150 }
	ai_strategy = { type = alliance id = "GER" value = 20 }
	ai_strategy = { type = befriend id = "ENG" value = 150 }
	ai_strategy = { type = alliance id = "ENG" value = 20 }
	ai_strategy = { type = befriend id = "FRA" value = 150 }
	ai_strategy = { type = alliance id = "FRA" value = 20 }
	ai_strategy = { type = befriend id = "ITA" value = 150 }
	ai_strategy = { type = alliance id = "ITA" value = 20 }
	ai_strategy = { type = befriend id = "SPR" value = 150 }
	ai_strategy = { type = alliance id = "SPR" value = 20 }
	ai_strategy = { type = befriend id = "POL" value = 150 }
	ai_strategy = { type = alliance id = "POL" value = 20 }
	ai_strategy = { type = befriend id = "ROM" value = 150 }
	ai_strategy = { type = alliance id = "ROM" value = 20 }
	ai_strategy = { type = befriend id = "USA" value = 200 }
	ai_strategy = { type = alliance id = "USA" value = 50 }
}

UKR_SOV_owns_crimea = {
	allowed = { original_tag = UKR }
	enable = {
		SOV = {
			OR = {
				owns_state = 669 #Crimea
				controls_state = 669
			}
		}
	}
	abort_when_not_enabled = yes
	ai_strategy = {
		type = front_unit_request
		tag = SOV
		value = 200
	}
	ai_strategy = {
		type = front_unit_request
		tag = BLR
		value = 50
	}
	ai_strategy = { type = force_build_armies value = 150 }
}

UKR_ignore_the_west_in_war = {
	allowed = { original_tag = UKR }
	enable = {
		has_war_with = SOV
	}
	abort_when_not_enabled = yes
	ai_strategy = {
		type = front_unit_request
		tag = ROM
		value = -50
	}
	ai_strategy = {
		type = front_unit_request
		tag = POL
		value = -50
	}
	ai_strategy = {
		type = front_unit_request
		tag = MLV
		value = -50
	}
}

UKR_novorossiyan_relations = {
	allowed = { original_tag = UKR }
	enable = {
		OR = {
			country_exists = DPR
			country_exists = LPR
		}
	}
	abort_when_not_enabled = yes

	ai_strategy = { type = antagonize id = "DPR" value = 200 }
	ai_strategy = { type = conquer id = "DPR" value = 100 }
	ai_strategy = { type = contain id = "DPR" value = 100 }
	ai_strategy = { type = antagonize id = "DPR" value = 50 }

	ai_strategy = { type = antagonize id = "LPR" value = 200 }
	ai_strategy = { type = conquer id = "LPR" value = 100 }
	ai_strategy = { type = contain id = "LPR" value = 100 }
	ai_strategy = { type = antagonize id = "LPR" value = 50 }
}

UKR_factory_target = {
	allowed = { tag = UKR }
	enable = { always = yes }
	abort_when_not_enabled = yes

	ai_strategy = {
		type = building_target
		id = industrial_complex
		value = 80
	}
}

UKR_dont_declare_on_russia = {
	allowed = { original_tag = UKR }
	enable = {
		original_tag = UKR
		has_wargoal_against = SOV
		strength_ratio = {
			tag = SOV
			ratio < 1.0
		}
	}
	abort_when_not_enabled = yes

	ai_strategy = { type = conquer id = "SOV" value = -100 }
	ai_strategy = { type = declare_war id = "SOV" value = -100 }
}

UKR_join_csto = {
	allowed = { original_tag = UKR }
	enable = {
		OR = {
			UKR = { has_completed_focus = UKR_pro_russian_government_in_power }
			UKR = { has_completed_focus = UKR_apply_to_join_csto }
		}
	}
	abort_when_not_enabled = yes

	ai_strategy = { type = alliance id = "SOV" value = 100 }
	ai_strategy = { type = befriend id = "SOV" value = 100 }
}

UKR_invited_to_baltic_black_sea_union = {
	allowed = {
		OR = {
			original_tag = POL
			original_tag = LAT
			original_tag = LIT
			original_tag = EST
			original_tag = BLR
			original_tag = MLV
			original_tag = ROM
		}
	}
	enable = {
		OR = {
			has_country_flag = supported_the_baltic_black_sea_union
			is_in_array = { global.baltic_black_sea_union_member = THIS.id }
			is_in_faction_with = UKR
			is_guaranteed_by = UKR
		}
	}
	abort_when_not_enabled = yes
	ai_strategy = { type = befriend id = "UKR" value = 200 }
	ai_strategy = { type = alliance id = "UKR" value = 200 }
}