ideas = {

	country = {

		ENG_queen_elizabeth_2 = {
			on_add = { log = "[GetDateText]: [Root.GetName]: add idea ENG_queen_elizabeth_2" }
			picture = british_imperialism
			allowed = {
				original_tag = ENG
			}
			modifier = {
				stability_factor = 0.05
				political_power_gain = 0.05
			}
		}
		ENG_king_charles_3 = {
			on_add = { log = "[GetDateText]: [Root.GetName]: add idea ENG_king_charles_3" }
			picture = british_imperialism
			modifier = {
			}
		}
		ENG_king_william_5 = {
			on_add = { log = "[GetDateText]: [Root.GetName]: add idea ENG_king_william_5" }
			picture = british_imperialism

			modifier = {
				stability_factor = 0.05
			}
		}

		ENG_idea_expanded_nhs = {
			on_add = { log = "[GetDateText]: [Root.GetName]: add idea ENG_idea_expanded_nhs" }
			allowed = { always = no }
			allowed_civil_war = { always = no }
			picture = guided_by_england

			modifier = {
				industrial_capacity_factory = 0.05
				stability_factor = 0.05
				health_cost_multiplier_modifier = 0.05
			}
		}
		ENG_idea_privatized_nhs = {
			on_add = { log = "[GetDateText]: [Root.GetName]: add idea ENG_idea_privatized_nhs" }
			allowed = { always = no }
			allowed_civil_war = { always = no }
			picture = closed_economy

			modifier = {
				stability_factor = -0.05
				political_power_factor = 0.15
				health_cost_multiplier_modifier = -0.15
			}
		}

		ENG_workforce_deal_with_ireland = {
			on_add = { log = "[GetDateText]: [Root.GetName]: add idea ENG_workforce_deal_with_ireland" }
			allowed = { always = no }
			allowed_civil_war = { always = no }
			picture = construction

			modifier = {
				monthly_population = 0.02
				industrial_capacity_factory = 0.05
			}
		}

		british_special_treatment = {
			on_add = { log = "[GetDateText]: [Root.GetName]: add idea british_special_treatment" }
			allowed = { always = no }
			allowed_civil_war = { always = no }
			picture = british_imperialism

			cancel = { NOT = { has_idea = EU_member } }

			modifier = {
				political_power_gain = -0.1
			}
		}

		ENG_individual_freedoms = {
			on_add = { log = "[GetDateText]: [Root.GetName]: add idea ENG_individual_freedoms" }
			allowed = { always = no }
			allowed_civil_war = { always = no }
			picture = democracy

			modifier = {
				consumer_goods_factor = -0.03
			}
		}

		ENG_CCTV_systems = {
			on_add = { log = "[GetDateText]: [Root.GetName]: add idea ENG_CCTV_systems" }
			picture = prisoners

			modifier = {
				political_power_gain = 0.2
				stability_factor = -0.03
				nationalist_drift = 0.02
				police_cost_multiplier_modifier = 0.05
			}
		}

		ENG_european_logistics_idea = {
			on_add = { log = "[GetDateText]: [Root.GetName]: add idea ENG_european_logistics_idea" }
			picture = EU_member

			modifier = {
				political_power_gain = 0.25
			}
		}

		ENG_benevolent_monarchy_idea = {
			on_add = { log = "[GetDateText]: [Root.GetName]: add idea ENG_benevolent_monarchy_idea" }
			picture = monarchy

			modifier = {
				stability_factor = 0.05
				nationalist_drift = 0.04
			}
		}

		ENG_imperialistic_ambitions = {
			on_add = { log = "[GetDateText]: [Root.GetName]: add idea ENG_imperialistic_ambitions" }
			picture = british_imperialism

			modifier = {
				justify_war_goal_time = -0.1
				stability_factor = -0.05
			}
		}

		ENG_liberal_economics_idea = {
			on_add = { log = "[GetDateText]: [Root.GetName]: add idea ENG_liberal_economics_idea" }
			picture = free_trade

			modifier = {
				consumer_goods_factor = -0.02
				political_power_gain = -0.15
			}
		}

		ENG_internet_surveillance_idea = {
			on_add = { log = "[GetDateText]: [Root.GetName]: add idea ENG_internet_surveillance_idea" }
			picture = intel_bonus

			modifier = {
				decryption = 1
				stability_factor = -0.03
			}
		}

		ENG_nationalism_idea = {
			on_add = { log = "[GetDateText]: [Root.GetName]: add idea ENG_nationalism_idea" }
			picture = fascism3

			modifier = {
				nationalist_drift = 0.07
			}
		}

		ENG_broken_the_banks = {
			on_add = { log = "[GetDateText]: [Root.GetName]: add idea ENG_broken_the_banks" }
			picture = communism4

			modifier = {
				political_power_gain = 0.2
				communism_drift = 0.01
				industrial_capacity_factory = -0.05
			}
		}

		ENG_persecuted_lobbyists = {
			on_add = { log = "[GetDateText]: [Root.GetName]: add idea ENG_persecuted_lobbyists" }
			picture = communism6

			modifier = {
				communism_drift = 0.02
				stability_factor = 0.05
			}
		}

		ENG_royal_office_of_employment_idea = {
			on_add = { log = "[GetDateText]: [Root.GetName]: add idea ENG_royal_office_of_employment_idea" }
			picture = volunteer_expedition_bonus

			modifier = {
				conscription_factor = 0.05
				industrial_capacity_factory = 0.1
			}
		}

		ENG_national_militarism_idea = {
			on_add = { log = "[GetDateText]: [Root.GetName]: add idea ENG_national_militarism_idea" }
			picture = infantry_bonus

			modifier = {
				conscription_factor = 0.1
				political_power_gain = 0.1
				industrial_capacity_factory = -0.2
			}
		}

		ENG_school_for_strategic_warfare_idea = {
			on_add = { log = "[GetDateText]: [Root.GetName]: add idea ENG_school_for_strategic_warfare_idea" }
			picture = motorized_focus

			modifier = {
				army_leader_start_level = 1
			}
		}

		ENG_ground_support_planes_idea = {
			on_add = { log = "[GetDateText]: [Root.GetName]: add idea ENG_ground_support_planes_idea" }
			picture = air_support

			equipment_bonus = {
				cas = {
					air_attack = 0.2
					air_defence = 0.2
					air_agility = 0.2
					instant = yes
				}
			}
		}

		ENG_naval_support_planes_idea = {
			on_add = { log = "[GetDateText]: [Root.GetName]: add idea ENG_naval_support_planes_idea" }
			picture = air_bonus

			equipment_bonus = {
				large_plane_maritime_patrol_airframe = {
					air_attack = 0.2
					air_defence = 0.2
					air_agility = 0.2
					instant = yes
				}
			}
		}

		ENG_diplomatic_sovereignity_idea = {
			on_add = { log = "[GetDateText]: [Root.GetName]: add idea ENG_diplomatic_sovereignity_idea" }
			picture = spy_political

			modifier = {
				political_power_factor = 0.5
				justify_war_goal_time = -0.1
			}
		}

		ENG_defensive_constructions_idea = {
			on_add = { log = "[GetDateText]: [Root.GetName]: add idea ENG_defensive_constructions_idea" }
			picture = fortification2

			modifier = {
				production_speed_bunker_factor = 0.3
				production_speed_coastal_bunker_factor = 0.3
			}
		}

		ENG_industrial_development_program_idea = {
			on_add = { log = "[GetDateText]: [Root.GetName]: add idea ENG_industrial_development_program_idea" }
			picture = political_power_bonus

			modifier = {
				production_speed_industrial_complex_factor = 0.1
				production_speed_arms_factory_factor = 0.1
				production_speed_dockyard_factor = 0.1
			}
		}

		ENG_universal_employment_idea = {
			on_add = { log = "[GetDateText]: [Root.GetName]: add idea ENG_universal_employment_idea" }
			picture = victors_of_ww1

			modifier = {
				industrial_capacity_factory = 0.25
			}
		}

		ENG_royal_industrial_construction = {
			on_add = { log = "[GetDateText]: [Root.GetName]: add idea ENG_royal_industrial_construction" }
			picture = production_bonus

			modifier = {
				production_speed_industrial_complex_factor = 0.2
			}
		}

		ENG_revolutionary_committee = {
			on_add = { log = "[GetDateText]: [Root.GetName]: add idea ENG_revolutionary_committee" }
			picture = communism7

			modifier = {
				communism_drift = 0.01
				political_power_factor = 0.1
				conscription_factor = 0.1
			}
		}

		ENG_royal_military_construction = {
			on_add = { log = "[GetDateText]: [Root.GetName]: add idea ENG_royal_military_construction" }
			picture = monarchy

			modifier = {
				production_speed_arms_factory_factor = 0.2
			}
		}

		ENG_multiethnic_army = {
			on_add = { log = "[GetDateText]: [Root.GetName]: add idea ENG_multiethnic_army" }
			picture = fascism2

			modifier = {
				stability_factor = 0.05
				conscription_factor = 0.25
				nationalist_drift = 0.02
			}
		}

		ENG_modern_slavery = {
			on_add = { log = "[GetDateText]: [Root.GetName]: add idea ENG_modern_slavery" }
			picture = fascism

			modifier = {
				industrial_capacity_factory = 0.5
				stability_factor = -0.15
				conscription_factor = -0.25
				nationalist_drift = 0.02
			}
		}

		ENG_army_of_quality_idea = {
			on_add = { log = "[GetDateText]: [Root.GetName]: add idea ENG_army_of_quality_idea" }
			picture = general_staff

			modifier = {
				army_leader_start_level = 1
				experience_gain_army_factor = 0.2
			}
		}

		ENG_army_of_quantity_idea = {
			on_add = { log = "[GetDateText]: [Root.GetName]: add idea ENG_army_of_quantity_idea" }
			picture = manpower_bonus

			modifier = {
				conscription = 0.03
			}
		}

		ENG_small_ship_project = {
			on_add = { log = "[GetDateText]: [Root.GetName]: add idea ENG_small_ship_project" }
			picture = liberty_ships

			equipment_bonus = {
				submarine = {
					build_cost_ic = -0.15
					instant = yes
				}
				destroyer = {
					build_cost_ic = -0.15
					instant = yes
				}
			}
		}

		ENG_large_ship_project = {
			on_add = { log = "[GetDateText]: [Root.GetName]: add idea ENG_large_ship_project" }
			picture = navy_bonus

			equipment_bonus = {
				carrier = {
					build_cost_ic = -0.15
					instant = yes
				}
				cruiser = {
					build_cost_ic = -0.15
					instant = yes
				}
			}
		}

		ENG_secret_police = {
			on_add = { log = "[GetDateText]: [Root.GetName]: add idea ENG_secret_police" }
			picture = spy_coup

			modifier = {
				encryption = 1
				decryption = 1
			}
		}

		ENG_the_great_throne = {
			on_add = { log = "[GetDateText]: [Root.GetName]: add idea ENG_the_great_throne" }
			picture = monarchy

			modifier = {
				stability_factor = 0.1
				political_power_factor = 0.25
				conscription_factor = 0.1
			}
		}

		ENG_jingoism_idea = {
			on_add = { log = "[GetDateText]: [Root.GetName]: add idea ENG_jingoism_idea" }
			picture = fascism3

			modifier = {
				political_power_gain = 0.2
				justify_war_goal_time = -0.15
				stability_factor = -0.05
			}
		}

		ENG_royal_army_idea = {
			on_add = { log = "[GetDateText]: [Root.GetName]: add idea ENG_royal_army_idea" }
			picture = national_mobilization

			modifier = {
				conscription_factor = 0.25
			}
		}

		ENG_rule_the_waves = {
			on_add = { log = "[GetDateText]: [Root.GetName]: add idea ENG_rule_the_waves" }
			picture = escort_effort

			modifier = {
				naval_speed_factor = 0.25
				navy_max_range_factor = 0.25
				navy_submarine_detection_factor = 0.25
				navy_anti_air_attack_factor = 0.25
				amphibious_invasion = 0.25
			}
		}

		ENG_irish_nationalism_idea = {
			on_add = { log = "[GetDateText]: [Root.GetName]: add idea ENG_irish_nationalism_idea" }
			picture = GFX_idea_irish_nationalism

			modifier = {
				stability_factor = -0.05
				political_power_factor = -0.10
			}
		}
		ENG_scottish_nationalism_idea = {
			on_add = { log = "[GetDateText]: [Root.GetName]: add idea ENG_scottish_nationalism_idea" }
			picture = GFX_idea_scottish_nationalism

			cancel = {
				country_exists = SCO
			}
			modifier = {
				stability_factor = -0.10
				political_power_factor = -0.30
			}
		}
		ENG_global_britain_idea = {
			on_add = { log = "[GetDateText]: [Root.GetName]: add idea ENG_global_britain_idea" }
			picture = commonwealth_member

			modifier = {
				stability_factor = 0.05
				political_power_factor = 0.25
				trade_opinion_factor = 0.25
			}
		}

		ENG_merit_based_education_system_idea = {
			on_add = { log = "[GetDateText]: [Root.GetName]: add idea ENG_merit_based_education_system_idea" }
			picture = research_bonus
			allowed = { always = no }

			modifier = {
				research_speed_factor = 0.10
				drift_defence_factor = -0.30
				democratic_drift = 0.01
				neutrality_drift = 0.01
			}
		}
		ENG_race_based_education_system_idea = {
			on_add = { log = "[GetDateText]: [Root.GetName]: add idea ENG_merit_based_education_system_idea" }
			picture = fascism4
			allowed = { always = no }

			modifier = {
				research_speed_factor = -0.05
				drift_defence_factor = 0.30
				nationalist_drift = 0.02
				conscription_factor = 0.15
				political_power_factor = 0.05
			}
		}
		ENG_hybrid_based_education_system_idea = {
			on_add = { log = "[GetDateText]: [Root.GetName]: add idea ENG_merit_based_education_system_idea" }
			picture = research_bonus
			allowed = { always = no }

			modifier = {
				research_speed_factor = 0.05
				drift_defence_factor = 0.15
				democratic_drift = 0.01
				nationalist_drift = 0.01
			}
		}
		ENG_idea_Expanding_research_facilities = {
			on_add = { log = "[GetDateText]: [Root.GetName]: add idea ENG_Expanding_research_facilities" }
			picture = research_bonus

			modifier = {
				political_power_factor = 0.05
				research_speed_factor = 0.1
			}
		}
		ENG_idea_european_research_cooperation = {
			on_add = { log = "[GetDateText]: [Root.GetName]: add idea ENG_idea_european_research_cooperation" }
			picture = shared_research

			modifier = {
				political_power_factor = -0.1
				research_speed_factor = 0.07
				stability_factor = 0.1
			}
		}
	}
}
