#Initial port by Hiddengearz
#MD rework by bird and simone
#Patrol boat spam by bird and doolittle
technologies = {
	blue_water_navy = {
		on_research_complete = {
			log = "[GetDateText]: [Root.GetName]: add tech CAT_blue_water_navy"
		}

		navy_max_range_factor = 0.1

		corvette = {
			max_organisation = 3.5
		}
		frigate = {
			max_organisation = 4.5
		}
		destroyer = {
			max_organisation = 5.5
		}
		cruiser = {
			max_organisation = 6.5
		}
		carrier = {
			max_organisation = 7
		}
		helicopter_operator = {
			max_organisation = 5
		}
		battleship = {
			max_organisation = 7
		}
		battle_cruiser = {
			max_organisation = 6.5
		}
		missile_submarine = {
			max_organisation = 4
		}
		attack_submarine = {
			max_organisation = 3.5
		}
		stealth_destroyer = {
			max_organisation = 5.5
		}

		xor = { green_water_navy jeune_ecole_two }
		path = {
			research_cost_coeff = 1
			leads_to_tech = floating_fortresses
		}
		path = {
			research_cost_coeff = 1
			leads_to_tech = distance_decimation
		}
		path = {
			research_cost_coeff = 1
			leads_to_tech = the_prowlers
		}
		research_cost = 1
		doctrine = yes
		xp_research_type = navy
		xp_unlock_cost = 100

		categories = {
			CAT_naval_doctrine
			CAT_blue_water_navy
		}
		folder = {
			name = naval_doctrine_folder
			position = { x = 0 y = 0 }
		}
		ai_will_do = {
			factor = 1
		}
		ai_research_weights = {
			CAT_naval_doctrine = -1.0
		}
	}

	floating_fortresses = {
		on_research_complete = {
			log = "[GetDateText]: [Root.GetName]: add tech floating_fortresses"
		}

		carrier = {
			max_organisation = 28
		}

		path = {
			research_cost_coeff = 1
			leads_to_tech = far_from_home
		}
		research_cost = 1
		doctrine = yes
		xp_research_type = navy
		xp_unlock_cost = 100

		categories = {
			CAT_naval_doctrine
			CAT_blue_water_navy
		}
		folder = {
			name = naval_doctrine_folder
			position = { x = -2 y = 2 }
		}
		ai_will_do = {
			factor = 1
		}
		ai_research_weights = {
			CAT_naval_doctrine = -1.0
		}
	}

	distance_decimation = {
		on_research_complete = {
			log = "[GetDateText]: [Root.GetName]: add tech distance_decimation"
		}

		screening_without_screens = 0.3

		destroyer = {
			max_organisation = 11
		}
		cruiser = {
			max_organisation = 13
		}
		battleship = {
			max_organisation = 14
		}
		battle_cruiser = {
			max_organisation = 13
		}

		path = {
			research_cost_coeff = 1
			leads_to_tech = far_from_home
		}
		path = {
			research_cost_coeff = 1
			leads_to_tech = secured_shipping
		}
		research_cost = 1
		doctrine = yes
		xp_research_type = navy
		xp_unlock_cost = 100

		categories = {
			CAT_naval_doctrine
			CAT_blue_water_navy
		}
		folder = {
			name = naval_doctrine_folder
			position = { x = 0 y = 2 }
		}
		ai_will_do = {
			factor = 1
		}
		ai_research_weights = {
			CAT_naval_doctrine = -1.0
		}
	}

	the_prowlers = {
		on_research_complete = {
			log = "[GetDateText]: [Root.GetName]: add tech the_prowlers"
		}

		missile_submarine = {
			max_organisation = 16
		}
		attack_submarine = {
			max_organisation = 14
		}

		path = {
			research_cost_coeff = 1
			leads_to_tech = secured_shipping
		}
		research_cost = 1
		doctrine = yes
		xp_research_type = navy
		xp_unlock_cost = 100

		categories = {
			CAT_naval_doctrine
			CAT_blue_water_navy
		}
		folder = {
			name = naval_doctrine_folder
			position = { x = 2 y = 2 }
		}
		ai_will_do = {
			factor = 1
		}
		ai_research_weights = {
			CAT_naval_doctrine = -1.0
		}
	}

	far_from_home = {
		on_research_complete = {
			log = "[GetDateText]: [Root.GetName]: add tech far_from_home"
		}

		navy_max_range_factor = 0.4

		path = {
			research_cost_coeff = 1
			leads_to_tech = deck_discipline
		}
		path = {
			research_cost_coeff = 1
			leads_to_tech = rolling_thunder
		}
		research_cost = 1
		doctrine = yes
		xp_research_type = navy
		xp_unlock_cost = 100

		categories = {
			CAT_naval_doctrine
			CAT_blue_water_navy
		}
		folder = {
			name = naval_doctrine_folder
			position = { x = -1 y = 4 }
		}
		ai_will_do = {
			factor = 1
		}
		ai_research_weights = {
			CAT_naval_doctrine = -1.0
		}
	}

	secured_shipping = {
		on_research_complete = {
			log = "[GetDateText]: [Root.GetName]: add tech secured_shipping"
		}

		naval_detection = 0.3
		convoy_escort_efficiency = 0.3

		corvette = {
			max_organisation = 7
		}
		frigate = {
			max_organisation = 9
		}

		path = {
			research_cost_coeff = 1
			leads_to_tech = rolling_thunder
		}
		path = {
			research_cost_coeff = 1
			leads_to_tech = death_from_below
		}
		research_cost = 1
		doctrine = yes
		xp_research_type = navy
		xp_unlock_cost = 100

		categories = {
			CAT_naval_doctrine
			CAT_blue_water_navy
		}
		folder = {
			name = naval_doctrine_folder
			position = { x = 1 y = 4 }
		}
		ai_will_do = {
			factor = 1
		}
		ai_research_weights = {
			CAT_naval_doctrine = -1.0
		}
	}

	deck_discipline = {
		on_research_complete = {
			log = "[GetDateText]: [Root.GetName]: add tech deck_discipline"
		}

		sortie_efficiency = 0.2

		carrier = {
			max_organisation = 14
		}

		path = {
			research_cost_coeff = 1
			leads_to_tech = air_dominance
		}
		research_cost = 1
		doctrine = yes
		xp_research_type = navy
		xp_unlock_cost = 100

		categories = {
			CAT_naval_doctrine
			CAT_blue_water_navy
		}
		folder = {
			name = naval_doctrine_folder
			position = { x = -2 y = 6 }
		}
		ai_will_do = {
			factor = 1
		}
		ai_research_weights = {
			CAT_naval_doctrine = -1.0
		}
	}

	rolling_thunder = {
		on_research_complete = {
			log = "[GetDateText]: [Root.GetName]: add tech rolling_thunder"
		}

		naval_torpedo_cooldown_factor = -0.25

		path = {
			research_cost_coeff = 1
			leads_to_tech = missile_support
		}
		research_cost = 1
		doctrine = yes
		xp_research_type = navy
		xp_unlock_cost = 100

		categories = {
			CAT_naval_doctrine
			CAT_blue_water_navy
		}
		folder = {
			name = naval_doctrine_folder
			position = { x = 0 y = 6 }
		}
		ai_will_do = {
			factor = 1
		}
		ai_research_weights = {
			CAT_naval_doctrine = -1.0
		}
	}

	death_from_below = {
		on_research_complete = {
			log = "[GetDateText]: [Root.GetName]: add tech death_from_below"
		}

		navy_submarine_attack_factor = 0.2
		convoy_raiding_efficiency_factor = 0.3

		path = {
			research_cost_coeff = 1
			leads_to_tech = hidden_from_view
		}
		research_cost = 1
		doctrine = yes
		xp_research_type = navy
		xp_unlock_cost = 100

		categories = {
			CAT_naval_doctrine
			CAT_blue_water_navy
		}
		folder = {
			name = naval_doctrine_folder
			position = { x = 2 y = 6 }
		}
		ai_will_do = {
			factor = 1
		}
		ai_research_weights = {
			CAT_naval_doctrine = -1.0
		}
	}

	air_dominance = {
		on_research_complete = {
			log = "[GetDateText]: [Root.GetName]: add tech air_dominance"
		}

		sortie_efficiency = 0.2
		air_carrier_night_penalty_reduction_factor = 0.33
		carrier_night_traffic = 0.33

		path = {
			research_cost_coeff = 1
			leads_to_tech = zone_of_control
		}
		research_cost = 1
		doctrine = yes
		xp_research_type = navy
		xp_unlock_cost = 100

		categories = {
			CAT_naval_doctrine
			CAT_blue_water_navy
		}
		folder = {
			name = naval_doctrine_folder
			position = { x = -2 y = 8 }
		}
		ai_will_do = {
			factor = 1
		}
		ai_research_weights = {
			CAT_naval_doctrine = -1.0
		}
	}

	missile_support = {
		on_research_complete = {
			log = "[GetDateText]: [Root.GetName]: add tech missile_support"
		}

		naval_torpedo_hit_chance_factor = 0.25
		screening_efficiency = 0.25

		path = {
			research_cost_coeff = 1
			leads_to_tech = long_distance_persistence
		}
		research_cost = 1
		doctrine = yes
		xp_research_type = navy
		xp_unlock_cost = 100

		categories = {
			CAT_naval_doctrine
			CAT_blue_water_navy
		}
		folder = {
			name = naval_doctrine_folder
			position = { x = 0 y = 8 }
		}
		ai_will_do = {
			factor = 1
		}
		ai_research_weights = {
			CAT_naval_doctrine = -1.0
		}
	}

	hidden_from_view = {
		on_research_complete = {
			log = "[GetDateText]: [Root.GetName]: add tech hidden_from_view"
		}

		naval_torpedo_reveal_chance_factor = -0.25
		convoy_raiding_efficiency_factor = 0.3

		path = {
			research_cost_coeff = 1
			leads_to_tech = nuclear_dominance
		}
		research_cost = 1
		doctrine = yes
		xp_research_type = navy
		xp_unlock_cost = 100

		categories = {
			CAT_naval_doctrine
			CAT_blue_water_navy
		}
		folder = {
			name = naval_doctrine_folder
			position = { x = 2 y = 8 }
		}
		ai_will_do = {
			factor = 1
		}
		ai_research_weights = {
			CAT_naval_doctrine = -1.0
		}
	}

	zone_of_control = {
		on_research_complete = {
			log = "[GetDateText]: [Root.GetName]: add tech zone_of_control"
		}

		sortie_efficiency = 0.1
		navy_weather_penalty = -0.25
		category_nav_plane = {
			air_agility = 0.1
			naval_strike_attack = 0.1
			naval_strike_targetting = 0.1
		}
		category_MR_fighter = {
			air_agility = 0.1
			naval_strike_attack = 0.1
			naval_strike_targetting = 0.1
		}

		path = {
			research_cost_coeff = 1
			leads_to_tech = replenishment_at_sea
		}
		research_cost = 1
		doctrine = yes
		xp_research_type = navy
		xp_unlock_cost = 100

		categories = {
			CAT_naval_doctrine
			CAT_blue_water_navy
		}
		folder = {
			name = naval_doctrine_folder
			position = { x = -2 y = 10 }
		}
		ai_will_do = {
			factor = 1
		}
		ai_research_weights = {
			CAT_naval_doctrine = -1.0
		}
	}

	long_distance_persistence = {
		on_research_complete = {
			log = "[GetDateText]: [Root.GetName]: add tech long_distance_persistence"
		}

		naval_morale_factor = 0.25
		repair_speed_factor = 0.25

		path = {
			research_cost_coeff = 1
			leads_to_tech = replenishment_at_sea
		}
		path = {
			research_cost_coeff = 1
			leads_to_tech = logistical_goliath
		}
		research_cost = 1
		doctrine = yes
		xp_research_type = navy
		xp_unlock_cost = 100

		categories = {
			CAT_naval_doctrine
			CAT_blue_water_navy
		}
		folder = {
			name = naval_doctrine_folder
			position = { x = 0 y = 10 }
		}
		ai_will_do = {
			factor = 1
		}
		ai_research_weights = {
			CAT_naval_doctrine = -1.0
		}
	}

	nuclear_dominance = {
		on_research_complete = {
			log = "[GetDateText]: [Root.GetName]: add tech nuclear_dominance"
		}

		missile_submarine = {
			max_organisation = 8
			naval_range = 0.1
			sub_visibility = -0.1
		}

		path = {
			research_cost_coeff = 1
			leads_to_tech = logistical_goliath
		}
		research_cost = 1
		doctrine = yes
		xp_research_type = navy
		xp_unlock_cost = 100

		categories = {
			CAT_naval_doctrine
			CAT_blue_water_navy
		}
		folder = {
			name = naval_doctrine_folder
			position = { x = 2 y = 10 }
		}
		ai_will_do = {
			factor = 1
		}
		ai_research_weights = {
			CAT_naval_doctrine = -1.0
		}
	}

	replenishment_at_sea = {
		on_research_complete = {
			log = "[GetDateText]: [Root.GetName]: add tech replenishment_at_sea"
		}

		navy_max_range_factor = 0.4

		path = {
			research_cost_coeff = 1
			leads_to_tech = man_in_the_high_seas
		}
		research_cost = 1
		doctrine = yes
		xp_research_type = navy
		xp_unlock_cost = 100

		categories = {
			CAT_naval_doctrine
			CAT_blue_water_navy
		}
		folder = {
			name = naval_doctrine_folder
			position = { x = -1 y = 12 }
		}
		ai_will_do = {
			factor = 1
		}
		ai_research_weights = {
			CAT_naval_doctrine = -1.0
		}
	}

	logistical_goliath = {
		on_research_complete = {
			log = "[GetDateText]: [Root.GetName]: add tech logistical_goliath"
		}

		navy_fuel_consumption_factor = -0.1

		corvette = {
			max_organisation = 3.5
		}
		frigate = {
			max_organisation = 4.5
		}
		destroyer = {
			max_organisation = 5.5
		}
		cruiser = {
			max_organisation = 6.5
		}
		carrier = {
			max_organisation = 7
		}
		helicopter_operator = {
			max_organisation = 5
		}
		battleship = {
			max_organisation = 7
		}
		battle_cruiser = {
			max_organisation = 6.5
		}
		missile_submarine = {
			max_organisation = 4
		}
		attack_submarine = {
			max_organisation = 3.5
		}
		stealth_destroyer = {
			max_organisation = 5.5
		}

		path = {
			research_cost_coeff = 1
			leads_to_tech = man_in_the_high_seas
		}
		research_cost = 1
		doctrine = yes
		xp_research_type = navy
		xp_unlock_cost = 100

		categories = {
			CAT_naval_doctrine
			CAT_blue_water_navy
		}
		folder = {
			name = naval_doctrine_folder
			position = { x = 1 y = 12 }
		}
		ai_will_do = {
			factor = 1
		}
		ai_research_weights = {
			CAT_naval_doctrine = -1.0
		}
	}

	man_in_the_high_seas = {
		on_research_complete = {
			log = "[GetDateText]: [Root.GetName]: add tech man_in_the_high_seas"
		}

		positioning = 0.05

		destroyer = {
			surface_visibility = -0.1
		}
		cruiser = {
			surface_visibility = -0.1
		}
		carrier = {
			surface_visibility = -0.1
		}
		helicopter_operator = {
			surface_visibility = -0.1
		}
		battleship = {
			surface_visibility = -0.1
		}
		battle_cruiser = {
			surface_visibility = -0.1
		}
		stealth_destroyer = {
			surface_visibility = -0.1
		}

		path = {
			research_cost_coeff = 1
			leads_to_tech = global_naval_ambitions
		}
		research_cost = 1
		doctrine = yes
		xp_research_type = navy
		xp_unlock_cost = 100

		categories = {
			CAT_naval_doctrine
			CAT_blue_water_navy
		}
		folder = {
			name = naval_doctrine_folder
			position = { x = 0 y = 14 }
		}
		ai_will_do = {
			factor = 1
		}
		ai_research_weights = {
			CAT_naval_doctrine = -1.0
		}
	}

	global_naval_ambitions = {
		on_research_complete = {
			log = "[GetDateText]: [Root.GetName]: add tech global_naval_ambitions"
			add_ideas = blue_water_expert_xp_gain_factor_hidden_spirit
		}

		navy_max_range_factor = 0.1

		destroyer = {
			naval_speed = 0.05
		}
		cruiser = {
			naval_speed = 0.05
		}
		carrier = {
			naval_speed = 0.05
		}
		helicopter_operator = {
			naval_speed = 0.05
		}
		battleship = {
			naval_speed = 0.05
		}
		battle_cruiser = {
			naval_speed = 0.05
		}
		stealth_destroyer = {
			naval_speed = 0.05
		}

		path = {
			research_cost_coeff = 1
			leads_to_tech = naval_force_projection
		}
		research_cost = 1
		doctrine = yes
		xp_research_type = navy
		xp_unlock_cost = 100

		categories = {
			CAT_naval_doctrine
			CAT_blue_water_navy
		}
		folder = {
			name = naval_doctrine_folder
			position = { x = 0 y = 16 }
		}
		ai_will_do = {
			factor = 1
		}
		ai_research_weights = {
			CAT_naval_doctrine = -1.0
		}
	}

	naval_force_projection = {
		on_research_complete = {
			log = "[GetDateText]: [Root.GetName]: add tech naval_force_projection"
		}

		shore_bombardment_bonus = 0.1

		helicopter_operator = {
			max_organisation = 10
		}
		category_nav_plane = {
			air_ground_attack = 0.25
		}
		category_MR_fighter = {
			air_ground_attack = 0.25
		}

		research_cost = 1
		doctrine = yes
		xp_research_type = navy
		xp_unlock_cost = 100

		categories = {
			CAT_naval_doctrine
			CAT_blue_water_navy
		}
		folder = {
			name = naval_doctrine_folder
			position = { x = 0 y = 18 }
		}
		ai_will_do = {
			factor = 1
		}
		ai_research_weights = {
			CAT_naval_doctrine = -1.0
		}
	}

	green_water_navy = {
		on_research_complete = {
			log = "[GetDateText]: [Root.GetName]: add tech CAT_green_water_navy"
			add_ideas = green_water_navy_hidden_spirit
		}

		corvette = {
			max_organisation = 3.5
		}
		frigate = {
			max_organisation = 4.5
		}
		destroyer = {
			max_organisation = 5.5
		}
		cruiser = {
			max_organisation = 6.5
		}
		carrier = {
			max_organisation = 7
		}
		helicopter_operator = {
			max_organisation = 5
		}
		battleship = {
			max_organisation = 7
		}
		battle_cruiser = {
			max_organisation = 6.5
		}
		missile_submarine = {
			max_organisation = 4
		}
		attack_submarine = {
			max_organisation = 3.5
		}
		stealth_destroyer = {
			max_organisation = 5.5
		}

		xor = { blue_water_navy jeune_ecole_two }
		path = {
			research_cost_coeff = 1
			leads_to_tech = the_waters_that_surrounds_us
		}
		research_cost = 1
		doctrine = yes
		xp_research_type = navy
		xp_unlock_cost = 100

		categories = {
			CAT_naval_doctrine
			CAT_green_water_navy
		}
		folder = {
			name = naval_doctrine_folder
			position = { x = 0 y = 0 }
		}
		ai_will_do = {
			factor = 1
		}
		ai_research_weights = {
			CAT_naval_doctrine = -1.0
		}
	}

	the_waters_that_surrounds_us = {
		on_research_complete = {
			log = "[GetDateText]: [Root.GetName]: add tech the_waters_that_surrounds_us"
			add_ideas = green_water_expert_xp_gain_factor_hidden_spirit
		}
		path = {
			research_cost_coeff = 1
			leads_to_tech = workhorse_of_the_fleet
		}
		path = {
			research_cost_coeff = 1
			leads_to_tech = coast_guard
		}
		path = {
			research_cost_coeff = 1
			leads_to_tech = the_wolves
		}
		research_cost = 1
		doctrine = yes
		xp_research_type = navy
		xp_unlock_cost = 100

		categories = {
			CAT_naval_doctrine
			CAT_green_water_navy
		}
		folder = {
			name = naval_doctrine_folder
			position = { x = 0 y = 2 }
		}
		ai_will_do = {
			factor = 1
		}
		ai_research_weights = {
			CAT_naval_doctrine = -1.0
		}
	}

	workhorse_of_the_fleet = {
		on_research_complete = {
			log = "[GetDateText]: [Root.GetName]: add tech workhorse_of_the_fleet"
		}

		frigate = {
			max_organisation = 9
		}
		destroyer = {
			max_organisation = 11
		}

		path = {
			research_cost_coeff = 1
			leads_to_tech = modern_designations
		}
		research_cost = 1
		doctrine = yes
		xp_research_type = navy
		xp_unlock_cost = 100

		categories = {
			CAT_naval_doctrine
			CAT_green_water_navy
		}
		folder = {
			name = naval_doctrine_folder
			position = { x = -2 y = 4 }
		}
		ai_will_do = {
			factor = 1
		}
		ai_research_weights = {
			CAT_naval_doctrine = -1.0
		}
	}

	coast_guard = {
		on_research_complete = {
			log = "[GetDateText]: [Root.GetName]: add tech coast_guard"
		}

		convoy_escort_efficiency = 0.3

		corvette = {
			max_organisation = 7
		}

		path = {
			research_cost_coeff = 1
			leads_to_tech = securing_the_coast
		}
		research_cost = 1
		doctrine = yes
		xp_research_type = navy
		xp_unlock_cost = 100

		categories = {
			CAT_naval_doctrine
			CAT_green_water_navy
		}
		folder = {
			name = naval_doctrine_folder
			position = { x = 0 y = 4 }
		}
		ai_will_do = {
			factor = 1
		}
		ai_research_weights = {
			CAT_naval_doctrine = -1.0
		}
	}

	the_wolves = {
		on_research_complete = {
			log = "[GetDateText]: [Root.GetName]: add tech the_wolves"
		}

		attack_submarine = {
			max_organisation = 7
			sub_visibility = -0.1
		}

		path = {
			research_cost_coeff = 1
			leads_to_tech = destruction_of_shipping
		}
		research_cost = 1
		doctrine = yes
		xp_research_type = navy
		xp_unlock_cost = 100

		categories = {
			CAT_naval_doctrine
			CAT_green_water_navy
		}
		folder = {
			name = naval_doctrine_folder
			position = { x = 2 y = 4 }
		}
		ai_will_do = {
			factor = 1
		}
		ai_research_weights = {
			CAT_naval_doctrine = -1.0
		}
	}

	modern_designations = {
		on_research_complete = {
			log = "[GetDateText]: [Root.GetName]: add tech modern_designations"
		}

		frigate = {
			lg_attack = 0.1
			torpedo_attack = 0.1
			surface_visibility = -0.1
		}
		destroyer = {
			lg_attack = 0.1
			torpedo_attack = 0.1
			surface_visibility = -0.1
		}

		path = {
			research_cost_coeff = 1
			leads_to_tech = modernize_the_fleet
		}
		path = {
			research_cost_coeff = 1
			leads_to_tech = lightweight_carriers
		}
		research_cost = 1
		doctrine = yes
		xp_research_type = navy
		xp_unlock_cost = 100

		categories = {
			CAT_naval_doctrine
			CAT_green_water_navy
		}
		folder = {
			name = naval_doctrine_folder
			position = { x = -2 y = 6 }
		}
		ai_will_do = {
			factor = 1
		}
		ai_research_weights = {
			CAT_naval_doctrine = -1.0
		}
	}

	securing_the_coast = {
		on_research_complete = {
			log = "[GetDateText]: [Root.GetName]: add tech securing_the_coast"
			add_ideas = securing_the_coast_hidden_spirit
		}
		path = {
			research_cost_coeff = 1
			leads_to_tech = lightweight_carriers
		}
		research_cost = 1
		doctrine = yes
		xp_research_type = navy
		xp_unlock_cost = 100

		categories = {
			CAT_naval_doctrine
			CAT_green_water_navy
		}
		folder = {
			name = naval_doctrine_folder
			position = { x = 0 y = 6 }
		}
		ai_will_do = {
			factor = 1
		}
		ai_research_weights = {
			CAT_naval_doctrine = -1.0
		}
	}

	destruction_of_shipping = {
		on_research_complete = {
			log = "[GetDateText]: [Root.GetName]: add tech destruction_of_shipping"
		}

		convoy_raiding_efficiency_factor = 0.3

		attack_submarine = {
			torpedo_attack = 0.2
		}

		path = {
			research_cost_coeff = 1
			leads_to_tech = logistical_disruption
		}
		research_cost = 1
		doctrine = yes
		xp_research_type = navy
		xp_unlock_cost = 100

		categories = {
			CAT_naval_doctrine
			CAT_green_water_navy
		}
		folder = {
			name = naval_doctrine_folder
			position = { x = 2 y = 6 }
		}
		ai_will_do = {
			factor = 1
		}
		ai_research_weights = {
			CAT_naval_doctrine = -1.0
		}
	}

	modernize_the_fleet = {
		on_research_complete = {
			log = "[GetDateText]: [Root.GetName]: add tech modernize_the_fleet"
		}

		refit_speed = 0.3

		research_cost = 1
		doctrine = yes
		xp_research_type = navy
		xp_unlock_cost = 100

		categories = {
			CAT_naval_doctrine
			CAT_green_water_navy
		}
		folder = {
			name = naval_doctrine_folder
			position = { x = -3 y = 8 }
		}
		ai_will_do = {
			factor = 1
		}
		ai_research_weights = {
			CAT_naval_doctrine = -1.0
		}
	}

	lightweight_carriers = {
		on_research_complete = {
			log = "[GetDateText]: [Root.GetName]: add tech lightweight_carriers"
		}

		helicopter_operator = {
			max_organisation = 20
		}

		path = {
			research_cost_coeff = 1
			leads_to_tech = counter_blue_water_tactics
		}
		path = {
			research_cost_coeff = 1
			leads_to_tech = safety_in_our_shores
		}
		research_cost = 1
		doctrine = yes
		xp_research_type = navy
		xp_unlock_cost = 100

		categories = {
			CAT_naval_doctrine
			CAT_green_water_navy
		}
		folder = {
			name = naval_doctrine_folder
			position = { x = -1 y = 8 }
		}
		ai_will_do = {
			factor = 1
		}
		ai_research_weights = {
			CAT_naval_doctrine = -1.0
		}
	}

	logistical_disruption = {
		on_research_complete = {
			log = "[GetDateText]: [Root.GetName]: add tech logistical_disruption"
		}

		naval_torpedo_reveal_chance_factor = -0.25
		convoy_raiding_efficiency_factor = 0.3

		path = {
			research_cost_coeff = 1
			leads_to_tech = hit_and_run
		}
		research_cost = 1
		doctrine = yes
		xp_research_type = navy
		xp_unlock_cost = 100

		categories = {
			CAT_naval_doctrine
			CAT_green_water_navy
		}
		folder = {
			name = naval_doctrine_folder
			position = { x = 2 y = 8 }
		}
		ai_will_do = {
			factor = 1
		}
		ai_research_weights = {
			CAT_naval_doctrine = -1.0
		}
	}

	counter_blue_water_tactics = {
		on_research_complete = {
			log = "[GetDateText]: [Root.GetName]: add tech counter_blue_water_tactics"
		}

		positioning = 0.05
		naval_retreat_speed = 0.25

		path = {
			research_cost_coeff = 1
			leads_to_tech = three_month_rotations
		}
		research_cost = 1
		doctrine = yes
		xp_research_type = navy
		xp_unlock_cost = 100

		categories = {
			CAT_naval_doctrine
			CAT_green_water_navy
		}
		folder = {
			name = naval_doctrine_folder
			position = { x = -2 y = 10 }
		}
		ai_will_do = {
			factor = 1
		}
		ai_research_weights = {
			CAT_naval_doctrine = -1.0
		}
	}

	safety_in_our_shores = {
		on_research_complete = {
			log = "[GetDateText]: [Root.GetName]: add tech safety_in_our_shores"
		}

		naval_mines_damage_factor = 1

		path = {
			research_cost_coeff = 1
			leads_to_tech = air_naval_coordination
		}
		research_cost = 1
		doctrine = yes
		xp_research_type = navy
		xp_unlock_cost = 100

		categories = {
			CAT_naval_doctrine
			CAT_green_water_navy
		}
		folder = {
			name = naval_doctrine_folder
			position = { x = 0 y = 10 }
		}
		ai_will_do = {
			factor = 1
		}
		ai_research_weights = {
			CAT_naval_doctrine = -1.0
		}
	}

	hit_and_run = {
		on_research_complete = {
			log = "[GetDateText]: [Root.GetName]: add tech hit_and_run"
		}

		naval_speed_factor = 0.1
		naval_retreat_chance = 0.25

		path = {
			research_cost_coeff = 1
			leads_to_tech = topple_the_fortresses
		}
		research_cost = 1
		doctrine = yes
		xp_research_type = navy
		xp_unlock_cost = 100

		categories = {
			CAT_naval_doctrine
			CAT_green_water_navy
		}
		folder = {
			name = naval_doctrine_folder
			position = { x = 2 y = 10 }
		}
		ai_will_do = {
			factor = 1
		}
		ai_research_weights = {
			CAT_naval_doctrine = -1.0
		}
	}

	three_month_rotations = {
		on_research_complete = {
			log = "[GetDateText]: [Root.GetName]: add tech three_month_rotations"
		}

		strike_force_movement_org_loss = -0.5
		coordination_bonus = 0.25

		path = {
			research_cost_coeff = 1
			leads_to_tech = maintain_the_coasts
		}
		research_cost = 1
		doctrine = yes
		xp_research_type = navy
		xp_unlock_cost = 100

		categories = {
			CAT_naval_doctrine
			CAT_green_water_navy
		}
		folder = {
			name = naval_doctrine_folder
			position = { x = -2 y = 12 }
		}
		ai_will_do = {
			factor = 1
		}
		ai_research_weights = {
			CAT_naval_doctrine = -1.0
		}
	}

	air_naval_coordination = {
		on_research_complete = {
			log = "[GetDateText]: [Root.GetName]: add tech air_naval_coordination"
		}

		air_nav_efficiency = 0.25
		naval_strike_targetting_factor = 0.25

		path = {
			research_cost_coeff = 1
			leads_to_tech = maintain_the_coasts
		}
		research_cost = 1
		doctrine = yes
		xp_research_type = navy
		xp_unlock_cost = 100

		categories = {
			CAT_naval_doctrine
			CAT_green_water_navy
		}
		folder = {
			name = naval_doctrine_folder
			position = { x = 0 y = 12 }
		}
		ai_will_do = {
			factor = 1
		}
		ai_research_weights = {
			CAT_naval_doctrine = -1.0
		}
	}

	topple_the_fortresses = {
		on_research_complete = {
			log = "[GetDateText]: [Root.GetName]: add tech topple_the_fortresses"
		}

		naval_torpedo_hit_chance_factor = 0.25
		navy_anti_air_attack_factor = 0.15

		path = {
			research_cost_coeff = 1
			leads_to_tech = strength_in_numbers
		}
		research_cost = 1
		doctrine = yes
		xp_research_type = navy
		xp_unlock_cost = 100

		categories = {
			CAT_naval_doctrine
			CAT_green_water_navy
		}
		folder = {
			name = naval_doctrine_folder
			position = { x = 2 y = 12 }
		}
		ai_will_do = {
			factor = 1
		}
		ai_research_weights = {
			CAT_naval_doctrine = -1.0
		}
	}

	maintain_the_coasts = {
		on_research_complete = {
			log = "[GetDateText]: [Root.GetName]: add tech maintain_the_coasts"
		}

		production_speed_coastal_bunker_factor = 1
		production_speed_radar_station_factor = 0.25

		path = {
			research_cost_coeff = 1
			leads_to_tech = short_sorties
		}
		research_cost = 1
		doctrine = yes
		xp_research_type = navy
		xp_unlock_cost = 100

		categories = {
			CAT_naval_doctrine
			CAT_green_water_navy
		}
		folder = {
			name = naval_doctrine_folder
			position = { x = -1 y = 14 }
		}
		ai_will_do = {
			factor = 1
		}
		ai_research_weights = {
			CAT_naval_doctrine = -1.0
		}
	}

	strength_in_numbers = {
		on_research_complete = {
			log = "[GetDateText]: [Root.GetName]: add tech strength_in_numbers"
		}

		positioning = 0.05

		path = {
			research_cost_coeff = 1
			leads_to_tech = topple_the_goliaths
		}
		research_cost = 1
		doctrine = yes
		xp_research_type = navy
		xp_unlock_cost = 100

		categories = {
			CAT_naval_doctrine
			CAT_green_water_navy
		}
		folder = {
			name = naval_doctrine_folder
			position = { x = 2 y = 14 }
		}
		ai_will_do = {
			factor = 1
		}
		ai_research_weights = {
			CAT_naval_doctrine = -1.0
		}
	}

	short_sorties = {
		on_research_complete = {
			log = "[GetDateText]: [Root.GetName]: add tech short_sorties"
		}

		corvette = {
			max_organisation = 3.5
		}
		frigate = {
			max_organisation = 4.5
		}
		destroyer = {
			max_organisation = 5.5
		}
		cruiser = {
			max_organisation = 6.5
		}
		carrier = {
			max_organisation = 7
		}
		helicopter_operator = {
			max_organisation = 5
		}
		battleship = {
			max_organisation = 7
		}
		battle_cruiser = {
			max_organisation = 6.5
		}
		missile_submarine = {
			max_organisation = 4
		}
		attack_submarine = {
			max_organisation = 3.5
		}
		stealth_destroyer = {
			max_organisation = 5.5
		}

		research_cost = 1
		doctrine = yes
		xp_research_type = navy
		xp_unlock_cost = 100

		categories = {
			CAT_naval_doctrine
			CAT_green_water_navy
		}
		folder = {
			name = naval_doctrine_folder
			position = { x = -1 y = 16 }
		}
		ai_will_do = {
			factor = 1
		}
		ai_research_weights = {
			CAT_naval_doctrine = -1.0
		}
	}

	topple_the_goliaths = {
		on_research_complete = {
			log = "[GetDateText]: [Root.GetName]: add tech topple_the_goliaths"
		}

		naval_torpedo_cooldown_factor = -0.25

		research_cost = 1
		doctrine = yes
		xp_research_type = navy
		xp_unlock_cost = 100

		categories = {
			CAT_naval_doctrine
			CAT_green_water_navy
		}
		folder = {
			name = naval_doctrine_folder
			position = { x = 2 y = 16 }
		}
		ai_will_do = {
			factor = 1
		}
		ai_research_weights = {
			CAT_naval_doctrine = -1.0
		}
	}

	jeune_ecole_two = {
		on_research_complete = {
			log = "[GetDateText]: [Root.GetName]: add tech CAT_jeune_ecole_two"
			add_ideas = jeune_ecole_2_hidden_spirit
		}

		xor = { blue_water_navy green_water_navy }

		repair_speed_dockyard_factor = 0.10
		experience_gain_navy_unit_factor = 0.10
		repair_speed_factor = 0.10

		enable_equipments = {
			patrol_boat_1
		}

		allow = {
			OR = {
				has_idea = non_power
				has_idea = regional_power
				has_idea = minor_power
			}
		}

		path = {
			research_cost_coeff = 1
			leads_to_tech = a_divergence_in_doctrine
		}
		research_cost = 1
		doctrine = yes
		xp_research_type = navy
		xp_unlock_cost = 100

		categories = {
			CAT_naval_doctrine
			CAT_jeune_ecole_two
		}
		folder = {
			name = naval_doctrine_folder
			position = { x = 0 y = 0 }
		}
		ai_will_do = {
			factor = 1
		}
		ai_research_weights = {
			CAT_naval_doctrine = -1.0
		}
	}

	a_divergence_in_doctrine = {
		on_research_complete = { log = "[GetDateText]: [Root.GetName]: add tech a_divergence_in_doctrine" }

		naval_torpedo_hit_chance_factor = 0.05
		navy_visibility = -0.025

		path = {
			research_cost_coeff = 1
			leads_to_tech = size_doesnt_matter
		}
		path = {
			research_cost_coeff = 1
			leads_to_tech = juryrigged_submarines
		}
		path = {
			research_cost_coeff = 1
			leads_to_tech = conscript_navy
		}
		research_cost = 1
		doctrine = yes
		xp_research_type = navy
		xp_unlock_cost = 100

		categories = {
			CAT_naval_doctrine
			CAT_jeune_ecole_two
		}
		folder = {
			name = naval_doctrine_folder
			position = { x = 0 y = 2 }
		}
		ai_will_do = {
			factor = 1
		}
		ai_research_weights = {
			CAT_naval_doctrine = -1.0
		}
	}

	size_doesnt_matter = {
		on_research_complete = {
			log = "[GetDateText]: [Root.GetName]: add tech size_doesnt_matter"
		}

		corvette = {
			max_strength = 0.15
			lg_attack = 0.05
			torpedo_attack = 0.05
		}

		frigate = {
			max_strength = 0.15
			lg_attack = 0.05
			torpedo_attack = 0.05
		}

		destroyer = {
			max_strength = 0.1
			lg_attack = 0.05
			torpedo_attack = 0.05
		}

		path = {
			research_cost_coeff = 1
			leads_to_tech = its_how_you_use_it
		}

		research_cost = 1
		doctrine = yes
		xp_research_type = navy
		xp_unlock_cost = 100

		categories = {
			CAT_naval_doctrine
			CAT_jeune_ecole_two
		}
		folder = {
			name = naval_doctrine_folder
			position = { x = -2 y = 4 }
		}
		ai_will_do = {
			factor = 1
		}
		ai_research_weights = {
			CAT_naval_doctrine = -1.0
		}
	}

	juryrigged_submarines = {
		on_research_complete = {
			log = "[GetDateText]: [Root.GetName]: add tech juryrigged_submarines"
			add_ideas = juryrigged_submarines_hidden_spirit
		}

		path = {
			research_cost_coeff = 1
			leads_to_tech = pt_boat_supremacy
		}

		research_cost = 1
		doctrine = yes
		xp_research_type = navy
		xp_unlock_cost = 100

		categories = {
			CAT_naval_doctrine
			CAT_jeune_ecole_two
		}
		folder = {
			name = naval_doctrine_folder
			position = { x = 0 y = 4 }
		}
		ai_will_do = {
			factor = 1
		}
		ai_research_weights = {
			CAT_naval_doctrine = -1.0
		}
	}

	conscript_navy = {
		on_research_complete = {
			log = "[GetDateText]: [Root.GetName]: add tech conscript_navy"
			add_ideas = conscript_navy_hidden_spirit
		}

		industrial_capacity_dockyard = 0.10

		path = {
			research_cost_coeff = 1
			leads_to_tech = pt_boat_supremacy
		}

		research_cost = 1
		doctrine = yes
		xp_research_type = navy
		xp_unlock_cost = 100

		categories = {
			CAT_naval_doctrine
			CAT_jeune_ecole_two
		}
		folder = {
			name = naval_doctrine_folder
			position = { x = 2 y = 4 }
		}
		ai_will_do = {
			factor = 1
		}
		ai_research_weights = {
			CAT_naval_doctrine = -1.0
		}
	}

	its_how_you_use_it = {
		on_research_complete = {
			log = "[GetDateText]: [Root.GetName]: add tech its_how_you_use_it"
		}

		corvette = {
			max_organisation = 3.5
		}

		frigate = {
			max_organisation = 4.5
		}

		destroyer = {
			max_organisation = 5.5
		}

		path = {
			research_cost_coeff = 1
			leads_to_tech = the_new_ship_of_the_line
		}

		research_cost = 1
		doctrine = yes
		xp_research_type = navy
		xp_unlock_cost = 100

		categories = {
			CAT_naval_doctrine
			CAT_jeune_ecole_two
		}
		folder = {
			name = naval_doctrine_folder
			position = { x = -2 y = 6 }
		}
		ai_will_do = {
			factor = 1
		}
		ai_research_weights = {
			CAT_naval_doctrine = -1.0
		}
	}

	pt_boat_supremacy = {
		on_research_complete = { log = "[GetDateText]: [Root.GetName]: add tech pt_boat_supremacy" }

		patrol_boat = {
			lg_attack = 0.1
		}

		dependencies = {
			juryrigged_submarines = 1
			conscript_navy = 1
		}

		path = {
			research_cost_coeff = 1
			leads_to_tech = hellfire_cannons
		}
		path = {
			research_cost_coeff = 1
			leads_to_tech = bristling_with_firepower
		}

		research_cost = 1
		doctrine = yes
		xp_research_type = navy
		xp_unlock_cost = 100

		categories = {
			CAT_naval_doctrine
			CAT_jeune_ecole_two
		}
		folder = {
			name = naval_doctrine_folder
			position = { x = 1 y = 6 }
		}
		ai_will_do = {
			factor = 1
		}
		ai_research_weights = {
			CAT_naval_doctrine = -1.0
		}
	}

	the_new_ship_of_the_line = {
		on_research_complete = {
			log = "[GetDateText]: [Root.GetName]: add tech the_new_ship_of_the_line"
		}

		enable_equipment_modules = {
			module_heavy_frigate_upgrade_package
		}

		heavy_frigate = {
			max_organisation = 5
		}

		path = {
			research_cost_coeff = 1
			leads_to_tech = mama_and_her_chicks
		}

		research_cost = 1
		doctrine = yes
		xp_research_type = navy
		xp_unlock_cost = 100

		categories = {
			CAT_naval_doctrine
			CAT_jeune_ecole_two
		}
		folder = {
			name = naval_doctrine_folder
			position = { x = -2 y = 8 }
		}
		ai_will_do = {
			factor = 1
		}
		ai_research_weights = {
			CAT_naval_doctrine = -1.0
		}
	}

	hellfire_cannons = {
		on_research_complete = {
			log = "[GetDateText]: [Root.GetName]: add tech hellfire_cannons"
		}

		patrol_boat = {
			lg_attack = 0.05
			torpedo_attack = 0.05
		}

		path = {
			research_cost_coeff = 1
			leads_to_tech = riveted_ship_hulls
		}

		research_cost = 1
		doctrine = yes
		xp_research_type = navy
		xp_unlock_cost = 100

		categories = {
			CAT_naval_doctrine
			CAT_jeune_ecole_two
		}
		folder = {
			name = naval_doctrine_folder
			position = { x = 0 y = 8 }
		}
		ai_will_do = {
			factor = 1
		}
		ai_research_weights = {
			CAT_naval_doctrine = -1.0
		}
	}

	bristling_with_firepower = {
		on_research_complete = {
			log = "[GetDateText]: [Root.GetName]: add tech bristling_with_firepower"
		}

		patrol_boat = {
			anti_air_attack = 0.1
			lg_attack = 0.05
			torpedo_attack = 0.05
		}

		path = {
			research_cost_coeff = 1
			leads_to_tech = riveted_ship_hulls
		}

		research_cost = 1
		doctrine = yes
		xp_research_type = navy
		xp_unlock_cost = 100

		categories = {
			CAT_naval_doctrine
			CAT_jeune_ecole_two
		}
		folder = {
			name = naval_doctrine_folder
			position = { x = 2 y = 8 }
		}
		ai_will_do = {
			factor = 1
		}
		ai_research_weights = {
			CAT_naval_doctrine = -1.0
		}
	}

	mama_and_her_chicks = {
		on_research_complete = { log = "[GetDateText]: [Root.GetName]: add tech mama_and_her_chicks" }

		path = {
			research_cost_coeff = 1
			leads_to_tech = zerg_rush
		}

		naval_coordination = 0.10
		naval_speed_factor = 0.05
		navy_capital_ship_attack_factor = 0.05

		research_cost = 1
		doctrine = yes
		xp_research_type = navy
		xp_unlock_cost = 100

		categories = {
			CAT_naval_doctrine
			CAT_jeune_ecole_two
		}
		folder = {
			name = naval_doctrine_folder
			position = { x = -2 y = 10 }
		}
		ai_will_do = {
			factor = 1
		}
		ai_research_weights = {
			CAT_naval_doctrine = -1.0
		}
	}

	riveted_ship_hulls = {
		on_research_complete = {
			log = "[GetDateText]: [Root.GetName]: add tech riveted_ship_hulls"
		}

		corvette = {
			max_strength = 0.1
		}

		frigate = {
			max_strength = 0.1
		}

		heavy_frigate = {
			max_strength = 0.1
		}

		patrol_boat = {
			max_strength = 0.1
		}

		path = {
			research_cost_coeff = 1
			leads_to_tech = too_fast_to_torpedo
		}

		path = {
			research_cost_coeff = 1
			leads_to_tech = mad_max_the_fleet
		}

		research_cost = 1
		doctrine = yes
		xp_research_type = navy
		xp_unlock_cost = 100

		categories = {
			CAT_naval_doctrine
			CAT_jeune_ecole_two
		}
		folder = {
			name = naval_doctrine_folder
			position = { x = 1 y = 10 }
		}
		ai_will_do = {
			factor = 1
		}
		ai_research_weights = {
			CAT_naval_doctrine = -1.0
		}
	}

	zerg_rush = {
		on_research_complete = {
			log = "[GetDateText]: [Root.GetName]: add tech zerg_rush"
		}

		path = {
			research_cost_coeff = 1
			leads_to_tech = frigate_go_brrrt
		}

		naval_speed_factor = 0.05

		research_cost = 1
		doctrine = yes
		xp_research_type = navy
		xp_unlock_cost = 100

		categories = {
			CAT_naval_doctrine
			CAT_jeune_ecole_two
		}
		folder = {
			name = naval_doctrine_folder
			position = { x = -2 y = 12 }
		}
		ai_will_do = {
			factor = 1
		}
		ai_research_weights = {
			CAT_naval_doctrine = -1.0
		}
	}

	too_fast_to_torpedo = {
		on_research_complete = {
			log = "[GetDateText]: [Root.GetName]: add tech too_fast_to_torpedo"
		}

		naval_speed_factor = 0.05

		path = {
			research_cost_coeff = 1
			leads_to_tech = pt_sees_all
		}

		research_cost = 1
		doctrine = yes
		xp_research_type = navy
		xp_unlock_cost = 100

		categories = {
			CAT_naval_doctrine
			CAT_jeune_ecole_two
		}
		folder = {
			name = naval_doctrine_folder
			position = { x = 0 y = 12 }
		}
		ai_will_do = {
			factor = 1
		}
		ai_research_weights = {
			CAT_naval_doctrine = -1.0
		}
	}

	mad_max_the_fleet = {
		on_research_complete = {
			log = "[GetDateText]: [Root.GetName]: add tech too_fast_to_torpedo"
		}

		corvette = {
			max_strength = 0.05
		}

		frigate = {
			max_strength = 0.05
		}

		heavy_frigate = {
			max_strength = 0.05
		}

		attack_submarine = {
			max_strength = 0.05
		}

		patrol_boat = {
			max_strength = 0.05
		}

		path = {
			research_cost_coeff = 1
			leads_to_tech = hit_n_run
		}

		research_cost = 1
		doctrine = yes
		xp_research_type = navy
		xp_unlock_cost = 100

		categories = {
			CAT_naval_doctrine
			CAT_jeune_ecole_two
		}
		folder = {
			name = naval_doctrine_folder
			position = { x = 2 y = 12 }
		}
		ai_will_do = {
			factor = 1
		}
		ai_research_weights = {
			CAT_naval_doctrine = -1.0
		}
	}

	frigate_go_brrrt = {
		on_research_complete = {
			log = "[GetDateText]: [Root.GetName]: add tech frigate_go_brrrt"
		}

		path = {
			research_cost_coeff = 1
			leads_to_tech = dancing_with_giants
		}

		frigate = {
			anti_air_attack = 0.20
		}
		heavy_frigate = {
			anti_air_attack = 0.20
		}

		research_cost = 1
		doctrine = yes
		xp_research_type = navy
		xp_unlock_cost = 100

		categories = {
			CAT_naval_doctrine
			CAT_jeune_ecole_two
		}
		folder = {
			name = naval_doctrine_folder
			position = { x = -2 y = 14 }
		}
		ai_will_do = {
			factor = 1
		}
		ai_research_weights = {
			CAT_naval_doctrine = -1.0
		}
	}

	pt_sees_all = {
		on_research_complete = {
			log = "[GetDateText]: [Root.GetName]: add tech pt_sees_all"
		}

		patrol_boat = {
			surface_detection = 0.1
			sub_detection = 0.05
		}

		path = {
			research_cost_coeff = 1
			leads_to_tech = the_ship_to_end_all_wars
		}

		research_cost = 1
		doctrine = yes
		xp_research_type = navy
		xp_unlock_cost = 100

		categories = {
			CAT_naval_doctrine
			CAT_jeune_ecole_two
		}
		folder = {
			name = naval_doctrine_folder
			position = { x = 0 y = 14 }
		}
		ai_will_do = {
			factor = 1
		}
		ai_research_weights = {
			CAT_naval_doctrine = -1.0
		}
	}

	hit_n_run = {
		on_research_complete = {
			log = "[GetDateText]: [Root.GetName]: add tech hit_n_run"
		}

		amphibious_invasion_defence = 0.15

		patrol_boat = {
			maximum_speed = 0.05
		}

		corvette = {
			maximum_speed = 0.10
		}

		frigate = {
			maximum_speed = 0.15
		}

		path = {
			research_cost_coeff = 1
			leads_to_tech = the_ship_to_end_all_wars
		}

		research_cost = 1
		doctrine = yes
		xp_research_type = navy
		xp_unlock_cost = 100

		categories = {
			CAT_naval_doctrine
			CAT_jeune_ecole_two
		}
		folder = {
			name = naval_doctrine_folder
			position = { x = 2 y = 14 }
		}
		ai_will_do = {
			factor = 1
		}
		ai_research_weights = {
			CAT_naval_doctrine = -1.0
		}
	}

	dancing_with_giants = {
		on_research_complete = {
			log = "[GetDateText]: [Root.GetName]: add tech dancing_with_giants"
		}

		naval_torpedo_screen_penetration_factor = 0.05
		naval_torpedo_hit_chance_factor = 0.05

		frigate = {
			torpedo_attack = 0.15
		}
		heavy_frigate = {
			torpedo_attack = 0.15
		}

		research_cost = 1
		doctrine = yes
		xp_research_type = navy
		xp_unlock_cost = 100

		categories = {
			CAT_naval_doctrine
			CAT_jeune_ecole_two
		}
		folder = {
			name = naval_doctrine_folder
			position = { x = -2 y = 16 }
		}
		ai_will_do = {
			factor = 1
		}
		ai_research_weights = {
			CAT_naval_doctrine = -1.0
		}
	}

	the_ship_to_end_all_wars = {
		on_research_complete = {
			log = "[GetDateText]: [Root.GetName]: add tech the_ship_to_end_all_wars"
		}

		dependencies = {
			pt_sees_all = 1
			hit_n_run = 1
		}

		patrol_boat = {
			torpedo_attack = 0.05
			lg_attack = 0.05
			lg_armor_piercing = 0.05
		}

		research_cost = 1
		doctrine = yes
		xp_research_type = navy
		xp_unlock_cost = 100

		categories = {
			CAT_naval_doctrine
			CAT_jeune_ecole_two
		}
		folder = {
			name = naval_doctrine_folder
			position = { x = 1 y = 16 }
		}
		ai_will_do = {
			factor = 1
		}
		ai_research_weights = {
			CAT_naval_doctrine = -1.0
		}
	}
}
