#########################################################################
# OPINION MODIFIERS
##########################################################################
# value
# min_trust
# max_trust
# decay
# months/years/days = timer
# trade = yes/no
opinion_modifiers = {

	#Sosiski Investments
	bulgarian_investments = {
		value = 25
	}
}