﻿add_namespace = CSTO
country_event = { #X country wanna join CSTO, this event for Russia
	id = CSTO.1
	immediate = { log = "[GetDateText]: [Root.GetName]: event CSTO.1" }
	title = CSTO.1.t
	desc = CSTO.1.d
	picture = GFX_join_the_csto
	is_triggered_only = yes

	option = { #We accept!
		name = CSTO.1.a
		log = "[GetDateText]: [This.GetName]: CSTO.1.a executed"
		FROM = { country_event = { id = CSTO.3 hours = 6 } }
		ai_chance = {
			factor = 90
			modifier = {
				add = 10
				UKR = {
					OR = {
						has_idea = UKR_east_strengthened
						has_idea = UKR_east_dominant
					}
				}
			}
			modifier = {
				factor = 0.6
				OR = {
					AND = {
						has_government = democratic
						SYR = { NOT = { has_government = democratic } }
					}
					AND = {
						has_government = communism
						SYR = { NOT = { has_government = communism } }
					}
					AND = {
						has_government = fascism
						SYR = { NOT = { has_government = fascism } }
					}
					AND = {
						has_government = neutrality
						SYR = { NOT = { has_government = neutrality } }
					}
					AND = {
						has_government = nationalist
						SYR = { NOT = { has_government = nationalist } }
					}
				}
			}
			modifier = {
				factor = 0.2
				SYR = { has_war = yes }
			}
		}
	}

	option = { #We refuse
		name = CSTO.1.b
		log = "[GetDateText]: [This.GetName]: CSTO.1.b executed"
		FROM = { country_event = { id = CSTO.2 hours = 6 } }
		ai_chance = {
			factor = 10
			modifier = {
				factor = 2
				OR = {
					AND = {
						has_government = democratic
						FROM = { NOT = { has_government = democratic } }
					}
					AND = {
						has_government = communism
						FROM = { NOT = { has_government = communism } }
					}
					AND = {
						has_government = fascism
						FROM = { NOT = { has_government = fascism } }
					}
					AND = {
						has_government = neutrality
						FROM = { NOT = { has_government = neutrality } }
					}
					AND = {
						has_government = nationalist
						FROM = { NOT = { has_government = nationalist } }
					}
				}
			}
			modifier = {
				factor = 10
				FROM = { has_war = yes }
			}
		}
	}
}

country_event = { #Russia refused request to join CSTO
	id = CSTO.2
	immediate = { log = "[GetDateText]: [Root.GetName]: event CSTO.2" }
	title = CSTO.2.t
	desc = CSTO.2.d
	picture = GFX_join_the_csto

	is_triggered_only = yes

	option = {
		name = CSTO.2.a
		log = "[GetDateText]: [This.GetName]: CSTO.2.a executed"
	}
}

country_event = { #X country got invitation from Russia
	id = CSTO.3
	immediate = { log = "[GetDateText]: [Root.GetName]: event CSTO.3" }
	title = CSTO.3.t
	desc = CSTO.3.d
	picture = GFX_join_the_csto

	is_triggered_only = yes

	option = { #We accept!
		name = CSTO.3.a
		log = "[GetDateText]: [This.GetName]: CSTO.3.a executed"
		CSTO_join = yes
		ai_chance = {
			factor = 90
			modifier = {
				add = 10
				UKR = {
					OR = {
						has_idea = UKR_east_strengthened
						has_idea = UKR_east_dominant
					}
				}
			}
			modifier = {
				factor = 0.6
				OR = {
					AND = {
						has_government = democratic
						SYR = { NOT = { has_government = democratic } }
					}
					AND = {
						has_government = communism
						SYR = { NOT = { has_government = communism } }
					}
					AND = {
						has_government = fascism
						SYR = { NOT = { has_government = fascism } }
					}
					AND = {
						has_government = neutrality
						SYR = { NOT = { has_government = neutrality } }
					}
					AND = {
						has_government = nationalist
						SYR = { NOT = { has_government = nationalist } }
					}
				}
			}
			modifier = {
				factor = 0.2
				SYR = { has_war = yes }
			}
		}
	}

	option = { #We refuse
		name = CSTO.3.b
		log = "[GetDateText]: [This.GetName]: CSTO.3.b executed"
		add_political_power = 50
		ai_chance = {
			factor = 10
			modifier = {
				factor = 2
				OR = {
					AND = {
						has_government = democratic
						FROM = { NOT = { has_government = democratic } }
					}
					AND = {
						has_government = communism
						FROM = { NOT = { has_government = communism } }
					}
					AND = {
						has_government = fascism
						FROM = { NOT = { has_government = fascism } }
					}
					AND = {
						has_government = neutrality
						FROM = { NOT = { has_government = neutrality } }
					}
					AND = {
						has_government = nationalist
						FROM = { NOT = { has_government = nationalist } }
					}
				}
			}
			modifier = {
				factor = 10
				FROM = { has_war = yes }
			}
		}
	}
}

news_event = { #X country joined the CSTO news
	id = CSTO.4
	immediate = { log = "[GetDateText]: [Root.GetName]: event CSTO.4" }
	title = CSTO.4.t
	desc = CSTO.4.d
	picture = GFX_news_csto

	is_triggered_only = yes
	major = yes

	option = {
		name = CSTO.4.a
		log = "[GetDateText]: [This.GetName]: CSTO.4.a executed"
		trigger = {
			original_tag = FROM
		}
	}
	option = {
		name = CSTO.4.b
		log = "[GetDateText]: [This.GetName]: CSTO.4.b executed"
		trigger = {
			original_tag = SOV
		}
	}
	option = {
		name = CSTO.4.c
		log = "[GetDateText]: [This.GetName]: CSTO.4.c executed"
		trigger = {
			NOT = {
				original_tag = FROM
				original_tag = SOV
			}
		}
	}
}

news_event = { #X country left the CSTO news
	id = CSTO.5
	immediate = { log = "[GetDateText]: [Root.GetName]: event CSTO.5" }
	title = CSTO.5.t
	desc = CSTO.5.d
	picture = GFX_news_csto

	is_triggered_only = yes
	major = yes

	option = {
		name = CSTO.5.a
		log = "[GetDateText]: [This.GetName]: CSTO.5.o1 executed"
		trigger = { original_tag = FROM }
	}
	option = {
		name = CSTO.5.b
		log = "[GetDateText]: [This.GetName]: CSTO.5.o2 executed"
		trigger = { NOT = { original_tag = FROM } }
	}
}
