﻿###################
### USoE events ###
###################

add_namespace = USoEevent ### next free ID 2

country_event = {
	id = USoEevent.1
	title = USoEevent.1.t
	desc = USoEevent.1.d

	#picture = GFX_eu

	is_triggered_only = yes

	option = { #a yes
		name = USoEevent.1.a
		log = "[GetDateText]: [Root.GetName]: event USoEevent.1.a"
		FROM = {
			diplomatic_relation = {
				country = ROOT
				relation = non_aggression_pact
				active = yes
			}
		}
		ai_chance = {
			factor = 1
		}
	}
	option = { #b no
		name = USoEevent.1.b
		log = "[GetDateText]: [Root.GetName]: event USoEevent.1.b"

		ai_chance = {
			factor = 0
		}
	}
}

country_event = {
	id = USoEevent.2
	title = USoEevent.2.t
	desc = USoEevent.2.d

	#picture = GFX_eu

	is_triggered_only = yes

	option = { #a yes
		name = USoEevent.2.a
		log = "[GetDateText]: [Root.GetName]: event USoEevent.2.a"
		if = {
			limit = {
				FROM = {
					is_in_faction = yes
					is_faction_leader = yes
				}
			}
			FROM = { add_to_faction = ROOT }
		}
		else_if = {
			limit = {
				FROM = {
					NOT = { is_in_faction = yes }
				}
			}
			FROM = { leave_faction = yes }
			FROM = { create_faction = Eurasian_Alliance }
			FROM = { add_to_faction = ROOT }
		}

		ai_chance = {
			factor = 1
		}
	}
	option = { #b no
		name = USoEevent.2.b
		log = "[GetDateText]: [Root.GetName]: event USoEevent.2.b"

		ai_chance = {
			factor = 0
		}
	}
}

country_event = {
	id = USoEevent.3
	title = USoEevent.3.t
	desc = USoEevent.3.d

	#picture = GFX_eu

	is_triggered_only = yes

	option = { #a yes
		name = USoEevent.3.a
		log = "[GetDateText]: [Root.GetName]: event USoEevent.3.a"
		if = {
			limit = {
				FROM = {
					is_in_faction = yes
					is_faction_leader = yes
				}
			}
			FROM = { add_to_faction = ROOT }
		}
		else_if = {
			limit = {
				FROM = {
					NOT = { is_in_faction = yes }
				}
			}
			FROM = { create_faction = Western_Alliance }
			FROM = { add_to_faction = ROOT }
		}

		ai_chance = {
			factor = 1
		}
	}
	option = { #b no
		name = USoEevent.3.b
		log = "[GetDateText]: [Root.GetName]: event USoEevent.3.b"
		FROM = {
			create_wargoal = {
				type = annex_everything
				target = ROOT
			}
		}
		ai_chance = {
			factor = 0
		}
	}
}

country_event = {
	id = USoEevent.4
	title = USoEevent.4.t
	desc = USoEevent.4.d

	#picture = GFX_eu

	is_triggered_only = yes

	option = { #a yes
		name = USoEevent.4.a
		log = "[GetDateText]: [Root.GetName]: event USoEevent.4.a"
		if = {
			limit = {
				FROM = {
					is_in_faction = yes
					is_faction_leader = yes
				}
			}
			FROM = { add_to_faction = ROOT }
		}
		else_if = {
			limit = {
				FROM = {
					NOT = { is_in_faction = yes }
				}
			}
			FROM = { create_faction = Western_Alliance }
			FROM = { add_to_faction = ROOT }
		}

		ai_chance = {
			factor = 1
		}
	}
	option = { #b no
		name = USoEevent.4.b
		log = "[GetDateText]: [Root.GetName]: event USoEevent.4.b"
		FROM = {
			create_wargoal = {
				type = puppet_wargoal_focus
				target = ROOT
			}
		}
		ai_chance = {
			factor = 0
		}
	}
}

country_event = {
	id = USoEevent.5
	title = USoEevent.5.t
	desc = USoEevent.5.d

	#picture = GFX_eu

	is_triggered_only = yes

	option = { #a yes
		name = USoEevent.5.a
		log = "[GetDateText]: [Root.GetName]: event USoEevent.5.a"
		FROM = {
			set_temp_variable = { percent_change = 3 }
			set_temp_variable = { tag_index = ROOT.id }
			set_temp_variable = { influence_target = THIS.id }
			change_influence_percentage = yes
		}
		ai_chance = {
			factor = 1
		}
	}
}

country_event = {
	id = USoEevent.6
	title = USoEevent.6.t
	desc = USoEevent.6.d

	#picture = GFX_eu

	is_triggered_only = yes

	option = { #a yes
		name = USoEevent.6.a
		log = "[GetDateText]: [Root.GetName]: event USoEevent.6.a"
		FROM = {
			add_opinion_modifier = {
				target = ROOT
				modifier = sanctions_relations
			}
			reverse_add_opinion_modifier = {
				target = ROOT
				modifier = sanctions_relations
			}
		}
		ai_chance = {
			factor = 1
		}
	}
}

country_event = {
	id = USoEevent.7
	title = USoEevent.7.t
	desc = USoEevent.7.d

	#picture = GFX_eu

	is_triggered_only = yes

	option = { #a yes
		name = USoEevent.7.a
		log = "[GetDateText]: [Root.GetName]: event USoEevent.7.a"

		ai_chance = {
			factor = 1
		}
	}
}