﻿###########################
# 	  Hong Kong Events	  #
###########################

add_namespace = hongkong
add_namespace = hongkong_news

##The Chinese have Refused to Reverse the Annexation!
country_event = {
	id = hongkong.1
	title = hongkong.1.t

	desc = hongkong.1.d

	picture = GFX_treaty_rejected

	is_triggered_only = yes

	option = {
		name = hongkong.1.a #They don't fear us.
		log = "[GetDateText]: [This.GetName]: hongkong.1.a executed"
	}
}

##China Deploys Troops to Hong Kong
country_event = {
	id = hongkong.2
	title = hongkong.2.t

	desc = hongkong.2.d

	picture = GFX_kurd_riot

	is_triggered_only = yes


	option = {
		name = hongkong.2.a #This action must be condemned!
		CHI = {
			add_opinion_modifier = {
				target = ROOT
				modifier = opposes_troop_deployment
			}
		}
		add_opinion_modifier = {
			target = CHI
			modifier = HKG_deployed_troops
		}
		add_political_power = 10
		ai_chance = {
			factor = 1
			modifier = {
				factor = 100
				OR = {
					original_tag = AST
					original_tag = AUS
					original_tag = BEL
					original_tag = CAN
					original_tag = DEN
					original_tag = EST
					original_tag = FIN
					original_tag = FRA
					original_tag = GER
					original_tag = ICE
					original_tag = IRE
					original_tag = JAP
					original_tag = LAT
					original_tag = LIT
					original_tag = LUX
					original_tag = HOL
					original_tag = NZL
					original_tag = NOR
					original_tag = SPR
					original_tag = SWE
					original_tag = SWI
					original_tag = ENG
					original_tag = USA
					original_tag = TUR
					AND = {
						has_government = democratic
						has_elections = yes
					}
				}
			}
		}
		log = "[GetDateText]: [This.GetName]: hongkong.2.a executed"
	}
	option = {
		name = hongkong.2.b #We see nothing wrong with this.
		CHI = {
			add_opinion_modifier = {
				target = ROOT
				modifier = supports_troop_deployment
			}
		}
		add_political_power = -10
		ai_chance = {
			factor = 1
			modifier = {
				factor = 100
					has_government = communism
			}
			modifier = {
				factor = 100
				OR = {
					original_tag = BHR
					original_tag = BFA
					original_tag = BUR
					original_tag = CAM
					original_tag = COM
					original_tag = CNG
					original_tag = DRC
					original_tag = DJI
					original_tag = EGY
					original_tag = GUI
					original_tag = ERI
					original_tag = GAB
					original_tag = IRQ
					original_tag = KUW
					original_tag = MOZ
					original_tag = BRM
					original_tag = NEP
					original_tag = NIG
					original_tag = OMA
					original_tag = PAK
					original_tag = PAL
					original_tag = QAT
					original_tag = SAU
					original_tag = SER
					original_tag = SOM
					original_tag = SSU
					original_tag = SRI
					original_tag = SUD
					original_tag = TAJ
					original_tag = TOG
					original_tag = TRK
					original_tag = UGA
					original_tag = UAE
					original_tag = UZB
					original_tag = YEM
					original_tag = ZAM
					original_tag = ZIM
				}
			}
		}
		log = "[GetDateText]: [This.GetName]: hongkong.2.b executed"
	}
	option = {
		name = hongkong.2.c #This is none of our business.
		ai_chance = {
			factor = 10
		}
		log = "[GetDateText]: [This.GetName]: hongkong.2.c executed"
	}

}

##China Annexes Hong Kong
country_event = {
	id = hongkong.3
	title = hongkong.3.t

	desc = hongkong.3.d

	picture = GFX_communism

	is_triggered_only = yes


	option = {
		name = hongkong.3.a #This action must be condemned!
		CHI = {
			add_opinion_modifier = {
				target = ROOT
				modifier = opposes_hk_annexation
			}
		}
		add_opinion_modifier = {
			target = CHI
			modifier = HKG_annexation
		}
		add_political_power = 10
		ai_chance = {
			factor = 1
			modifier = {
				factor = 100
				OR = {
					original_tag = AST
					original_tag = AUS
					original_tag = BEL
					original_tag = CAN
					original_tag = DEN
					original_tag = EST
					original_tag = FIN
					original_tag = FRA
					original_tag = GER
					original_tag = ICE
					original_tag = IRE
					original_tag = JAP
					original_tag = LAT
					original_tag = LIT
					original_tag = LUX
					original_tag = HOL
					original_tag = NZL
					original_tag = NOR
					original_tag = SPR
					original_tag = SWE
					original_tag = SWI
					original_tag = ENG
					original_tag = USA
					original_tag = TUR
					AND = {
						has_government = democratic
						has_elections = yes
					}
				}
			}
		}
		log = "[GetDateText]: [This.GetName]: hongkong.3.a executed"
	}
	option = {
		name = hongkong.3.b #We see nothing wrong with this.
		CHI = {
			add_opinion_modifier = {
				target = ROOT
				modifier = supports_hk_annexation
			}
		}
		add_political_power = -10
		ai_chance = {
			factor = 1
			modifier = {
				factor = 100
					has_government = communism
			}
			modifier = {
				factor = 100
				OR = {
					original_tag = BHR
					original_tag = BFA
					original_tag = BUR
					original_tag = CAM
					original_tag = COM
					original_tag = CNG
					original_tag = DRC
					original_tag = DJI
					original_tag = EGY
					original_tag = GUI
					original_tag = ERI
					original_tag = GAB
					original_tag = IRQ
					original_tag = KUW
					original_tag = MOZ
					original_tag = BRM
					original_tag = NEP
					original_tag = NIG
					original_tag = OMA
					original_tag = PAK
					original_tag = PAL
					original_tag = QAT
					original_tag = SAU
					original_tag = SER
					original_tag = SOM
					original_tag = SSU
					original_tag = SRI
					original_tag = SUD
					original_tag = TAJ
					original_tag = TOG
					original_tag = TRK
					original_tag = UGA
					original_tag = UAE
					original_tag = UZB
					original_tag = YEM
					original_tag = ZAM
					original_tag = ZIM
				}
			}
		}
		log = "[GetDateText]: [This.GetName]: hongkong.3.b executed"
	}
	option = {
		name = hongkong.3.c #This is none of our business.
		ai_chance = {
			factor = 10
		}
		log = "[GetDateText]: [This.GetName]: hongkong.3.c executed"
	}

}

##China Annexes Hong Kong
country_event = {
	id = hongkong.4
	title = hongkong.4.t

	desc = hongkong.4.d

	picture = GFX_communism

	is_triggered_only = yes


	option = {
		name = hongkong.4.a #We should threaten war.
		CHI = {
			add_opinion_modifier = {
				target = ENG
				modifier = opposes_hk_annexation
			}
			country_event = { id = hongkong.5 }
		}
		add_opinion_modifier = {
			target = CHI
			modifier = HKG_annexation
		}
		ai_chance = {
			factor = 10
		}
		log = "[GetDateText]: [This.GetName]: hongkong.4.a executed"
	}

	option = {
		name = hongkong.4.b #We should impose economic penalties on China.
		CHI = {
			add_opinion_modifier = {
				target = ENG
				modifier = opposes_hk_annexation
			}
			country_event = { id = hongkong.6 }
		}
		add_opinion_modifier = {
			target = CHI
			modifier = HKG_annexation
		}
		ai_chance = {
			factor = 40
		}
		log = "[GetDateText]: [This.GetName]: hongkong.4.b executed"
	}

	option = {
		name = hongkong.4.c #We should criticize the move.
		CHI = {
			add_opinion_modifier = {
				target = ENG
				modifier = opposes_hk_annexation
			}
		}
		add_opinion_modifier = {
			target = CHI
			modifier = HKG_annexation
		}
		ai_chance = {
			factor = 10
			modifier = {
				factor = 4
				CHI = { has_completed_focus = CHI_End_US_Hegemony }
			}
		}
		log = "[GetDateText]: [This.GetName]: hongkong.4.c executed"
	}

}

##The United Kingdom is Threatening Military Action!
country_event = {
	id = hongkong.5
	title = hongkong.5.t

	desc = hongkong.5.d

	picture = GFX_ENG_generic

	is_triggered_only = yes

	option = {
		name = hongkong.5.a #This is not the hill we want to die on.
		if = {
			limit = {
				has_global_flag = GAME_RULE_allow_colored_puppets
			}
			set_autonomy = {
				target = HKG
				autonomy_state = autonomy_autonomous_state_colored
				end_wars = yes
				end_civil_wars = yes
			}
		}
		else = {
			set_autonomy = {
				target = HKG
				autonomy_state = autonomy_autonomous_state
				end_wars = yes
				end_civil_wars = yes
			}
		}
		hidden_effect = {
			HKG = {
				set_popularities = {
					democratic = 32.9
					communism = 58.5
					fascism = 0.0
					neutrality = 0
					nationalist = 8.6
				}
				set_variable = { party_pop_array^1 = 0.14 } #conservatism
				set_variable = { party_pop_array^2 = 0.126 } #liberalism
				set_variable = { party_pop_array^3 = 0.063 } #socialism
				set_variable = { party_pop_array^4 = 0.093 } #Communist-State
				set_variable = { party_pop_array^5 = 0.121 } #anarchist_communism
				set_variable = { party_pop_array^6 = 0.214 } #Conservative
				set_variable = { party_pop_array^7 = 0.157 } #Autocracy
				set_variable = { party_pop_array^20 = 0.086 } #Nat_Populism

				add_to_array = { ruling_party = 6 }

				add_to_array = { gov_coalition_array = 4 } #communist-state
				add_to_array = { gov_coalition_array = 5 } #left-wing radical
				add_to_array = { gov_coalition_array = 7 } #autocrats

				recalculate_party = yes
			}
		}
		595 = { remove_core_of = CHI }
		ENG = {
			country_event = { id = hongkong.7 }
		}
		log = "[GetDateText]: [This.GetName]: hongkong.5.a executed"
	}

	option = {
		name = hongkong.5.b #Let them come.
		ENG = {
			create_wargoal = {
				type = liberate_wargoal
				target = CHI
			}
		}
		ENG = {
			country_event = { id = hongkong.1 }
		}
		log = "[GetDateText]: [This.GetName]: hongkong.5.a executed"
	}
}

##The United Kingdom is Threatening Economic Measures Against Us!
country_event = {
	id = hongkong.6
	title = hongkong.6.t

	desc = hongkong.6.d

	picture = GFX_ENG_generic

	is_triggered_only = yes

	option = {
		name = hongkong.6.a #We should avoid confrontation.
		if = {
			limit = {
				has_global_flag = GAME_RULE_allow_colored_puppets
			}
			set_autonomy = {
				target = HKG
				autonomy_state = autonomy_autonomous_state_colored
				end_wars = yes
				end_civil_wars = yes
			}
		}
		else = {
			set_autonomy = {
				target = HKG
				autonomy_state = autonomy_autonomous_state
				end_wars = yes
				end_civil_wars = yes
			}
		}
		595 = { remove_core_of = CHI }
		hidden_effect = {
			HKG = {
				set_popularities = {
					democratic = 32.9
					communism = 58.5
					fascism = 0.0
					neutrality = 0
					nationalist = 8.6
				}
				set_variable = { party_pop_array^1 = 0.14 } #conservatism
				set_variable = { party_pop_array^2 = 0.126 } #liberalism
				set_variable = { party_pop_array^3 = 0.063 } #socialism
				set_variable = { party_pop_array^4 = 0.093 } #Communist-State
				set_variable = { party_pop_array^5 = 0.121 } #anarchist_communism
				set_variable = { party_pop_array^6 = 0.214 } #Conservative
				set_variable = { party_pop_array^7 = 0.157 } #Autocracy
				set_variable = { party_pop_array^20 = 0.086 } #Nat_Populism

				add_to_array = { ruling_party = 6 }

				add_to_array = { gov_coalition_array = 4 } #communist-state
				add_to_array = { gov_coalition_array = 5 } #left-wing radical
				add_to_array = { gov_coalition_array = 7 } #autocrats

				recalculate_party = yes
			}
		}
		ENG = {
			country_event = { id = hongkong.7 }
		}
		log = "[GetDateText]: [This.GetName]: hongkong.6.a executed"
	}

	option = {
		name = hongkong.6.b #Their threats mean nothing.
		ENG = {
			add_opinion_modifier = {
				target = CHI
				modifier = harsh_sanctions
			}
		}
		ENG = {
			country_event = { id = hongkong.1 }
		}
		log = "[GetDateText]: [This.GetName]: hongkong.6.a executed"
	}
}

##The Chinese have Agreed to Reverse the Annexation
country_event = {
	id = hongkong.7
	title = hongkong.7.t

	desc = hongkong.7.d

	picture = GFX_politics_negotiations

	is_triggered_only = yes

	option = {
		name = hongkong.7.a #Our threats still have an effect!
		log = "[GetDateText]: [This.GetName]: hongkong.7.a executed"
	}
}


#Hong Kong Sees Mass Protests
news_event = {
	id = hongkong_news.1
	title = hongkong_news.1.t

	desc = {
		text = hongkong_news.1.d
		trigger = { HKG = { has_country_flag = universal_suffrage_rejected } }
	}

	desc = {
		text = hongkong_news.1.d_limit
		trigger = { HKG = { has_country_flag = universal_suffrage_limited } }
	}

	desc = {
		text = hongkong_news.1.d_reunification
		trigger = { HKG = { has_country_flag = reunification } }
	}

	desc = {
		text = hongkong_news.1.d_annexed
		trigger = { NOT = { country_exists = HKG } }
	}

	picture = GFX_news_election_rally

	is_triggered_only = yes
	
	major = yes

	option = {
		name = hongkong_news.1.a
		trigger = {
			NOT = { original_tag = CHI }
			NOT = { original_tag = HKG }
		}
		log = "[GetDateText]: [This.GetName]: hongkong_news.1.a executed"
	}

	option = {
		name = hongkong_news.1.b
		trigger = {
			OR = {
				original_tag = CHI
				original_tag = HKG
			}
		}
		log = "[GetDateText]: [This.GetName]: hongkong_news.1.b executed"
	}

}

#Hong Kong Protests Fizzle Out
news_event = {
	id = hongkong_news.2
	title = hongkong_news.2.t

	desc = hongkong_news.2.d

	picture = GFX_news_election_rally

	is_triggered_only = yes
	
	major = yes

	option = {
		name = hongkong_news.2.a
		trigger = {
			NOT = { original_tag = CHI }
			NOT = { original_tag = HKG }
		}
		log = "[GetDateText]: [This.GetName]: hongkong_news.2.a executed"
	}

	option = {
		name = hongkong_news.2.b
		trigger = {
			OR = {
				original_tag = CHI
				original_tag = HKG
			}
		}
		log = "[GetDateText]: [This.GetName]: hongkong_news.2.b executed"
	}

}

#Hong Kong Protests Increase in Scale
news_event = {
	id = hongkong_news.3
	title = hongkong_news.3.t

	desc = hongkong_news.3.d

	picture = GFX_news_election_rally

	is_triggered_only = yes
	
	major = yes

	option = {
		name = hongkong_news.3.a
		trigger = {
			NOT = { original_tag = CHI }
			NOT = { original_tag = HKG }
		}
		log = "[GetDateText]: [This.GetName]: hongkong_news.3.a executed"
	}

	option = {
		name = hongkong_news.3.b
		trigger = {
			OR = {
				original_tag = CHI
				original_tag = HKG
			}
		}
		log = "[GetDateText]: [This.GetName]: hongkong_news.3.b executed"
	}

}