﻿add_namespace = Yemen

### Yemeni civil war cleanup events ###

#Give the winner YEM cosmetic tag
country_event = {
	id = Yemen.0
	immediate = { log = "[GetDateText]: [Root.GetName]: event Yemen.0" }
	hidden = yes
	trigger = {
		has_start_date > 2016.1.1
		OR = {
			AND = {
				tag = HOU
				NOT = {
					country_exists = YEM
					country_exists = AQY
				}
				has_war = no
			}
			AND = {
				tag = YEM
				NOT = {
					country_exists = HOU
					country_exists = AQY
				}
				has_war = no
			}
			AND = {
				tag = AQY
				NOT = {
					country_exists = HOU
					country_exists = YEM
				}
				has_war = no
			}
		}
		NOT = { has_global_flag = Yemen_Civil_War_Over }
	}

	immediate = {
		#Civil war is over
		set_global_flag = Yemen_Civil_War_Over
		#Clear core status
		194 = {
			remove_core_of = YEM
			remove_core_of = AQY
			remove_core_of = HOU
		}
		195 = {
			remove_core_of = YEM
			remove_core_of = AQY
			remove_core_of = HOU
		}
		196 = {
			remove_core_of = YEM
			remove_core_of = AQY
			remove_core_of = HOU
		}
		197 = {
			remove_core_of = YEM
			remove_core_of = AQY
			remove_core_of = HOU
		}
		198 = {
			remove_core_of = YEM
			remove_core_of = AQY
			remove_core_of = HOU
		}
		199 = {
			remove_core_of = YEM
			remove_core_of = AQY
			remove_core_of = HOU
		}
		200 = {
			remove_core_of = YEM
			remove_core_of = AQY
			remove_core_of = HOU
		}
		952 = {
			remove_core_of = YEM
			remove_core_of = AQY
			remove_core_of = HOU
		}
		951 = {
			remove_core_of = YEM
			remove_core_of = AQY
			remove_core_of = HOU
		}
		#Make the winner Yemen
		if = {
			limit = {
				OR = {
					tag = HOU
					tag = AQY
				}
			}
			set_cosmetic_tag = YEM
			set_country_flag = dynamic_flag
			set_country_flag = dynamic_rebel_flag
			remove_ideas = Non_State_Actor
		}
		if = {
			limit = {
				tag = AQY
			}
			add_ideas = intervention_neo_imperialism
		}
		add_state_core = 194
		add_state_core = 195
		add_state_core = 196
		add_state_core = 197
		add_state_core = 198
		add_state_core = 199
		add_state_core = 200
		add_state_core = 951
		add_state_core = 952
		set_capital = { state = 195 }
		subtract_from_variable = { threat_level = 30 }
		clamp_threat = yes
	}

	mean_time_to_happen = {
		days = 2
	}
}

#Al-Qaeda in Yemen is beaten. Force a peace deal as not to drag the war on forever
country_event = {
	id = Yemen.1
	immediate = { log = "[GetDateText]: [Root.GetName]: event Yemen.1" }

	hidden = yes

	trigger = {
		country_exists = AQY
		AQY = {
			has_capitulated = yes
			is_in_faction = yes
		}
		NOT = { has_global_flag = Yemen_Civil_War_Over } 	#No special rules if Al-Qaeda has already won Yemeni civil war
	}

	immediate = {
		remove_from_faction = AQY
	}

	mean_time_to_happen = {
		days = 2
	}
}

#Recreate Yemen in case it has been annexed
country_event = {
	id = Yemen.2
	immediate = { log = "[GetDateText]: [Root.GetName]: event Yemen.2" }

	hidden = yes

	trigger = {
		NOT = {
			country_exists = YEM
			country_exists = AQY
			country_exists = HOU
		}
		NOT = { 195 = { is_core_of = YEM } }
	}

	immediate = {
		#Clear core status
		194 = {
			remove_core_of = YEM
			remove_core_of = AQY
			remove_core_of = HOU
		}
		195 = {
			remove_core_of = YEM
			remove_core_of = AQY
			remove_core_of = HOU
		}
		196 = {
			remove_core_of = YEM
			remove_core_of = AQY
			remove_core_of = HOU
		}
		197 = {
			remove_core_of = YEM
			remove_core_of = AQY
			remove_core_of = HOU
		}
		198 = {
			remove_core_of = YEM
			remove_core_of = AQY
			remove_core_of = HOU
		}
		199 = {
			remove_core_of = YEM
			remove_core_of = AQY
			remove_core_of = HOU
		}
		200 = {
			remove_core_of = YEM
			remove_core_of = AQY
			remove_core_of = HOU
		}
		952 = {
			remove_core_of = YEM
			remove_core_of = AQY
			remove_core_of = HOU
		}
		951 = {
			remove_core_of = YEM
			remove_core_of = AQY
			remove_core_of = HOU
		}
		YEM = {
			add_state_core = 194
			add_state_core = 195
			add_state_core = 196
			add_state_core = 197
			add_state_core = 198
			add_state_core = 199
			add_state_core = 200
			add_state_core = 951
			add_state_core = 952
			set_capital = { state = 195 }
		}
	}

	mean_time_to_happen = {
		days = 2
	}
}

### Yemeni Post Civil War Events ###

# General Civil War Ending Event
news_event = {
	id = Yemen.4
	title = Yemen.4.t
	picture = GFX_news_Yem_CivilWar_End
	desc = {
		text = Yemen.4.d
		trigger = {
			country_exists = YEM
			NOT = { country_exists = AQY }
			NOT = { country_exists = HOU }
		}
	}

	desc = {
		text = Yemen.4.d2
		trigger = {
			country_exists = HOU
			NOT = { country_exists = AQY }
			NOT = { country_exists = YEM }
		}
	}

	desc = {
		text = Yemen.4.d3
		trigger = {
			country_exists = AQY
			NOT = { country_exists = YEM }
			NOT = { country_exists = HOU }
		}
	}

	major = yes
	is_triggered_only = yes

	#Option if Houthis wins
	option = {
		name = Yemen.4.a
		log = "[GetDateText]: [This.GetName]: Yemen.4.a executed"
		trigger = { tag = HOU }
	}

	#Option if Yemen wins
	option = {
		name = Yemen.4.b
		log = "[GetDateText]: [This.GetName]: Yemen.4.b executed"
		trigger = { tag = YEM }
	}

	#Option if Ansar al-Sharia wins
	option = {
		name = Yemen.4.c
		log = "[GetDateText]: [This.GetName]: Yemen.4.c executed"
		trigger = { tag = AQY }
	}

	#Option for the rest of the world
	option = {
		name = Yemen.4.e
		log = "[GetDateText]: [This.GetName]: Yemen.4.e executed"
		trigger = {
			NOT = {
				TAG = YEM
				TAG = HOU
				TAG = AQY
				tag = SAU
				tag = UAE
				tag = BHR
				tag = KUW
				tag = EGY
				tag = JOR
				tag = MOR
				tag = SEN
				tag = SUD

			}
		}
	}

	#Option for Saudi Coalition
	option = {
		name = Yemen.4.f
		log = "[GetDateText]: [This.GetName]: Yemen.4.f executed"
		trigger = {
		or = {
			tag = SAU
			tag = UAE
			tag = BHR
			tag = KUW
			tag = EGY
			tag = JOR
			tag = MOR
			tag = SEN
			tag = SUD
			}
		}
		remove_ideas = restoring_hope
	}
}

# Trigger News Event
country_event = {
	id = Yemen.5
	immediate = { log = "[GetDateText]: [Root.GetName]: event Yemen.5" }

	hidden = yes
	fire_only_once = yes

	trigger = {
		# or means Any of the following must be true
		or = {
		  #If Houthis wins
		  and = {
			HOU = { has_global_flag = Yemen_Civil_War_Over }
			 country_exists = HOU
			 NOT = {
				country_exists = YEM
				country_exists = AQY
			 }
		  }
		 #If Yemen wins
		  and = {
			YEM = { has_global_flag = Yemen_Civil_War_Over }
			 country_exists = YEM
			 NOT = {
				country_exists = HOU
				country_exists = AQY
			 }
		  }
		 #If AQY Wins
		  and = {
			AQY = { has_global_flag = Yemen_Civil_War_Over }
			 country_exists = AQY
			 NOT = {
				country_exists = HOU
				country_exists = YEM
			 }
		  }
		}
	}

	immediate = {
		news_event = { id = Yemen.4 }
	}
}

#Yemen Fires Missile decision
country_event = {
	id = Yemen.6
	title = Yemen.6.t
	desc = Yemen.6.d

	fire_only_once = yes

	trigger = {
		has_war_with = YEM
		tag = HOU
	}
	mean_time_to_happen = {
		days = 300
	}

	option = {
		name = Yemen.6.a
		log = "[GetDateText]: [This.GetName]: Yemen.6.a executed"
		add_political_power = 100
		news_event = { id = Yemen.7 }
	}
	option = {
		name = Yemen.6.b
		log = "[GetDateText]: [This.GetName]: Yemen.6.b executed"
	}
}

#Yemen Fires Missile news event
news_event = {
	id = Yemen.7
	title = Yemen.7.t
	desc = Yemen.7.d
	picture = GFX_news_SAU_YEM_Missile

	major = yes
	is_triggered_only = yes

	option = {
		name = Yemen.7.a
		log = "[GetDateText]: [This.GetName]: Yemen.7.a executed"
	}
}
