mars_category = {
	decision_test1 = {
		icon = generic_research
		available = {
		}
		visible = { original_tag = GER }
		complete_effect = {

		}
	}
}

moon_category = {
	decision_test1 = {
		icon = generic_research
		available = {
		}
		visible = { original_tag = GER }
		complete_effect = {

		}
	}
}