﻿division_template = {
	name = "Panzergrenadierbrigade" #better reflects arm. inf

	division_names_group = AUS_MEC_01

	regiments = {
		Arm_Inf_Bat = { x = 0 y = 0 } #Armored (IFV) instead of mechanized (APC)
		Arm_Inf_Bat = { x = 0 y = 1 }
		Sp_Arty_Bat = { x = 0 y = 2 }
		armor_bat = { x = 1 y = 0 } #Tanks can't be on the same line as infantry

	}
	support = {
		armor_Recce_Comp = { x = 0 y = 0 } #company of light tank recce
		H_Engi_Comp = { x = 0 y = 1 } #Just assuming they have a bit of this
	}
}

division_template = {
	name = "Jägerbrigade"

	division_names_group = AUS_INF_01

	regiments = {
		Mech_Inf_Bat = { x = 0 y = 0 }
		L_Inf_Bat = { x = 1 y = 0 }
		Sp_Arty_Bat = { x = 1 y = 1 }
	}
	support = {
		Mot_Recce_Comp = { x = 0 y = 0 } #company of motorized recce
	}
}

division_template = {
	name = "Schnelle Einsätzbrigade"

	division_names_group = AUS_INF_03

	regiments = {
		Mech_Inf_Bat = { x = 0 y = 0 }
		Mot_Inf_Bat = { x = 0 y = 1 }
		L_Inf_Bat = { x = 1 y = 0 }
		Mot_Inf_Bat = { x = 1 y = 1 }
	}
}

division_template = {
	name = "Kommando Gebirgskampf"

	division_names_group = AUS_SPEC_01

	regiments = {
		Special_Forces = { x = 0 y = 0 }
		Special_Forces = { x = 0 y = 1 }
		L_Inf_Bat = { x = 0 y = 2 }
	}

	priority = 2
}

division_template = {
	name = "Jägerbataillon"

	division_names_group = AUS_INF_02

	regiments = {
		Mot_Inf_Bat = { x = 0 y = 0 }
	}
	support = {
		L_Engi_Comp = { x = 0 y = 0 }
	}
}

division_template = {
	name = "Fallschirmjägerbataillon"

	division_names_group = AUS_AIR_01

	regiments = {
		L_Air_Inf_Bat = { x = 0 y = 0 }
	}
}

units = {

	division = {
		#name = "4th Panzergrenadierbrigade"
		division_name = {
			is_name_ordered = yes
			name_order = 4
		}
		location = 9665
		division_template = "Panzergrenadierbrigade"
		start_experience_factor = 0.75
		start_equipment_factor = 0.01
	}

	division = {
		#name = "7th Jägerbrigade"
		division_name = {
			is_name_ordered = yes
			name_order = 7
		}
		location = 3673
		division_template = "Jägerbrigade"
		start_experience_factor = 0.75
		start_equipment_factor = 0.01
	}

	division = {
		#name = "Kommando Schnelle Einsätze"
		division_name = {
			is_name_ordered = yes
			name_order = 1
		}
		location = 11651
		division_template = "Schnelle Einsätzbrigade"
		start_experience_factor = 0.75
		start_equipment_factor = 0.01
	}

	division = {
		#name = "Kommando Gebirgskampf"
		division_name = {
			is_name_ordered = yes
			name_order = 7
		}
		location = 673
		division_template = "Kommando Gebirgskampf"
		start_experience_factor = 0.9
		start_equipment_factor = 0.01
	}

	division = {
		#name = "Militärkommando Wien"
		division_name = {
			is_name_ordered = yes
			name_order = 2
		}
		location = 11666
		division_template = "Jägerbataillon"
		start_experience_factor = 0.75
		start_equipment_factor = 0.01
	}

	division = {
		#name = "Militärkommando Burgenland"
		division_name = {
			is_name_ordered = yes
			name_order = 1
		}
		location = 9661
		division_template = "Jägerbataillon"
		start_experience_factor = 0.75
		start_equipment_factor = 0.01
	}

	division = {
		#name = "Militärkommando Niederösterreich"
		division_name = {
			is_name_ordered = yes
			name_order = 12
		}
		location = 704
		division_template = "Jägerbataillon"
		start_experience_factor = 0.75
		start_equipment_factor = 0.01
	}

	division = {
		#name = "Militärkommando Oberösterreich"
		division_name = {
			is_name_ordered = yes
			name_order = 15
		}
		location = 9665
		division_template = "Jägerbataillon"
		start_experience_factor = 0.75
		start_equipment_factor = 0.01
	}

	division = {
		#name = "Militärkommando Styrol"
		division_name = {
			is_name_ordered = yes
			name_order = 18
		}
		location = 9648
		division_template = "Jägerbataillon"
		start_experience_factor = 0.75
		start_equipment_factor = 0.01
	}

	division = {
		#name = "Militärkommando Tirol"
		division_name = {
			is_name_ordered = yes
			name_order = 6
		}
		location = 673
		division_template = "Jägerbataillon"
		start_experience_factor = 0.75
		start_equipment_factor = 0.01
	}

	division = {
		#name = "Militärkommando Kärnten"
		division_name = {
			is_name_ordered = yes
			name_order = 7
		}
		location = 3673
		division_template = "Jägerbataillon"
		start_experience_factor = 0.75
		start_equipment_factor = 0.01
	}

	division = {
		#name = "Militärkommando Salzburg"
		division_name = {
			is_name_ordered = yes
			name_order = 8
		}
		location = 688
		division_template = "Jägerbataillon"
		start_experience_factor = 0.75
		start_equipment_factor = 0.01
	}

	division = {
		#name = "Militärkommando Vorarlberg"
		division_name = {
			is_name_ordered = yes
			name_order = 23
		}
		location = 6680
		division_template = "Jägerbataillon"
		start_experience_factor = 0.75
		start_equipment_factor = 0.01
	}

	division = {
		#name = "25. Fallschirmjägerbataillon"
		division_name = {
			is_name_ordered = yes
			name_order = 25
		}
		location = 3673
		division_template = "Fallschirmjägerbataillon"
		start_experience_factor = 0.8
		start_equipment_factor = 0.01
	}
}

instant_effect = {
	add_equipment_to_stockpile = {
		type = infantry_weapons3
		amount = 4000
		producer = AUS
	}

	add_equipment_to_stockpile = {
		type = mbt_hull_1
		variant_name = "Leopard 2A4"
		amount = 40
		producer = GER
	}

	add_equipment_to_stockpile = {
		type = command_control_equipment4
		amount = 500
		producer = AUS
	}

	add_equipment_to_stockpile = {
		type = util_vehicle_4 #CBRN Dingo
		amount = 12
		producer = GER
	}

	add_equipment_to_stockpile = {
		type = IFV_5 #Ulan
		amount = 112
	}

	add_equipment_to_stockpile = {
		type = APC_4 #Pandur
		amount = 71
	}

	add_equipment_to_stockpile = {
		type = util_vehicle_5 #Dingo II
		amount = 23
		producer = GER
	}

	add_equipment_to_stockpile = {
		type = SP_arty_1 #M109A5ÖE
		amount = 30
		producer = USA
	}

	add_equipment_to_stockpile = {
		type = Anti_tank_1 #PAL 2000 BILL
		amount = 150
		producer = SWE
	}

	add_equipment_to_stockpile = {
		type = Heavy_Anti_tank_2
		amount = 100
		producer = USA
	}


	add_equipment_to_stockpile = {
		type = Anti_Air_2
		amount = 200
		producer = USA
	}

	add_equipment_to_stockpile = {
		type = AS_Fighter3 #Eurofighter Typhoon
		amount = 15
		producer = FRA
	}

	add_equipment_to_stockpile = {
		type = SP_Anti_Air_1 #Mistral
		amount = 24
		producer = FRA
	}
}