﻿#
division_template = {
	name = "Infantry Brigade"

	regiments = {
		L_Inf_Bat = { x = 0 y = 0 }
		L_Inf_Bat = { x = 0 y = 1 }
		L_Inf_Bat = { x = 0 y = 2 }
	}
}

units = {
	division = {
		name = "Belize Defence Force"
		location = 2077		#Belize
		division_template = "Infantry Brigade"
		start_experience_factor = 0.5
		start_equipment_factor = 0.01
	}
}

instant_effect = {
	add_equipment_to_stockpile = {
		type = infantry_weapons
		amount = 1000
		producer = USA
	}
	add_equipment_to_stockpile = {
		type = command_control_equipment
		amount = 100
		producer = USA
	}
	add_equipment_to_stockpile = {
		type = Anti_tank_1
		amount = 100
		producer = USA
	}
}