﻿units = {

	### Naval OOB ###
	fleet = {
		name = "1. Eskadre"
		naval_base = 394
		task_force = {
			name = "1. Eskadre"
			location = 394
			ship = { name = "Thetis" definition = frigate start_experience_factor = 0.65 equipment = { missile_frigate_1 = { amount = 1 owner = DEN } } }
			ship = { name = "Triton" definition = frigate start_experience_factor = 0.65 equipment = { missile_frigate_1 = { amount = 1 owner = DEN } } }
			ship = { name = "Vædderen" definition = frigate start_experience_factor = 0.65 equipment = { missile_frigate_1 = { amount = 1 owner = DEN } } }
			ship = { name = "Hvidbjørnen" definition = frigate start_experience_factor = 0.65 equipment = { missile_frigate_1 = { amount = 1 owner = DEN } } }
		}
	}
	fleet = {
		name = "2. Eskadre"
		naval_base = 3325
		task_force = {
			name = "2. Eskadre"
			location = 3325
			ship = { name = "Niels Juel" definition = frigate start_experience_factor = 0.65 equipment = { missile_frigate_1 = { amount = 1 owner = DEN } } }
			ship = { name = "Olfert Fischer" definition = frigate start_experience_factor = 0.65 equipment = { missile_frigate_1 = { amount = 1 owner = DEN } } }
			ship = { name = "Peter Tordenskiold" definition = frigate start_experience_factor = 0.65 equipment = { missile_frigate_1 = { amount = 1 owner = DEN } } }
		}
	}
	fleet = {
		name = "5. Eskadre"
		naval_base = 3325
		task_force = {
			name = "5. Eskadre"
			location = 3325
			ship = { name = "Tumleren" definition = attack_submarine start_experience_factor = 0.65 equipment = { diesel_attack_submarine_1 = { amount = 1 owner = DEN creator = NOR } }  }
			ship = { name = "Sælen" definition = attack_submarine start_experience_factor = 0.65 equipment = { diesel_attack_submarine_1 = { amount = 1 owner = DEN creator = NOR } }  }
			ship = { name = "Springeren" definition = attack_submarine start_experience_factor = 0.65 equipment = { diesel_attack_submarine_1 = { amount = 1 owner = DEN creator = NOR } }  }
		}
	}
}
