﻿units = {

	### Naval OOB ###
	fleet = {
		name = "Suomen Laivasto"
		naval_base = 3083
		task_force = {
			name = "Ohjuslaivue"
			location = 3083
			ship = { name = "Tykkivene Karjala" definition = corvette start_experience_factor = 0.65 equipment = { corvette_1 = { amount = 1 owner = FIN } }  }
		}
	}
}
