﻿division_template = {
	name = "Liwa Mushat" 	#Infantry Brigade

	regiments = {
		Mech_Inf_Bat = { x = 0 y = 0 }
		Mech_Inf_Bat = { x = 0 y = 1 }
		Mech_Inf_Bat = { x = 0 y = 2 }
		SP_Arty_Bat = { x = 0 y = 3 }
	}
	support = {
		SP_AA_Battery = { x = 0 y = 0 }
		H_Engi_Comp = { x = 0 y = 1 }
	}
}

division_template = {
	name = "Liwa Mushat Mechaniqui" 	#Mechanised Brigade

	regiments = {
		Mech_Inf_Bat = { x = 0 y = 0 }
		Mech_Inf_Bat = { x = 0 y = 1 }
		armor_Bat = { x = 0 y = 2 }
		SP_Arty_Bat = { x = 0 y = 3 }
	}
	support = {
		SP_AA_Battery = { x = 0 y = 0 }
		H_Engi_Comp = { x = 0 y = 1 }
	}
}

division_template = {
	name = "Liwa Mushat Khafif" 	#Light Infantry Brigade

	regiments = {
		Mot_Inf_Bat = { x = 0 y = 0 }
		Mot_Inf_Bat = { x = 0 y = 1 }
		Mot_Inf_Bat = { x = 0 y = 2 }
		SP_Arty_Bat = { x = 0 y = 3 }
	}
	support = {
		SP_AA_Battery = { x = 0 y = 0 }
		H_Engi_Comp = { x = 0 y = 1 }
	}
}

division_template = {
	name = "Liwa Moudar'a" 	#Armoured Brigade

	regiments = {
		armor_Bat = { x = 0 y = 0 }
		armor_Bat = { x = 0 y = 1 }
		Arm_Inf_Bat = { x = 0 y = 2 }
		SP_Arty_Bat = { x = 0 y = 3 }
	}
	support = {
		SP_AA_Battery = { x = 0 y = 0 }
		H_Engi_Comp = { x = 0 y = 1 }
	}
}

division_template = {
	name = "Liwa Alharis" 	#Ranger Brigade

	regiments = {
		L_Air_Inf_Bat = { x = 0 y = 0 }
		L_Air_Inf_Bat = { x = 0 y = 1 }
		L_Air_Inf_Bat = { x = 0 y = 2 }
	}
	priority = 2
}

division_template = {
	name = "Liwa Midali" 	#Airborne Brigade

	regiments = {
		Mot_Air_Inf_Bat = { x = 0 y = 0 }
		Mot_Air_Inf_Bat = { x = 0 y = 1 }
		Mot_Air_Inf_Bat = { x = 0 y = 2 }
	}
	support = {
		L_Engi_Comp = { x = 0 y = 0 }
	}
}

division_template = {
	name = "Liwa Alquwwat Alkhasa" 	#Special Forces Brigade

	regiments = {
		Special_Forces = { x = 0 y = 0 }
		Special_Forces = { x = 0 y = 1 }
	}

	priority = 2
}

division_template = {
	name = "Katiba Alquwwat Alkhasa" 	#Special Forces Battalion

	regiments = {
		Special_Forces = { x = 0 y = 0 }
	}

	priority = 2
}

division_template = {
	name = "Liwa Harass Houdoud" 	#Border Guard Brigade

	regiments = {
		L_Inf_Bat = { x = 0 y = 0 }
		L_Inf_Bat = { x = 0 y = 1 }
		L_Inf_Bat = { x = 0 y = 2 }
	}

	priority = 0
}

units = {
	#Northern Command
	division = {
		name = "1. 'Al-Amirat Ealyh' Liwa Mushat"
		location = 7170 #Irdib
		division_template = "Liwa Mushat"
		start_experience_factor = 0.3
		start_equipment_factor = 0.01
	}
	division = {
		name = "3. 'Almalik Talal' Liwa Mushat Mechaniqui"
		location = 7170 #Irdib
		division_template = "Liwa Mushat Mechaniqui"
		start_experience_factor = 0.3
		start_equipment_factor = 0.01
	}
	division = {
		name = "12. 'Al-Yarmouk' Liwa Mushat Mechaniqui"
		location = 7170 #Irdib
		division_template = "Liwa Mushat Mechaniqui"
		start_experience_factor = 0.3
		start_equipment_factor = 0.01
	}

	#Central Command
	division = {
		name = "1. Liwa Haris Milkiun Mushat Mechaniqui"
		location = 7151 #Amman
		division_template = "Liwa Mushat Mechaniqui"
		start_experience_factor = 0.3
		start_equipment_factor = 0.01
	}
	division = {
		name = "2. 'Alhashmy' Liwa Mushat"
		location = 7151 #Amman
		division_template = "Liwa Mushat Khafif"
		start_experience_factor = 0.3
		start_equipment_factor = 0.01
	}

	#Eastern Command
	division = {
		name = "2. Liwa Haris Milkiun Mushat Mechaniqui"
		location = 7001 #Mafraq
		division_template = "Liwa Mushat Mechaniqui"
		start_experience_factor = 0.3
		start_equipment_factor = 0.01
	}
	division = {
		name = "90. 'Almalik Eabd Allh' Liwa Mushat Mechaniqui"
		location = 7001 #Mafraq
		division_template = "Liwa Mushat Mechaniqui"
		start_experience_factor = 0.3
		start_equipment_factor = 0.01
	}

	#Southern Command
	division = {
		name = "99. 'Wasfi Al Tal' Liwa Moudar'a"
		location = 4115 #Aqaba
		division_template = "Liwa Moudar'a"
		start_experience_factor = 0.3
		start_equipment_factor = 0.01
	}
	division = {
		name = "99. 'Al-Amir Zayd Bin Husayn' Liwa Mushat Mechaniqui"
		location = 4115 #Aqaba
		division_template = "Liwa Mushat Mechaniqui"
		start_experience_factor = 0.3
		start_equipment_factor = 0.01
	}

	#3rd King Abdullah II Armored Division
	division = {
		name = "40. 'Almalik Husayn' Liwa Moudar'a"
		location = 3309 #Zarqa
		division_template = "Liwa Moudar'a"
		start_experience_factor = 0.3
		start_equipment_factor = 0.01
	}
	division = {
		name = "60. 'Al-Amir Hasan' Liwa Moudar'a"
		location = 3309 #Zarqa
		division_template = "Liwa Moudar'a"
		start_experience_factor = 0.3
		start_equipment_factor = 0.01
	}
	division = {
		name = "91. Liwa Moudar'a Milki"
		location = 3309 #Zarqa
		division_template = "Liwa Moudar'a"
		start_experience_factor = 0.3
		start_equipment_factor = 0.01
	}

	#Joint Special Ops Command
	division = {
		name = "28. 'Al-Amir Husayn Bin Eabd Allh II' Liwa Alharis"
		location = 7151 #Amman
		division_template = "Liwa Alharis"
		start_experience_factor = 0.5
		start_equipment_factor = 0.01
	}
	division = {
		name = "30. 'Almalik Husayn Bin Eali' Liwa Midali"
		location = 7151 #Amman
		division_template = "Liwa Midali"
		start_experience_factor = 0.5
		start_equipment_factor = 0.01
	}
	division = {
		name = "37. 'Almalik Eabd Allh II' Liwa Alquwwat Alkhasa"
		location = 7151 #Amman
		division_template = "Liwa Alquwwat Alkhasa"
		start_experience_factor = 0.5
		start_equipment_factor = 0.01
	}
	division = {
		name = "81. Katiba Midali"
		location = 7151 #Amman
		division_template = "Katiba Alquwwat Alkhasa"
		start_experience_factor = 0.5
		start_equipment_factor = 0.01
	}
	division = {
		name = "91. Katiba Midali"
		location = 7151 #Amman
		division_template = "Katiba Alquwwat Alkhasa"
		start_experience_factor = 0.5
		start_equipment_factor = 0.01
	}

	#Border Guard Command
	division = {
		name = "1. Liwa Harass Houdoud"
		location = 7001 #Mafraq
		division_template = "Liwa Harass Houdoud"
		start_experience_factor = 0.3
		start_equipment_factor = 0.01
	}
	division = {
		name = "2. Liwa Harass Houdoud"
		location = 7170 #Irdib
		division_template = "Liwa Harass Houdoud"
		start_experience_factor = 0.3
		start_equipment_factor = 0.01
	}
	division = {
		name = "3. Liwa Harass Houdoud"
		location = 7151 #Amman
		division_template = "Liwa Harass Houdoud"
		start_experience_factor = 0.3
		start_equipment_factor = 0.01
	}
	division = {
		name = "4. Liwa Harass Houdoud"
		location = 4115 #Aqaba
		division_template = "Liwa Harass Houdoud"
		start_experience_factor = 0.3
		start_equipment_factor = 0.01
	}
}

instant_effect = {
	add_equipment_to_stockpile = {
		type = mbt_hull_1
		variant_name = "Challenger 1"
		amount = 402
		producer = ENG
	}

	add_equipment_to_stockpile = {
		type = mbt_hull_0
		variant_name = "M60A3"
		amount = 264
		producer = USA
	}

	add_equipment_to_stockpile = {
		type = mbt_hull_0
		variant_name = "Cheiftain"
		amount = 364
		producer = ENG
	}

	add_equipment_to_stockpile = {
		type = mbt_hull_0
		variant_name = "Centurion"
		amount = 293
		producer = ENG
	}

	add_equipment_to_stockpile = {
		type = APC_2		 #M113
		amount = 1300
		producer = USA
	}

	add_equipment_to_stockpile = {
		type = IFV_2		 #AIFV
		#version_name = "AIFV"
		amount = 500
		producer = USA
	}

	add_equipment_to_stockpile = {
		type = IFV_2		 #ACV-15
		amount = 100
		producer = TUR
	}

	add_equipment_to_stockpile = {
		type = APC_3		 #FV103 Spartan
		amount = 100
		producer = ENG
	}

	add_equipment_to_stockpile = {
		type = IFV_3		 #Ratel IFV
		amount = 300
		producer = SAF
	}

	add_equipment_to_stockpile = {
		type = IFV_3		 #BMP-2
		amount = 35
		producer = SOV
	}

	add_equipment_to_stockpile = {
		type = Rec_tank_2		 #FV107 Scimitar
		amount = 175
		producer = ENG
	}

	add_equipment_to_stockpile = {
		type = Rec_tank_1		 #FV101 Scorpion
		amount = 50
		producer = ENG
	}

	add_equipment_to_stockpile = {
		type = SP_arty_1		 #M109A2
		amount = 341
		producer = USA
	}

	add_equipment_to_stockpile = {
		type = SP_arty_0		 #M110
		#version_name = "M110"
		amount = 120
		producer = USA
	}

	add_equipment_to_stockpile = {
		type = artillery_0		 #M102
		amount = 54
		producer = USA
	}

	add_equipment_to_stockpile = {
		type = artillery_0		 #M114
		#version_name = "M114"
		amount = 54
		producer = USA
	}

	add_equipment_to_stockpile = {
		type = SP_R_arty_2		 #HIMARS
		#version_name = "HIMARS"
		amount = 12
		producer = USA
	}

	add_equipment_to_stockpile = {
		type = SP_R_arty_2		 #Hanwha-70
		amount = 20
		producer = KOR
	}

	add_equipment_to_stockpile = {
		type = SP_Anti_Air_0		 #SA-8 Osa
		amount = 48
		producer = SOV
	}

	add_equipment_to_stockpile = {
		type = SP_Anti_Air_1		 #SA-13 Strela-10
		#version_name = "SA-13 Strela-10"
		amount = 50
		producer = SOV
	}

	add_equipment_to_stockpile = {
		type = SP_Anti_Air_0		 #M163 Vulcan
		#version_name = "M163 Vulcan"
		amount = 181
		producer = USA
	}

	add_equipment_to_stockpile = {
		type = SP_Anti_Air_0		 #Flakpanzer Gepard
		amount = 60
		producer = GER
	}

	add_equipment_to_stockpile = {
		type = SP_Anti_Air_0		 #Shilka
		#version_name = "ZSU-23-4 Shilka"
		amount = 48
		producer = SOV
	}

	add_equipment_to_stockpile = {
		type = Anti_Air_2		 #SA-24 Igla-S
		amount = 182
		producer = SOV
	}

	add_equipment_to_stockpile = {
		type = Anti_Air_1		 #SA-16 Igla
		amount = 640
		producer = SOV
	}

	add_equipment_to_stockpile = {
		type = util_vehicle_2		 #Humvee
		amount = 600
		producer = USA
	}

	add_equipment_to_stockpile = {
		type = util_vehicle_3		 #Desert Iris
		amount = 450
		producer = JOR
	}

	add_equipment_to_stockpile = {
		type = util_vehicle_4		 #Al-Thalab
		amount = 200
		producer = JOR
	}

	add_equipment_to_stockpile = {
		type = util_vehicle_5		 #MaxxPro MRAP
		amount = 100
		producer = USA
	}

	add_equipment_to_stockpile = {
		type = util_vehicle_4		 #Cougar
		#version_name = "Cougar"
		amount = 149
		producer = USA
	}

	add_equipment_to_stockpile = {
		type = util_vehicle_5		 #RG-33
		amount = 39
		producer = SAF
	}

	add_equipment_to_stockpile = {
		type = APC_4		 #Matador
		amount = 50
		producer = SAF
	}

	add_equipment_to_stockpile = {
		type = Rec_tank_0		 #Ferret
		amount = 50
		producer = ENG
	}

	add_equipment_to_stockpile = {
		type = Heavy_Anti_tank_0		 #BGM-71
		amount = 624
		producer = USA
	}

	add_equipment_to_stockpile = {
		type = Heavy_Anti_tank_2		 #Kornet
		amount = 200
		producer = SOV
	}

	add_equipment_to_stockpile = {
		type = Anti_tank_0		 #M-47 Dragon
		amount = 310
		producer = USA
	}

	add_equipment_to_stockpile = {
		type = Anti_tank_2		 #FGM-148 Javelin
		amount = 192
		producer = USA
	}

	add_equipment_to_stockpile = {
		type = infantry_weapons1	 #M16
		amount = 3500
		producer = USA
	}

	add_equipment_to_stockpile = {
		type = infantry_weapons4		 #T91
		amount = 900
		producer = TAI
	}

	add_equipment_to_stockpile = {
		type = infantry_weapons3		 #T86
		amount = 900
		producer = TAI
	}

	add_equipment_to_stockpile = {
		type = infantry_weapons1		 #AK-74
		amount = 900
		producer = SOV
	}

	add_equipment_to_stockpile = {
		type = infantry_weapons		 #G3
		amount = 900
		producer = GER
	}

	add_equipment_to_stockpile = {
		type = infantry_weapons3		 #G36
		amount = 900
		producer = GER
	}

	add_equipment_to_stockpile = {
		type = infantry_weapons4		 #M4
		amount = 900
		producer = USA
	}

	add_equipment_to_stockpile = {
		type = command_control_equipment3
		amount = 1500
		producer = USA
	}

	add_equipment_to_stockpile = {
		type = MR_Fighter2		#F-16A
		amount = 46
		producer = USA
	}

	add_equipment_to_stockpile = {
		type = transport_plane1		#C-130
		amount = 7
		producer = USA
	}

	add_equipment_to_stockpile = {
		type = attack_helicopter1		#AH-1
		amount = 47
		producer = USA
	}

	add_equipment_to_stockpile = {
		type = transport_helicopter1		#UH-1
		amount = 36
		producer = USA
	}

	add_equipment_to_stockpile = {
		type = transport_helicopter2		#UH-60
		amount = 10
		producer = USA
	}

	add_equipment_to_stockpile = {
		type = transport_helicopter1
		amount = 17
		producer = FRA
	}
}