﻿units = {

	### Naval OOB ###
	fleet = {
		name = "Northern Gulf of Thailand Fleet"
		naval_base = 4433
		task_force = {
			name = "Northern Gulf of Thailand Fleet"
			location = 4433
			ship = {
				name = "Chakri Naruebet"
				definition = carrier
				start_experience_factor = 0.30
				equipment = { carrier_2 = { amount = 1 owner = SIA creator = SPR version_name = "Príncipe de Asturias" } }

			}
			ship = {
				name = "HTMS Naresuan"
				definition = frigate
				start_experience_factor = 0.30
				equipment = { missile_frigate_1 = { amount = 1 owner = SIA creator = CHI version_name = "Naresuan-class" } }
			}
			ship = {
				name = "HTMS Phutthayotfa Chulalok"
				definition = frigate
				start_experience_factor = 0.30
				equipment = { frigate_1 = { amount = 1 owner = SIA creator = USA version_name = "Knox-Class" } }
			}
			ship = {
				name = "HTMS Rattanakosin"
				definition = corvette
				start_experience_factor = 0.30
				equipment = { missile_corvette_1 = { amount = 1 owner = SIA creator = USA } }
			}
		}
	}
	fleet = {
		name = "Southern Gulf of Thailand Fleet"
		naval_base = 7236
		task_force = {
			name = "Southern Gulf of Thailand Fleet"
			location = 7236
				ship = { name = "HTMS Tapi"
				definition = corvette
				start_experience_factor = 0.30
				equipment = { corvette_1 = { amount = 1 owner = SIA creator = USA } }
			}
			ship = {
				name = "HTMS Khirirat"
				definition = corvette
				start_experience_factor = 0.30
				equipment = { corvette_1 = { amount = 1 owner = SIA creator = USA } }
			}
			ship = {
				name = "HTMS Kraburi"
				definition = frigate
				start_experience_factor = 0.30
				equipment = { frigate_2 = { amount = 1 owner = SIA creator = CHI } }
			}
			ship = {
				name = "HTMS Saiburi"
				definition = frigate
				start_experience_factor = 0.30
				equipment = { frigate_2 = { amount = 1 owner = SIA creator = CHI } }
			}
			ship = {
				name = "HTMS Phutthaloetla Naphalai"
				definition = frigate
				start_experience_factor = 0.30
				equipment = { frigate_1 = { amount = 1 owner = SIA creator = USA version_name = "Knox-Class" } }
			}
		}
	}
	fleet = {
		name = "Andaman Sea Fleet"
		naval_base = 12230
		task_force = {
			name = "Andaman Sea Fleet"
			location = 12230
			ship = {
				name = "HTMS Taksin"
				definition = frigate
				start_experience_factor = 0.30
				equipment = { missile_frigate_1 = { amount = 1 owner = SIA creator = CHI version_name = "Naresuan-class" } }
			}
			ship = {
				name = "HTMS Chao Phraya"
				definition = frigate
				start_experience_factor = 0.30
				equipment = { frigate_2 = { amount = 1 owner = SIA creator = CHI version_name = "Type 053H1Q Jianghu-IV-Class" } }
			}
			ship = {
				name = "HTMS Bangpakong"
				definition = frigate
				start_experience_factor = 0.30
				equipment = { frigate_2 = { amount = 1 owner = SIA creator = CHI version_name = "Type 053H1Q Jianghu-IV-Class" } }
			}
			ship = {
				name = "HTMS Sukhothai"
				definition = corvette
				start_experience_factor = 0.30
				equipment = { missile_corvette_1 = { amount = 1 owner = SIA creator = USA } }
			}
		}
	}
}
